%!PS-Adobe-3.0 EPSF-3.0
%%BoundingBox: 0 0 412 231
%%LanguageLevel: 2
%%Creator: OriginLab Corporation
%%Title: (C:\Users\zhang_000\Documents\trace-asbd2016\figs\sto-breakdown1.eps)
%%CreationDate: Fri May 06 18:41:29 2016
%%EndComments

/OriginLab::PSL1 128 dict dup begin def
/Save0 save def
%%BeginResource: procset OriginLab::PSL1
/wd{1 index where{pop pop pop}{bind def}ifelse}bind def
/setcmykcolor{1 sub 4 1 roll 3{3 index add neg dup 0 lt{pop 0}if 3 1 roll}repeat setrgbcolor pop}wd
/selectfont{dup type/arraytype eq{exch findfont exch makefont setfont}{exch findfont exch scalefont setfont}ifelse}wd
/xshow{1 index length 0 le{}{currentpoint exch 3 index length 1 sub 0 exch 1 exch{dup 5 index exch 1 getinterval show 3 index exch get add 2 copy exch moveto}for pop pop}ifelse pop pop}wd
/glyphshow{matrix currentmatrix exch currentfont dup/FontMatrix get concat currentpoint translate
 dup/Metrics get 2 index get 0 4 2 roll gsave/CharProcs get exch 2 copy known not{pop/.notdef}if
 get exec fill grestore moveto setmatrix}wd
/grayimage/image load def/rgbtogray{cvx exec dup length 3 idiv 1 sub 0 exch 1 exch{dup 3 mul dup 3 index exch get 255 div .3 mul exch
 1 add dup 4 index exch get 255 div .59 mul exch 1 add 4 index exch get 255 div .11 mul add add
 255 mul dup 255 gt{255}if round cvi 2 index 3 1 roll put}for dup length 3 idiv 0 exch getinterval}bind def
/colorimage{0 setgray pop pop cvlit/rgbtogray cvx 2 packedarray cvx grayimage}wd
/bd{bind def}bind def/ld{load def}bd/ed{exch def}bd/xd{cvx def}bd
/np/newpath ld/a/arc ld/m/moveto ld/l/lineto ld/c/curveto ld/rm/rmoveto ld/rl/rlineto ld/rc/rcurveto ld/cp/closepath ld/cpt/currentpoint ld
/tr/translate ld/sc/scale ld/ro/rotate ld/t/transform ld/it/itransform ld/dt/dtransform ld/idt/idtransform ld
/mtx/matrix ld/cmtx/currentmatrix ld/dmtx/defaultmatrix ld/smtx/setmatrix ld/catmtx/concatmatrix ld
/sw/setlinewidth ld/scap/setlinecap ld/sj/setlinejoin ld/sm/setmiterlimit ld/sd/setdash ld/rgb/setrgbcolor ld/crgb/currentrgbcolor ld/cmyk/setcmykcolor ld/gs/gsave ld/gr/grestore ld
/st/stroke ld/fi/fill ld/eofi/eofill ld/cl/clip ld/eocl/eoclip ld
/df/definefont ld/ff/findfont ld/sf/setfont ld/scf/scalefont ld/self/selectfont ld/cf/currentfont ld
/s/show ld/xs/xshow ld/gls/glyphshow ld/xgls{cpt 3 1 roll add exch 3 -1 roll gls m}bd
/cd/currentdict ld/i/index ld
/DrawBox{4 2 roll m 1 index 0 rl 0 exch rl neg 0 rl cp}bd
/plus.re { 6 { 3 index } repeat moveto 0 exch rlineto 0 rlineto pop pop neg 0 exch rlineto pop lineto closepath } def
/DrawBcc{4 2 roll m 2 copy 0 lt exch 0 lt xor{dup 0 exch rl exch 0 rl neg 0 exch rl}{exch dup 0 rl exch 0 exch rl neg 0 rl}ifelse cp}bd
/rectline{dup type/arraytype eq{dup length 0 exch 4 exch 4 sub{0 1 3{3 copy add get 4 1 roll pop}for pop 5 1 roll DrawBox}for pop}{DrawBox}ifelse}bd
/rectpath{dup type/arraytype eq{dup length 0 exch 4 exch 4 sub{0 1 3{3 copy add get 4 1 roll pop}for pop 5 1 roll DrawBcc}for pop}{DrawBcc}ifelse}bd
/pathproc{[{/m cvx}{/l cvx}{/c cvx}{/cp cvx}pathforall]cvx}bd
/L1img/image ld/L1idx[{0}
 {dup 7 and 3 1 roll -3 bitshift get exch 7 sub 1 mul bitshift  1 and}bind 1 index dup
 {dup 1 and 3 1 roll -1 bitshift get exch 1 sub 4 mul bitshift 15 and}bind 1 index dup dup
 {get}bind]def
/image{dup type/dicttype eq {dup/ImgCS get 0 get/Indexed eq}{false}ifelse
 {begin Width Height 8 ImageMatrix {rgb_string rgb_lookup
 cd/DataSource get dup type/filetype eq
 {mystring readstring pop}{exec}ifelse
 dup length 0 ne
 {L1idx BitsPerComponent get 0 1 Width 1 sub
 {3 copy exch exec exch 3 mul exch
 3 mul dup 5 index exch get exch 1 add dup 6 index exch get exch 1 add 6 index exch get
 7 index exch 4 index 2 add exch put 6 index exch 3 index 1 add exch put 5 index exch 2 index exch put pop
 }for pop pop pop }{pop pop pop ()}ifelse }false 3 colorimage end} {dup type/dicttype eq
 {{dup mark exch L1img pop pop}stopped{cleartomark begin Width Height BitsPerComponent ImageMatrix
 {cd/DataSource get dup type/filetype eq {mystring readstring pop}{exec}ifelse
 }false 3 colorimage end} if}{L1img}ifelse}ifelse
 }bd
/L1imgmask/imagemask ld/imagemask{dup type/dicttype eq
 {{dup mark exch L1imgmask pop pop}stopped {cleartomark begin Width Height polarityflag ImageMatrix
 {cd/DataSource get dup type/filetype eq {mystring readstring pop}{exec}ifelse
 }L1imgmask end}if}{L1imgmask}ifelse
 }bd
% Gradient function
/GradientStep 1 150 div def
/GradientStartRGB { /R1 exch def /G1 exch def /B1 exch def } def
/GradientEndRGB { /R2 exch def /G2 exch def /B2 exch def
/GradientSteps GradientLength GradientStep div def
/GradientRStep R2 R1 sub GradientSteps div def
/GradientGStep G2 G1 sub GradientSteps div def
/GradientBStep B2 B1 sub GradientSteps div def
} def
/GradientStepRGB { /R1 R1 GradientRStep add def
/G1 G1 GradientGStep add def
/B1 B1 GradientBStep add def
R1 G1 B1 setrgbcolor
} def
%%EndResource
/rectclip{np rectpath clip np}wd
/rectfill{gs np rectpath fi gr}wd
/rectstroke{gs np dup type/arraytype eq{dup length 6 eq}{false}ifelse{1 index type/arraytype eq{exch}{5 1 roll}ifelse rectline concat st}{rectline st}ifelse gr}wd
%%BeginResource: procset OriginLab::Image
/OriginLab::Image 32 dict dup begin
/BinProc{[currentfile mystring /readstring cvx /pop cvx] cvx bind}bd
/HexProc{[currentfile mystring /readhexstring cvx /pop cvx] cvx bind}bd
/Ascii85Proc{currentfile /ASCII85Decode filter}bd
/LZWA85{currentfile /ASCII85Decode filter /LZWDecode filter}bd
/ImgProcArray[/BinProc /HexProc /Ascii85Proc /LZWA85]def
/ImgDict{/ImgDict 16 dict def ImgDict dup begin /ImageType 1 def /MultipleDataSource false def end}bd
/L2Dec{{[1 0]}{[0 1]}ifelse}bd
/BegImg{ /Img_sv save def
 /ImgDir ed ImgProcArray exch get /ImgProc exch ld
 dup /polarityflag ed L2Dec /polarity ed /smoothflag ed
 tr /dx 2 index def /dy 1 index abs def sc
 string /mystring ed /bpc ed /ih ed /iw ed
 }bd
/EndImg {Img_sv restore}bd
/DoXImg{ /rgb_lookup ed /hival ed ImgDict dup begin
 [/Indexed /DeviceRGB hival rgb_lookup] /L1img where{pop/ImgCS ed}{setcolorspace}ifelse
 /rgb_string iw 3 mul string def
 /Width iw def
 /Height ih def
 /Decode [0 1 bpc{2 mul}repeat 1 sub] def
 /ImageMatrix
  ImgDir 0 eq{[iw 0 0 ih 0 0]}if
  ImgDir 1 eq{[iw neg 0 0 ih iw 0]}if
  ImgDir 2 eq{[iw 0 0 ih neg 0 ih]}if
  ImgDir 3 eq{[iw neg 0 0 ih neg iw ih]}if
  def
 /DataSource ImgProc def
 /BitsPerComponent bpc def
 /Interpolate smoothflag def
 end image}bd
/DoImg{ ImgDict dup begin
 [/DeviceRGB] /L1img where{pop/ImgCS ed}{setcolorspace}ifelse
 /rgb_string iw 3 mul string def
 /Width iw def
 /Height ih def
 /Decode [0 1 0 1 0 1] def
 /ImageMatrix
  ImgDir 0 eq{[iw 0 0 ih 0 0]}if
  ImgDir 1 eq{[iw neg 0 0 ih iw 0]}if
  ImgDir 2 eq{[iw 0 0 ih neg 0 ih]}if
  ImgDir 3 eq{[iw neg 0 0 ih neg iw ih]}if
  def
 /DataSource ImgProc def
 /BitsPerComponent 8 def
 /Interpolate smoothflag def
 end image}bd
end def
%%EndResource
/initmtx mtx cmtx def
%%BeginFont: /MC1_Arial
12 dict begin
/FontInfo 8 dict dup begin
/ItalicAngle 0 def
/UnderlinePosition -217.00 def
/UnderlineThickness 150.00 def
/StrikeoutPosition 530.00 def
/StrikeoutThickness 102.00 def
/isFixedPitch false def
end readonly def
/FontName /MC1_Arial def
/FontType 3 def
/FontMatrix [1 2048 div 0 0 1 2048 div 0 0] def
/FontBBox [-1361 -665 4096 2129] def
/Encoding 256 array def 0 1 255{Encoding exch/.notdef put}for
Encoding 32/s32 put
Encoding 48/s48 put
Encoding 49/s49 put
Encoding 50/s50 put
Encoding 51/s51 put
Encoding 65/s65 put
Encoding 66/s66 put
Encoding 68/s68 put
Encoding 69/s69 put
Encoding 73/s73 put
Encoding 82/s82 put
Encoding 83/s83 put
Encoding 84/s84 put
Encoding 97/s97 put
Encoding 99/s99 put
Encoding 100/s100 put
Encoding 101/s101 put
Encoding 103/s103 put
Encoding 105/s105 put
Encoding 107/s107 put
Encoding 109/s109 put
Encoding 110/s110 put
Encoding 111/s111 put
Encoding 114/s114 put
Encoding 116/s116 put
Encoding 117/s117 put
Encoding 119/s119 put
Encoding 120/s120 put
/BoundingBoxes 29 dict def
BoundingBoxes begin
/s32 [0 -434 569 1854] def
/s48 [0 -434 1139 1854] def
/s49 [0 -434 1139 1854] def
/s50 [0 -434 1139 1854] def
/s51 [0 -434 1139 1854] def
/s65 [-3 -434 1366 1854] def
/s66 [0 -434 1366 1854] def
/s68 [0 -434 1479 1854] def
/s69 [0 -434 1366 1854] def
/s73 [0 -434 569 1854] def
/s82 [0 -434 1479 1854] def
/s83 [0 -434 1366 1854] def
/s84 [0 -434 1251 1854] def
/s97 [0 -434 1139 1854] def
/s99 [0 -434 1024 1854] def
/s100 [0 -434 1139 1854] def
/s101 [0 -434 1139 1854] def
/s103 [0 -434 1139 1854] def
/s105 [0 -434 455 1854] def
/s107 [0 -434 1024 1854] def
/s109 [0 -434 1706 1854] def
/s110 [0 -434 1139 1854] def
/s111 [0 -434 1139 1854] def
/s114 [0 -434 682 1854] def
/s116 [0 -434 569 1854] def
/s117 [0 -434 1139 1854] def
/s119 [0 -434 1479 1854] def
/s120 [0 -434 1024 1854] def
end
/Metrics 29 dict def
 Metrics begin
/s32 569 def
/s48 1139 def
/s49 1139 def
/s50 1139 def
/s51 1139 def
/s65 1366 def
/s66 1366 def
/s68 1479 def
/s69 1366 def
/s73 569 def
/s82 1479 def
/s83 1366 def
/s84 1251 def
/s97 1139 def
/s99 1024 def
/s100 1139 def
/s101 1139 def
/s103 1139 def
/s105 455 def
/s107 1024 def
/s109 1706 def
/s110 1139 def
/s111 1139 def
/s114 682 def
/s116 569 def
/s117 1139 def
/s119 1479 def
/s120 1024 def
end
/CharProcs 29 dict def
CharProcs begin
/.notdef {} def
/s48 {
85 723 m
85 896.33 102.83 1035.83 138.5 1141.5 c
174.17 1247.17 227.17 1328.67 297.5 1386 c
367.83 1443.33 456.33 1472 563 1472 c
641.67 1472 710.67 1456.17 770 1424.5 c
829.33 1392.83 878.33 1347.17 917 1287.5 c
955.67 1227.83 986 1155.17 1008 1069.5 c
1030 983.83 1041 868.33 1041 723 c
1041 551 1023.33 412.17 988 306.5 c
952.67 200.83 899.83 119.17 829.5 61.5 c
759.17 3.83 670.33 -25 563 -25 c
421.67 -25 310.67 25.67 230 127 c
133.33 249 85 447.67 85 723 c
closepath 270 723 m
270 482.33 298.17 322.17 354.5 242.5 c
410.83 162.83 480.33 123 563 123 c
645.67 123 715.17 163 771.5 243 c
827.83 323 856 483 856 723 c
856 964.33 827.83 1124.67 771.5 1204 c
715.17 1283.33 645 1323 561 1323 c
478.33 1323 412.33 1288 363 1218 c
301 1128.67 270 963.67 270 723 c
closepath } bind def
/s49 {
763 0 m
583 0 763 0 583 0 c
583 1147 583 0 583 1147 c
539.67 1105.67 482.83 1064.33 412.5 1023 c
342.17 981.67 279 950.67 223 930 c
223 1104 223 930 223 1104 c
323.67 1151.33 411.67 1208.67 487 1276 c
562.33 1343.33 615.67 1408.67 647 1472 c
763 1472 647 1472 763 1472 c
763 0 763 1472 763 0 c
closepath } bind def
/s50 {
1031 173 m
1031 0 1031 173 1031 0 c
62 0 1031 0 62 0 c
60.67 43.33 67.67 85 83 125 c
107.67 191 147.17 256 201.5 320 c
255.83 384 334.33 458 437 542 c
596.33 672.67 704 776.17 760 852.5 c
816 928.83 844 1001 844 1069 c
844 1140.33 818.5 1200.5 767.5 1249.5 c
716.5 1298.5 650 1323 568 1323 c
481.33 1323 412 1297 360 1245 c
308 1193 281.67 1121 281 1029 c
96 1048 281 1029 96 1048 c
108.67 1186 156.33 1291.17 239 1363.5 c
321.67 1435.83 432.67 1472 572 1472 c
712.67 1472 824 1433 906 1355 c
988 1277 1029 1180.33 1029 1065 c
1029 1006.33 1017 948.67 993 892 c
969 835.33 929.17 775.67 873.5 713 c
817.83 650.33 725.33 564.33 596 455 c
488 364.33 418.67 302.83 388 270.5 c
357.33 238.17 332 205.67 312 173 c
1031 173 312 173 1031 173 c
closepath } bind def
/s51 {
86 387 m
266 411 86 387 266 411 c
286.67 309 321.83 235.5 371.5 190.5 c
421.17 145.5 481.67 123 553 123 c
637.67 123 709.17 152.33 767.5 211 c
825.83 269.67 855 342.33 855 429 c
855 511.67 828 579.83 774 633.5 c
720 687.17 651.33 714 568 714 c
534 714 491.67 707.33 441 694 c
461 852 441 694 461 852 c
473 850.67 482.67 850 490 850 c
566.67 850 635.67 870 697 910 c
758.33 950 789 1011.67 789 1095 c
789 1161 766.67 1215.67 722 1259 c
677.33 1302.33 619.67 1324 549 1324 c
479 1324 420.67 1302 374 1258 c
327.33 1214 297.33 1148 284 1060 c
104 1092 284 1060 104 1092 c
126 1212.67 176 1306.17 254 1372.5 c
332 1438.83 429 1472 545 1472 c
625 1472 698.67 1454.83 766 1420.5 c
833.33 1386.17 884.83 1339.33 920.5 1280 c
956.17 1220.67 974 1157.67 974 1091 c
974 1027.67 957 970 923 918 c
889 866 838.67 824.67 772 794 c
858.67 774 926 732.5 974 669.5 c
1022 606.5 1046 527.67 1046 433 c
1046 305 999.33 196.5 906 107.5 c
812.67 18.5 694.67 -26 552 -26 c
423.33 -26 316.5 12.33 231.5 89 c
146.5 165.67 98 265 86 387 c
closepath } bind def
/s65 {
-3 0 m
560 1466 -3 0 560 1466 c
769 1466 560 1466 769 1466 c
1369 0 769 1466 1369 0 c
1148 0 1369 0 1148 0 c
977 444 1148 0 977 444 c
364 444 977 444 364 444 c
203 0 364 444 203 0 c
-3 0 203 0 -3 0 c
closepath 420 602 m
917 602 420 602 917 602 c
764 1008 917 602 764 1008 c
717.33 1131.33 682.67 1232.67 660 1312 c
641.33 1218 615 1124.67 581 1032 c
420 602 581 1032 420 602 c
closepath } bind def
/s66 {
150 0 m
150 1466 150 0 150 1466 c
700 1466 150 1466 700 1466 c
812 1466 901.83 1451.17 969.5 1421.5 c
1037.17 1391.83 1090.17 1346.17 1128.5 1284.5 c
1166.83 1222.83 1186 1158.33 1186 1091 c
1186 1028.33 1169 969.33 1135 914 c
1101 858.67 1049.67 814 981 780 c
1069.67 754 1137.83 709.67 1185.5 647 c
1233.17 584.33 1257 510.33 1257 425 c
1257 356.33 1242.5 292.5 1213.5 233.5 c
1184.5 174.5 1148.67 129 1106 97 c
1063.33 65 1009.83 40.83 945.5 24.5 c
881.17 8.17 802.33 0 709 0 c
150 0 709 0 150 0 c
closepath 344 850 m
661 850 344 850 661 850 c
747 850 808.67 855.67 846 867 c
895.33 881.67 932.5 906 957.5 940 c
982.5 974 995 1016.67 995 1068 c
995 1116.67 983.33 1159.5 960 1196.5 c
936.67 1233.5 903.33 1258.83 860 1272.5 c
816.67 1286.17 742.33 1293 637 1293 c
344 1293 637 1293 344 1293 c
344 850 344 1293 344 850 c
closepath 344 173 m
709 173 344 173 709 173 c
771.67 173 815.67 175.33 841 180 c
885.67 188 923 201.33 953 220 c
983 238.67 1007.67 265.83 1027 301.5 c
1046.33 337.17 1056 378.33 1056 425 c
1056 479.67 1042 527.17 1014 567.5 c
986 607.83 947.17 636.17 897.5 652.5 c
847.83 668.83 776.33 677 683 677 c
344 677 683 677 344 677 c
344 173 344 677 344 173 c
closepath } bind def
/s68 {
158 0 m
158 1466 158 0 158 1466 c
663 1466 158 1466 663 1466 c
777 1466 864 1459 924 1445 c
1008 1425.67 1079.67 1390.67 1139 1340 c
1216.33 1274.67 1274.17 1191.17 1312.5 1089.5 c
1350.83 987.83 1370 871.67 1370 741 c
1370 629.67 1357 531 1331 445 c
1305 359 1271.67 287.83 1231 231.5 c
1190.33 175.17 1145.83 130.83 1097.5 98.5 c
1049.17 66.17 990.83 41.67 922.5 25 c
854.17 8.33 775.67 0 687 0 c
158 0 687 0 158 0 c
closepath 352 173 m
665 173 352 173 665 173 c
761.67 173 837.5 182 892.5 200 c
947.5 218 991.33 243.33 1024 276 c
1070 322 1105.83 383.83 1131.5 461.5 c
1157.17 539.17 1170 633.33 1170 744 c
1170 897.33 1144.83 1015.17 1094.5 1097.5 c
1044.17 1179.83 983 1235 911 1263 c
859 1283 775.33 1293 660 1293 c
352 1293 660 1293 352 1293 c
352 173 352 1293 352 173 c
closepath } bind def
/s69 {
162 0 m
162 1466 162 0 162 1466 c
1222 1466 162 1466 1222 1466 c
1222 1293 1222 1466 1222 1293 c
356 1293 1222 1293 356 1293 c
356 844 356 1293 356 844 c
1167 844 356 844 1167 844 c
1167 672 1167 844 1167 672 c
356 672 1167 672 356 672 c
356 173 356 672 356 173 c
1256 173 356 173 1256 173 c
1256 0 1256 173 1256 0 c
162 0 1256 0 162 0 c
closepath } bind def
/s73 {
191 0 m
191 1466 191 0 191 1466 c
385 1466 191 1466 385 1466 c
385 0 385 1466 385 0 c
191 0 385 0 191 0 c
closepath } bind def
/s82 {
161 0 m
161 1466 161 0 161 1466 c
811 1466 161 1466 811 1466 c
941.67 1466 1041 1452.83 1109 1426.5 c
1177 1400.17 1231.33 1353.67 1272 1287 c
1312.67 1220.33 1333 1146.67 1333 1066 c
1333 962 1299.33 874.33 1232 803 c
1164.67 731.67 1060.67 686.33 920 667 c
971.33 642.33 1010.33 618 1037 594 c
1093.67 542 1147.33 477 1198 399 c
1453 0 1198 399 1453 0 c
1209 0 1453 0 1209 0 c
1015 305 1209 0 1015 305 c
958.33 393 911.67 460.33 875 507 c
838.33 553.67 805.5 586.33 776.5 605 c
747.5 623.67 718 636.67 688 644 c
666 648.67 630 651 580 651 c
355 651 580 651 355 651 c
355 0 355 651 355 0 c
161 0 355 0 161 0 c
closepath 355 819 m
772 819 355 819 772 819 c
860.67 819 930 828.17 980 846.5 c
1030 864.83 1068 894.17 1094 934.5 c
1120 974.83 1133 1018.67 1133 1066 c
1133 1135.33 1107.83 1192.33 1057.5 1237 c
1007.17 1281.67 927.67 1304 819 1304 c
355 1304 819 1304 355 1304 c
355 819 355 1304 355 819 c
closepath } bind def
/s83 {
92 471 m
275 487 92 471 275 487 c
283.67 413.67 303.83 353.5 335.5 306.5 c
367.17 259.5 416.33 221.5 483 192.5 c
549.67 163.5 624.67 149 708 149 c
782 149 847.33 160 904 182 c
960.67 204 1002.83 234.17 1030.5 272.5 c
1058.17 310.83 1072 352.67 1072 398 c
1072 444 1058.67 484.17 1032 518.5 c
1005.33 552.83 961.33 581.67 900 605 c
860.67 620.33 773.67 644.17 639 676.5 c
504.33 708.83 410 739.33 356 768 c
286 804.67 233.83 850.17 199.5 904.5 c
165.17 958.83 148 1019.67 148 1087 c
148 1161 169 1230.17 211 1294.5 c
253 1358.83 314.33 1407.67 395 1441 c
475.67 1474.33 565.33 1491 664 1491 c
772.67 1491 868.5 1473.5 951.5 1438.5 c
1034.5 1403.5 1098.33 1352 1143 1284 c
1187.67 1216 1211.67 1139 1215 1053 c
1029 1039 1215 1053 1029 1039 c
1019 1131.67 985.17 1201.67 927.5 1249 c
869.83 1296.33 784.67 1320 672 1320 c
554.67 1320 469.17 1298.5 415.5 1255.5 c
361.83 1212.5 335 1160.67 335 1100 c
335 1047.33 354 1004 392 970 c
429.33 936 526.83 901.17 684.5 865.5 c
842.17 829.83 950.33 798.67 1009 772 c
1094.33 732.67 1157.33 682.83 1198 622.5 c
1238.67 562.17 1259 492.67 1259 414 c
1259 336 1236.67 262.5 1192 193.5 c
1147.33 124.5 1083.17 70.83 999.5 32.5 c
915.83 -5.83 821.67 -25 717 -25 c
584.33 -25 473.17 -5.67 383.5 33 c
293.83 71.67 223.5 129.83 172.5 207.5 c
121.5 285.17 94.67 373 92 471 c
closepath } bind def
/s84 {
531 0 m
531 1293 531 0 531 1293 c
48 1293 531 1293 48 1293 c
48 1466 48 1293 48 1466 c
1210 1466 48 1466 1210 1466 c
1210 1293 1210 1466 1210 1293 c
725 1293 1210 1293 725 1293 c
725 0 725 1293 725 0 c
531 0 725 0 531 0 c
closepath } bind def
/s97 {
828 131 m
761.33 74.33 697.17 34.33 635.5 11 c
573.83 -12.33 507.67 -24 437 -24 c
320.33 -24 230.67 4.5 168 61.5 c
105.33 118.5 74 191.33 74 280 c
74 332 85.83 379.5 109.5 422.5 c
133.17 465.5 164.17 500 202.5 526 c
240.83 552 284 571.67 332 585 c
367.33 594.33 420.67 603.33 492 612 c
637.33 629.33 744.33 650 813 674 c
813.67 698.67 814 714.33 814 721 c
814 794.33 797 846 763 876 c
717 916.67 648.67 937 558 937 c
473.33 937 410.83 922.17 370.5 892.5 c
330.17 862.83 300.33 810.33 281 735 c
105 759 281 735 105 759 c
121 834.33 147.33 895.17 184 941.5 c
220.67 987.83 273.67 1023.5 343 1048.5 c
412.33 1073.5 492.67 1086 584 1086 c
674.67 1086 748.33 1075.33 805 1054 c
861.67 1032.67 903.33 1005.83 930 973.5 c
956.67 941.17 975.33 900.33 986 851 c
992 820.33 995 765 995 685 c
995 445 995 685 995 445 c
995 277.67 998.83 171.83 1006.5 127.5 c
1014.17 83.17 1029.33 40.67 1052 0 c
864 0 1052 0 864 0 c
845.33 37.33 833.33 81 828 131 c
closepath 813 533 m
747.67 506.33 649.67 483.67 519 465 c
445 454.33 392.67 442.33 362 429 c
331.33 415.67 307.67 396.17 291 370.5 c
274.33 344.83 266 316.33 266 285 c
266 237 284.17 197 320.5 165 c
356.83 133 410 117 480 117 c
549.33 117 611 132.17 665 162.5 c
719 192.83 758.67 234.33 784 287 c
803.33 327.67 813 387.67 813 467 c
813 533 813 467 813 533 c
closepath } bind def
/s99 {
828 389 m
1005 366 828 389 1005 366 c
985.67 244 936.17 148.5 856.5 79.5 c
776.83 10.5 679 -24 563 -24 c
417.67 -24 300.83 23.5 212.5 118.5 c
124.17 213.5 80 349.67 80 527 c
80 641.67 99 742 137 828 c
175 914 232.83 978.5 310.5 1021.5 c
388.17 1064.5 472.67 1086 564 1086 c
679.33 1086 773.67 1056.83 847 998.5 c
920.33 940.17 967.33 857.33 988 750 c
813 723 988 750 813 723 c
796.33 794.33 766.83 848 724.5 884 c
682.17 920 631 938 571 938 c
480.33 938 406.67 905.5 350 840.5 c
293.33 775.5 265 672.67 265 532 c
265 389.33 292.33 285.67 347 221 c
401.67 156.33 473 124 561 124 c
631.67 124 690.67 145.67 738 189 c
785.33 232.33 815.33 299 828 389 c
closepath } bind def
/s100 {
824 0 m
824 134 824 0 824 134 c
756.67 28.67 657.67 -24 527 -24 c
442.33 -24 364.5 -0.67 293.5 46 c
222.5 92.67 167.5 157.83 128.5 241.5 c
89.5 325.17 70 421.33 70 530 c
70 636 87.67 732.17 123 818.5 c
158.33 904.83 211.33 971 282 1017 c
352.67 1063 431.67 1086 519 1086 c
583 1086 640 1072.5 690 1045.5 c
740 1018.5 780.67 983.33 812 940 c
812 1466 812 940 812 1466 c
991 1466 812 1466 991 1466 c
991 0 991 1466 991 0 c
824 0 991 0 824 0 c
closepath 255 530 m
255 394 283.67 292.33 341 225 c
398.33 157.67 466 124 544 124 c
622.67 124 689.5 156.17 744.5 220.5 c
799.5 284.83 827 383 827 515 c
827 660.33 799 767 743 835 c
687 903 618 937 536 937 c
456 937 389.17 904.33 335.5 839 c
281.83 773.67 255 670.67 255 530 c
closepath } bind def
/s101 {
862 342 m
1048 319 862 342 1048 319 c
1018.67 210.33 964.33 126 885 66 c
805.67 6 704.33 -24 581 -24 c
425.67 -24 302.5 23.83 211.5 119.5 c
120.5 215.17 75 349.33 75 522 c
75 700.67 121 839.33 213 938 c
305 1036.67 424.33 1086 571 1086 c
713 1086 829 1037.67 919 941 c
1009 844.33 1054 708.33 1054 533 c
1054 522.33 1053.67 506.33 1053 485 c
261 485 1053 485 261 485 c
267.67 368.33 300.67 279 360 217 c
419.33 155 493.33 124 582 124 c
648 124 704.33 141.33 751 176 c
797.67 210.67 834.67 266 862 342 c
closepath 271 633 m
864 633 271 633 864 633 c
856 722.33 833.33 789.33 796 834 c
738.67 903.33 664.33 938 573 938 c
490.33 938 420.83 910.33 364.5 855 c
308.17 799.67 277 725.67 271 633 c
closepath } bind def
/s103 {
102 -88 m
277 -114 102 -88 277 -114 c
284.33 -168 304.67 -207.33 338 -232 c
382.67 -265.33 443.67 -282 521 -282 c
604.33 -282 668.67 -265.33 714 -232 c
759.33 -198.67 790 -152 806 -92 c
815.33 -55.33 819.67 21.67 819 139 c
740.33 46.33 642.33 0 525 0 c
379 0 266 52.67 186 158 c
106 263.33 66 389.67 66 537 c
66 638.33 84.33 731.83 121 817.5 c
157.67 903.17 210.83 969.33 280.5 1016 c
350.17 1062.67 432 1086 526 1086 c
651.33 1086 754.67 1035.33 836 934 c
836 1062 836 934 836 1062 c
1002 1062 836 1062 1002 1062 c
1002 144 1002 1062 1002 144 c
1002 -21.33 985.17 -138.5 951.5 -207.5 c
917.83 -276.5 864.5 -331 791.5 -371 c
718.5 -411 628.67 -431 522 -431 c
395.33 -431 293 -402.5 215 -345.5 c
137 -288.5 99.33 -202.67 102 -88 c
closepath 251 550 m
251 410.67 278.67 309 334 245 c
389.33 181 458.67 149 542 149 c
624.67 149 694 180.83 750 244.5 c
806 308.17 834 408 834 544 c
834 674 805.17 772 747.5 838 c
689.83 904 620.33 937 539 937 c
459 937 391 904.5 335 839.5 c
279 774.5 251 678 251 550 c
closepath } bind def
/s105 {
136 1259 m
136 1466 136 1259 136 1466 c
316 1466 136 1466 316 1466 c
316 1259 316 1466 316 1259 c
136 1259 316 1259 136 1259 c
closepath 136 0 m
136 1062 136 0 136 1062 c
316 1062 136 1062 316 1062 c
316 0 316 1062 316 0 c
136 0 316 0 136 0 c
closepath } bind def
/s107 {
136 0 m
136 1466 136 0 136 1466 c
316 1466 136 1466 316 1466 c
316 630 316 1466 316 630 c
742 1062 316 630 742 1062 c
975 1062 742 1062 975 1062 c
569 668 975 1062 569 668 c
1016 0 569 668 1016 0 c
794 0 1016 0 794 0 c
443 543 794 0 443 543 c
316 421 443 543 316 421 c
316 0 316 421 316 0 c
136 0 316 0 136 0 c
closepath } bind def
/s109 {
135 0 m
135 1062 135 0 135 1062 c
296 1062 135 1062 296 1062 c
296 913 296 1062 296 913 c
329.33 965 373.67 1006.83 429 1038.5 c
484.33 1070.17 547.33 1086 618 1086 c
696.67 1086 761.17 1069.67 811.5 1037 c
861.83 1004.33 897.33 958.67 918 900 c
1002 1024 1111.33 1086 1246 1086 c
1351.33 1086 1432.33 1056.83 1489 998.5 c
1545.67 940.17 1574 850.33 1574 729 c
1574 0 1574 729 1574 0 c
1395 0 1574 0 1395 0 c
1395 669 1395 0 1395 669 c
1395 741 1389.17 792.83 1377.5 824.5 c
1365.83 856.17 1344.67 881.67 1314 901 c
1283.33 920.33 1247.33 930 1206 930 c
1131.33 930 1069.33 905.17 1020 855.5 c
970.67 805.83 946 726.33 946 617 c
946 0 946 617 946 0 c
766 0 946 0 766 0 c
766 690 766 0 766 690 c
766 770 751.33 830 722 870 c
692.67 910 644.67 930 578 930 c
527.33 930 480.5 916.67 437.5 890 c
394.5 863.33 363.33 824.33 344 773 c
324.67 721.67 315 647.67 315 551 c
315 0 315 551 315 0 c
135 0 315 0 135 0 c
closepath } bind def
/s110 {
135 0 m
135 1062 135 0 135 1062 c
297 1062 135 1062 297 1062 c
297 911 297 1062 297 911 c
375 1027.67 487.67 1086 635 1086 c
699 1086 757.83 1074.5 811.5 1051.5 c
865.17 1028.5 905.33 998.33 932 961 c
958.67 923.67 977.33 879.33 988 828 c
994.67 794.67 998 736.33 998 653 c
998 0 998 653 998 0 c
818 0 998 0 818 0 c
818 646 818 0 818 646 c
818 719.33 811 774.17 797 810.5 c
783 846.83 758.17 875.83 722.5 897.5 c
686.83 919.17 645 930 597 930 c
520.33 930 454.17 905.67 398.5 857 c
342.83 808.33 315 716 315 580 c
315 0 315 580 315 0 c
135 0 315 0 135 0 c
closepath } bind def
/s111 {
68 531 m
68 727.67 122.67 873.33 232 968 c
323.33 1046.67 434.67 1086 566 1086 c
712 1086 831.33 1038.17 924 942.5 c
1016.67 846.83 1063 714.67 1063 546 c
1063 409.33 1042.5 301.83 1001.5 223.5 c
960.5 145.17 900.83 84.33 822.5 41 c
744.17 -2.33 658.67 -24 566 -24 c
417.33 -24 297.17 23.67 205.5 119 c
113.83 214.33 68 351.67 68 531 c
closepath 253 531 m
253 395 282.67 293.17 342 225.5 c
401.33 157.83 476 124 566 124 c
655.33 124 729.67 158 789 226 c
848.33 294 878 397.67 878 537 c
878 668.33 848.17 767.83 788.5 835.5 c
728.83 903.17 654.67 937 566 937 c
476 937 401.33 903.33 342 836 c
282.67 768.67 253 667 253 531 c
closepath } bind def
/s114 {
133 0 m
133 1062 133 0 133 1062 c
295 1062 133 1062 295 1062 c
295 901 295 1062 295 901 c
336.33 976.33 374.5 1026 409.5 1050 c
444.5 1074 483 1086 525 1086 c
585.67 1086 647.33 1066.67 710 1028 c
648 861 710 1028 648 861 c
604 887 560 900 516 900 c
476.67 900 441.33 888.17 410 864.5 c
378.67 840.83 356.33 808 343 766 c
323 702 313 632 313 556 c
313 0 313 556 313 0 c
133 0 313 0 133 0 c
closepath } bind def
/s116 {
528 161 m
554 2 528 161 554 2 c
503.33 -8.67 458 -14 418 -14 c
352.67 -14 302 -3.67 266 17 c
230 37.67 204.67 64.83 190 98.5 c
175.33 132.17 168 203 168 311 c
168 922 168 311 168 922 c
36 922 168 922 36 922 c
36 1062 36 922 36 1062 c
168 1062 36 1062 168 1062 c
168 1325 168 1062 168 1325 c
347 1433 168 1325 347 1433 c
347 1062 347 1433 347 1062 c
528 1062 347 1062 528 1062 c
528 922 528 1062 528 922 c
347 922 528 922 347 922 c
347 301 347 922 347 301 c
347 249.67 350.17 216.67 356.5 202 c
362.83 187.33 373.17 175.67 387.5 167 c
401.83 158.33 422.33 154 449 154 c
469 154 495.33 156.33 528 161 c
closepath } bind def
/s117 {
831 0 m
831 156 831 0 831 156 c
748.33 36 636 -24 494 -24 c
431.33 -24 372.83 -12 318.5 12 c
264.17 36 223.83 66.17 197.5 102.5 c
171.17 138.83 152.67 183.33 142 236 c
134.67 271.33 131 327.33 131 404 c
131 1062 131 404 131 1062 c
311 1062 131 1062 311 1062 c
311 473 311 1062 311 473 c
311 379 314.67 315.67 322 283 c
333.33 235.67 357.33 198.5 394 171.5 c
430.67 144.5 476 131 530 131 c
584 131 634.67 144.83 682 172.5 c
729.33 200.17 762.83 237.83 782.5 285.5 c
802.17 333.17 812 402.33 812 493 c
812 1062 812 493 812 1062 c
992 1062 812 1062 992 1062 c
992 0 992 1062 992 0 c
831 0 992 0 831 0 c
closepath } bind def
/s119 {
331 0 m
6 1062 331 0 6 1062 c
192 1062 6 1062 192 1062 c
361 449 192 1062 361 449 c
424 221 361 449 424 221 c
426.67 232.33 445 305.33 479 440 c
648 1062 479 440 648 1062 c
833 1062 648 1062 833 1062 c
992 446 833 1062 992 446 c
1045 243 992 446 1045 243 c
1106 448 1045 243 1106 448 c
1288 1062 1106 448 1288 1062 c
1463 1062 1288 1062 1463 1062 c
1131 0 1463 1062 1131 0 c
944 0 1131 0 944 0 c
775 636 944 0 775 636 c
734 817 775 636 734 817 c
519 0 734 817 519 0 c
331 0 519 0 331 0 c
closepath } bind def
/s120 {
15 0 m
403 552 15 0 403 552 c
44 1062 403 552 44 1062 c
269 1062 44 1062 269 1062 c
432 813 269 1062 432 813 c
462.67 765.67 487.33 726 506 694 c
535.33 738 562.33 777 587 811 c
766 1062 587 811 766 1062 c
981 1062 766 1062 981 1062 c
614 562 981 1062 614 562 c
1009 0 614 562 1009 0 c
788 0 1009 0 788 0 c
570 330 788 0 570 330 c
512 419 570 330 512 419 c
233 0 512 419 233 0 c
15 0 233 0 15 0 c
closepath } bind def
end
/BuildGlyph {
 exch dup /Metrics get 2 index get 0 setcharwidth
/CharProcs get exch 2 copy known not{pop/.notdef}if get exec fill}bind def
/BuildChar {
1 index /Encoding get exch get
1 index /BuildGlyph get exec
} bind def
currentdict end /MC1_Arial exch definefont pop
%%EndFont
%%BeginFont: /MC2_Arial
12 dict begin
/FontInfo 8 dict dup begin
/ItalicAngle 0 def
/UnderlinePosition -217.00 def
/UnderlineThickness 150.00 def
/StrikeoutPosition 530.00 def
/StrikeoutThickness 102.00 def
/isFixedPitch false def
end readonly def
/FontName /MC2_Arial def
/FontType 3 def
/FontMatrix [1 2048 div 0 0 1 2048 div 0 0] def
/FontBBox [-1361 -665 4096 2129] def
/Encoding 256 array def 0 1 255{Encoding exch/.notdef put}for
Encoding 32/s32 put
Encoding 46/s46 put
Encoding 48/s48 put
Encoding 49/s49 put
Encoding 53/s53 put
Encoding 66/s66 put
Encoding 68/s68 put
Encoding 73/s73 put
Encoding 85/s85 put
Encoding 97/s97 put
Encoding 98/s98 put
Encoding 99/s99 put
Encoding 100/s100 put
Encoding 101/s101 put
Encoding 104/s104 put
Encoding 105/s105 put
Encoding 108/s108 put
Encoding 114/s114 put
Encoding 115/s115 put
Encoding 117/s117 put
Encoding 118/s118 put
Encoding 119/s119 put
Encoding 121/s121 put
/BoundingBoxes 24 dict def
BoundingBoxes begin
/s32 [0 -434 569 1854] def
/s46 [0 -434 569 1854] def
/s48 [0 -434 1139 1854] def
/s49 [0 -434 1139 1854] def
/s53 [0 -434 1139 1854] def
/s66 [0 -434 1366 1854] def
/s68 [0 -434 1479 1854] def
/s73 [0 -434 569 1854] def
/s85 [0 -434 1479 1854] def
/s97 [0 -434 1139 1854] def
/s98 [0 -434 1139 1854] def
/s99 [0 -434 1024 1854] def
/s100 [0 -434 1139 1854] def
/s101 [0 -434 1139 1854] def
/s104 [0 -434 1139 1854] def
/s105 [0 -434 455 1854] def
/s108 [0 -434 455 1854] def
/s114 [0 -434 682 1854] def
/s115 [0 -434 1024 1854] def
/s117 [0 -434 1139 1854] def
/s118 [0 -434 1024 1854] def
/s119 [0 -434 1479 1854] def
/s121 [0 -434 1024 1854] def
end
/Metrics 24 dict def
 Metrics begin
/s32 569 def
/s46 569 def
/s48 1139 def
/s49 1139 def
/s53 1139 def
/s66 1366 def
/s68 1479 def
/s73 569 def
/s85 1479 def
/s97 1139 def
/s98 1139 def
/s99 1024 def
/s100 1139 def
/s101 1139 def
/s104 1139 def
/s105 455 def
/s108 455 def
/s114 682 def
/s115 1024 def
/s117 1139 def
/s118 1024 def
/s119 1479 def
/s121 1024 def
end
/CharProcs 24 dict def
CharProcs begin
/.notdef {} def
/s46 {
186 0 m
186 205 186 0 186 205 c
391 205 186 205 391 205 c
391 0 391 205 391 0 c
186 0 391 0 186 0 c
closepath } bind def
/s48 {
85 723 m
85 896.33 102.83 1035.83 138.5 1141.5 c
174.17 1247.17 227.17 1328.67 297.5 1386 c
367.83 1443.33 456.33 1472 563 1472 c
641.67 1472 710.67 1456.17 770 1424.5 c
829.33 1392.83 878.33 1347.17 917 1287.5 c
955.67 1227.83 986 1155.17 1008 1069.5 c
1030 983.83 1041 868.33 1041 723 c
1041 551 1023.33 412.17 988 306.5 c
952.67 200.83 899.83 119.17 829.5 61.5 c
759.17 3.83 670.33 -25 563 -25 c
421.67 -25 310.67 25.67 230 127 c
133.33 249 85 447.67 85 723 c
closepath 270 723 m
270 482.33 298.17 322.17 354.5 242.5 c
410.83 162.83 480.33 123 563 123 c
645.67 123 715.17 163 771.5 243 c
827.83 323 856 483 856 723 c
856 964.33 827.83 1124.67 771.5 1204 c
715.17 1283.33 645 1323 561 1323 c
478.33 1323 412.33 1288 363 1218 c
301 1128.67 270 963.67 270 723 c
closepath } bind def
/s49 {
763 0 m
583 0 763 0 583 0 c
583 1147 583 0 583 1147 c
539.67 1105.67 482.83 1064.33 412.5 1023 c
342.17 981.67 279 950.67 223 930 c
223 1104 223 930 223 1104 c
323.67 1151.33 411.67 1208.67 487 1276 c
562.33 1343.33 615.67 1408.67 647 1472 c
763 1472 647 1472 763 1472 c
763 0 763 1472 763 0 c
closepath } bind def
/s53 {
85 384 m
274 400 85 384 274 400 c
288 308 320.5 238.83 371.5 192.5 c
422.5 146.17 484 123 556 123 c
642.67 123 716 155.67 776 221 c
836 286.33 866 373 866 481 c
866 583.67 837.17 664.67 779.5 724 c
721.83 783.33 646.33 813 553 813 c
495 813 442.67 799.83 396 773.5 c
349.33 747.17 312.67 713 286 671 c
117 693 286 671 117 693 c
259 1446 117 693 259 1446 c
988 1446 259 1446 988 1446 c
988 1274 988 1446 988 1274 c
403 1274 988 1274 403 1274 c
324 880 403 1274 324 880 c
412 941.33 504.33 972 601 972 c
729 972 837 927.67 925 839 c
1013 750.33 1057 636.33 1057 497 c
1057 364.33 1018.33 249.67 941 153 c
847 34.33 718.67 -25 556 -25 c
422.67 -25 313.83 12.33 229.5 87 c
145.17 161.67 97 260.67 85 384 c
closepath } bind def
/s66 {
150 0 m
150 1466 150 0 150 1466 c
700 1466 150 1466 700 1466 c
812 1466 901.83 1451.17 969.5 1421.5 c
1037.17 1391.83 1090.17 1346.17 1128.5 1284.5 c
1166.83 1222.83 1186 1158.33 1186 1091 c
1186 1028.33 1169 969.33 1135 914 c
1101 858.67 1049.67 814 981 780 c
1069.67 754 1137.83 709.67 1185.5 647 c
1233.17 584.33 1257 510.33 1257 425 c
1257 356.33 1242.5 292.5 1213.5 233.5 c
1184.5 174.5 1148.67 129 1106 97 c
1063.33 65 1009.83 40.83 945.5 24.5 c
881.17 8.17 802.33 0 709 0 c
150 0 709 0 150 0 c
closepath 344 850 m
661 850 344 850 661 850 c
747 850 808.67 855.67 846 867 c
895.33 881.67 932.5 906 957.5 940 c
982.5 974 995 1016.67 995 1068 c
995 1116.67 983.33 1159.5 960 1196.5 c
936.67 1233.5 903.33 1258.83 860 1272.5 c
816.67 1286.17 742.33 1293 637 1293 c
344 1293 637 1293 344 1293 c
344 850 344 1293 344 850 c
closepath 344 173 m
709 173 344 173 709 173 c
771.67 173 815.67 175.33 841 180 c
885.67 188 923 201.33 953 220 c
983 238.67 1007.67 265.83 1027 301.5 c
1046.33 337.17 1056 378.33 1056 425 c
1056 479.67 1042 527.17 1014 567.5 c
986 607.83 947.17 636.17 897.5 652.5 c
847.83 668.83 776.33 677 683 677 c
344 677 683 677 344 677 c
344 173 344 677 344 173 c
closepath } bind def
/s68 {
158 0 m
158 1466 158 0 158 1466 c
663 1466 158 1466 663 1466 c
777 1466 864 1459 924 1445 c
1008 1425.67 1079.67 1390.67 1139 1340 c
1216.33 1274.67 1274.17 1191.17 1312.5 1089.5 c
1350.83 987.83 1370 871.67 1370 741 c
1370 629.67 1357 531 1331 445 c
1305 359 1271.67 287.83 1231 231.5 c
1190.33 175.17 1145.83 130.83 1097.5 98.5 c
1049.17 66.17 990.83 41.67 922.5 25 c
854.17 8.33 775.67 0 687 0 c
158 0 687 0 158 0 c
closepath 352 173 m
665 173 352 173 665 173 c
761.67 173 837.5 182 892.5 200 c
947.5 218 991.33 243.33 1024 276 c
1070 322 1105.83 383.83 1131.5 461.5 c
1157.17 539.17 1170 633.33 1170 744 c
1170 897.33 1144.83 1015.17 1094.5 1097.5 c
1044.17 1179.83 983 1235 911 1263 c
859 1283 775.33 1293 660 1293 c
352 1293 660 1293 352 1293 c
352 173 352 1293 352 173 c
closepath } bind def
/s73 {
191 0 m
191 1466 191 0 191 1466 c
385 1466 191 1466 385 1466 c
385 0 385 1466 385 0 c
191 0 385 0 191 0 c
closepath } bind def
/s85 {
1120 1466 m
1314 1466 1120 1466 1314 1466 c
1314 619 1314 1466 1314 619 c
1314 471.67 1297.33 354.67 1264 268 c
1230.67 181.33 1170.5 110.83 1083.5 56.5 c
996.5 2.17 882.33 -25 741 -25 c
603.67 -25 491.33 -1.33 404 46 c
316.67 93.33 254.33 161.83 217 251.5 c
179.67 341.17 161 463.67 161 619 c
161 1466 161 619 161 1466 c
355 1466 161 1466 355 1466 c
355 620 355 1466 355 620 c
355 492.67 366.83 398.83 390.5 338.5 c
414.17 278.17 454.83 231.67 512.5 199 c
570.17 166.33 640.67 150 724 150 c
866.67 150 968.33 182.33 1029 247 c
1089.67 311.67 1120 436 1120 620 c
1120 1466 1120 620 1120 1466 c
closepath } bind def
/s97 {
828 131 m
761.33 74.33 697.17 34.33 635.5 11 c
573.83 -12.33 507.67 -24 437 -24 c
320.33 -24 230.67 4.5 168 61.5 c
105.33 118.5 74 191.33 74 280 c
74 332 85.83 379.5 109.5 422.5 c
133.17 465.5 164.17 500 202.5 526 c
240.83 552 284 571.67 332 585 c
367.33 594.33 420.67 603.33 492 612 c
637.33 629.33 744.33 650 813 674 c
813.67 698.67 814 714.33 814 721 c
814 794.33 797 846 763 876 c
717 916.67 648.67 937 558 937 c
473.33 937 410.83 922.17 370.5 892.5 c
330.17 862.83 300.33 810.33 281 735 c
105 759 281 735 105 759 c
121 834.33 147.33 895.17 184 941.5 c
220.67 987.83 273.67 1023.5 343 1048.5 c
412.33 1073.5 492.67 1086 584 1086 c
674.67 1086 748.33 1075.33 805 1054 c
861.67 1032.67 903.33 1005.83 930 973.5 c
956.67 941.17 975.33 900.33 986 851 c
992 820.33 995 765 995 685 c
995 445 995 685 995 445 c
995 277.67 998.83 171.83 1006.5 127.5 c
1014.17 83.17 1029.33 40.67 1052 0 c
864 0 1052 0 864 0 c
845.33 37.33 833.33 81 828 131 c
closepath 813 533 m
747.67 506.33 649.67 483.67 519 465 c
445 454.33 392.67 442.33 362 429 c
331.33 415.67 307.67 396.17 291 370.5 c
274.33 344.83 266 316.33 266 285 c
266 237 284.17 197 320.5 165 c
356.83 133 410 117 480 117 c
549.33 117 611 132.17 665 162.5 c
719 192.83 758.67 234.33 784 287 c
803.33 327.67 813 387.67 813 467 c
813 533 813 467 813 533 c
closepath } bind def
/s98 {
301 0 m
134 0 301 0 134 0 c
134 1466 134 0 134 1466 c
314 1466 134 1466 314 1466 c
314 943 314 1466 314 943 c
390 1038.33 487 1086 605 1086 c
670.33 1086 732.17 1072.83 790.5 1046.5 c
848.83 1020.17 896.83 983.17 934.5 935.5 c
972.17 887.83 1001.67 830.33 1023 763 c
1044.33 695.67 1055 623.67 1055 547 c
1055 365 1010 224.33 920 125 c
830 25.67 722 -24 596 -24 c
470.67 -24 372.33 28.33 301 133 c
301 0 301 133 301 0 c
closepath 299 539 m
299 411.67 316.33 319.67 351 263 c
407.67 170.33 484.33 124 581 124 c
659.67 124 727.67 158.17 785 226.5 c
842.33 294.83 871 396.67 871 532 c
871 670.67 843.5 773 788.5 839 c
733.5 905 667 938 589 938 c
510.33 938 442.33 903.83 385 835.5 c
327.67 767.17 299 668.33 299 539 c
closepath } bind def
/s99 {
828 389 m
1005 366 828 389 1005 366 c
985.67 244 936.17 148.5 856.5 79.5 c
776.83 10.5 679 -24 563 -24 c
417.67 -24 300.83 23.5 212.5 118.5 c
124.17 213.5 80 349.67 80 527 c
80 641.67 99 742 137 828 c
175 914 232.83 978.5 310.5 1021.5 c
388.17 1064.5 472.67 1086 564 1086 c
679.33 1086 773.67 1056.83 847 998.5 c
920.33 940.17 967.33 857.33 988 750 c
813 723 988 750 813 723 c
796.33 794.33 766.83 848 724.5 884 c
682.17 920 631 938 571 938 c
480.33 938 406.67 905.5 350 840.5 c
293.33 775.5 265 672.67 265 532 c
265 389.33 292.33 285.67 347 221 c
401.67 156.33 473 124 561 124 c
631.67 124 690.67 145.67 738 189 c
785.33 232.33 815.33 299 828 389 c
closepath } bind def
/s100 {
824 0 m
824 134 824 0 824 134 c
756.67 28.67 657.67 -24 527 -24 c
442.33 -24 364.5 -0.67 293.5 46 c
222.5 92.67 167.5 157.83 128.5 241.5 c
89.5 325.17 70 421.33 70 530 c
70 636 87.67 732.17 123 818.5 c
158.33 904.83 211.33 971 282 1017 c
352.67 1063 431.67 1086 519 1086 c
583 1086 640 1072.5 690 1045.5 c
740 1018.5 780.67 983.33 812 940 c
812 1466 812 940 812 1466 c
991 1466 812 1466 991 1466 c
991 0 991 1466 991 0 c
824 0 991 0 824 0 c
closepath 255 530 m
255 394 283.67 292.33 341 225 c
398.33 157.67 466 124 544 124 c
622.67 124 689.5 156.17 744.5 220.5 c
799.5 284.83 827 383 827 515 c
827 660.33 799 767 743 835 c
687 903 618 937 536 937 c
456 937 389.17 904.33 335.5 839 c
281.83 773.67 255 670.67 255 530 c
closepath } bind def
/s101 {
862 342 m
1048 319 862 342 1048 319 c
1018.67 210.33 964.33 126 885 66 c
805.67 6 704.33 -24 581 -24 c
425.67 -24 302.5 23.83 211.5 119.5 c
120.5 215.17 75 349.33 75 522 c
75 700.67 121 839.33 213 938 c
305 1036.67 424.33 1086 571 1086 c
713 1086 829 1037.67 919 941 c
1009 844.33 1054 708.33 1054 533 c
1054 522.33 1053.67 506.33 1053 485 c
261 485 1053 485 261 485 c
267.67 368.33 300.67 279 360 217 c
419.33 155 493.33 124 582 124 c
648 124 704.33 141.33 751 176 c
797.67 210.67 834.67 266 862 342 c
closepath 271 633 m
864 633 271 633 864 633 c
856 722.33 833.33 789.33 796 834 c
738.67 903.33 664.33 938 573 938 c
490.33 938 420.83 910.33 364.5 855 c
308.17 799.67 277 725.67 271 633 c
closepath } bind def
/s104 {
135 0 m
135 1466 135 0 135 1466 c
315 1466 135 1466 315 1466 c
315 940 315 1466 315 940 c
399 1037.33 505 1086 633 1086 c
711.67 1086 780 1070.5 838 1039.5 c
896 1008.5 937.5 965.67 962.5 911 c
987.5 856.33 1000 777 1000 673 c
1000 0 1000 673 1000 0 c
820 0 1000 0 820 0 c
820 673 820 0 820 673 c
820 763 800.5 828.5 761.5 869.5 c
722.5 910.5 667.33 931 596 931 c
542.67 931 492.5 917.17 445.5 889.5 c
398.5 861.83 365 824.33 345 777 c
325 729.67 315 664.33 315 581 c
315 0 315 581 315 0 c
135 0 315 0 135 0 c
closepath } bind def
/s105 {
136 1259 m
136 1466 136 1259 136 1466 c
316 1466 136 1466 316 1466 c
316 1259 316 1466 316 1259 c
136 1259 316 1259 136 1259 c
closepath 136 0 m
136 1062 136 0 136 1062 c
316 1062 136 1062 316 1062 c
316 0 316 1062 316 0 c
136 0 316 0 136 0 c
closepath } bind def
/s108 {
131 0 m
131 1466 131 0 131 1466 c
311 1466 131 1466 311 1466 c
311 0 311 1466 311 0 c
131 0 311 0 131 0 c
closepath } bind def
/s114 {
133 0 m
133 1062 133 0 133 1062 c
295 1062 133 1062 295 1062 c
295 901 295 1062 295 901 c
336.33 976.33 374.5 1026 409.5 1050 c
444.5 1074 483 1086 525 1086 c
585.67 1086 647.33 1066.67 710 1028 c
648 861 710 1028 648 861 c
604 887 560 900 516 900 c
476.67 900 441.33 888.17 410 864.5 c
378.67 840.83 356.33 808 343 766 c
323 702 313 632 313 556 c
313 0 313 556 313 0 c
133 0 313 0 133 0 c
closepath } bind def
/s115 {
63 317 m
241 345 63 317 241 345 c
251 273.67 278.83 219 324.5 181 c
370.17 143 434 124 516 124 c
598.67 124 660 140.83 700 174.5 c
740 208.17 760 247.67 760 293 c
760 333.67 742.33 365.67 707 389 c
682.33 405 621 425.33 523 450 c
391 483.33 299.5 512.17 248.5 536.5 c
197.5 560.83 158.83 594.5 132.5 637.5 c
106.17 680.5 93 728 93 780 c
93 827.33 103.83 871.17 125.5 911.5 c
147.17 951.83 176.67 985.33 214 1012 c
242 1032.67 280.17 1050.17 328.5 1064.5 c
376.83 1078.83 428.67 1086 484 1086 c
567.33 1086 640.5 1074 703.5 1050 c
766.5 1026 813 993.5 843 952.5 c
873 911.5 893.67 856.67 905 788 c
729 764 905 788 729 764 c
721 818.67 697.83 861.33 659.5 892 c
621.17 922.67 567 938 497 938 c
414.33 938 355.33 924.33 320 897 c
284.67 869.67 267 837.67 267 801 c
267 777.67 274.33 756.67 289 738 c
303.67 718.67 326.67 702.67 358 690 c
376 683.33 429 668 517 644 c
644.33 610 733.17 582.17 783.5 560.5 c
833.83 538.83 873.33 507.33 902 466 c
930.67 424.67 945 373.33 945 312 c
945 252 927.5 195.5 892.5 142.5 c
857.5 89.5 807 48.5 741 19.5 c
675 -9.5 600.33 -24 517 -24 c
379 -24 273.83 4.67 201.5 62 c
129.17 119.33 83 204.33 63 317 c
closepath } bind def
/s117 {
831 0 m
831 156 831 0 831 156 c
748.33 36 636 -24 494 -24 c
431.33 -24 372.83 -12 318.5 12 c
264.17 36 223.83 66.17 197.5 102.5 c
171.17 138.83 152.67 183.33 142 236 c
134.67 271.33 131 327.33 131 404 c
131 1062 131 404 131 1062 c
311 1062 131 1062 311 1062 c
311 473 311 1062 311 473 c
311 379 314.67 315.67 322 283 c
333.33 235.67 357.33 198.5 394 171.5 c
430.67 144.5 476 131 530 131 c
584 131 634.67 144.83 682 172.5 c
729.33 200.17 762.83 237.83 782.5 285.5 c
802.17 333.17 812 402.33 812 493 c
812 1062 812 493 812 1062 c
992 1062 812 1062 992 1062 c
992 0 992 1062 992 0 c
831 0 992 0 831 0 c
closepath } bind def
/s118 {
430 0 m
26 1062 430 0 26 1062 c
216 1062 26 1062 216 1062 c
444 426 216 1062 444 426 c
468.67 357.33 491.33 286 512 212 c
528 268 550.33 335.33 579 414 c
815 1062 579 414 815 1062 c
1000 1062 815 1062 1000 1062 c
598 0 1000 1062 598 0 c
430 0 598 0 430 0 c
closepath } bind def
/s119 {
331 0 m
6 1062 331 0 6 1062 c
192 1062 6 1062 192 1062 c
361 449 192 1062 361 449 c
424 221 361 449 424 221 c
426.67 232.33 445 305.33 479 440 c
648 1062 479 440 648 1062 c
833 1062 648 1062 833 1062 c
992 446 833 1062 992 446 c
1045 243 992 446 1045 243 c
1106 448 1045 243 1106 448 c
1288 1062 1106 448 1288 1062 c
1463 1062 1288 1062 1463 1062 c
1131 0 1463 1062 1131 0 c
944 0 1131 0 944 0 c
775 636 944 0 775 636 c
734 817 775 636 734 817 c
519 0 734 817 519 0 c
331 0 519 0 331 0 c
closepath } bind def
/s121 {
127 -409 m
107 -240 127 -409 107 -240 c
146.33 -250.67 180.67 -256 210 -256 c
250 -256 282 -249.33 306 -236 c
330 -222.67 349.67 -204 365 -180 c
376.33 -162 394.67 -117.33 420 -46 c
423.33 -36 428.67 -21.33 436 -2 c
33 1062 436 -2 33 1062 c
227 1062 33 1062 227 1062 c
448 447 227 1062 448 447 c
476.67 369 502.33 287 525 201 c
545.67 283.67 570.33 364.33 599 443 c
826 1062 599 443 826 1062 c
1006 1062 826 1062 1006 1062 c
602 -18 1006 1062 602 -18 c
558.67 -134.67 525 -215 501 -259 c
469 -318.33 432.33 -361.83 391 -389.5 c
349.67 -417.17 300.33 -431 243 -431 c
208.33 -431 169.67 -423.67 127 -409 c
closepath } bind def
end
/BuildGlyph {
 exch dup /Metrics get 2 index get 0 setcharwidth
/CharProcs get exch 2 copy known not{pop/.notdef}if get exec fill}bind def
/BuildChar {
1 index /Encoding get exch get
1 index /BuildGlyph get exec
} bind def
currentdict end /MC2_Arial exch definefont pop
%%EndFont
/clipproc{clippath{[{/m cvx}{/l cvx}{/c cvx}{/cp cvx}pathforall}stopped
{cleartomark[pathbbox exch 3 i sub exch 2 i sub/rectpath cvx}if]np}bd
/iclmtx mtx cmtx def/iclpath clipproc xd/clinit{pathproc initclip np iclpath cl np exec}bd
/clmove{pathproc 3 1 roll clippath pathproc 2 i neg 2 i neg tr initclip np exec cl tr np exec}bd
/clrect[gs np iclpath{pathbbox}stopped{0 0 411.85 230.85 }if gr]def
/cloper{mtx cmtx iclmtx smtx exch exec smtx}bd
/cland{{exch cvx exec}cloper}bd
/clcopy{{exch clinit cvx exec}cloper}bd
/cldiff{{exch pathbbox 4 -1 roll clrect 0 get 2 copy gt{exch}if pop 4 1 roll
 3 -1 roll clrect 1 get 2 copy gt{exch}if pop 3 1 roll
 2 -1 roll clrect 2 get 2 copy lt{exch}if pop 2 1 roll
 1 -1 roll clrect 3 get 2 copy lt{exch}if pop 1 1 roll
 exch 3 i sub exch 2 i sub rectpath cvx exec}cloper}bd
/icl{{clinit}cloper}bd
0.271844 0.27212 sc

/initmtx mtx cmtx def
initmtx smtx
[1.0000 0.0000 0.0000 1.0000 0.0000 0.0000 ] concat
 [0.882874 -0 0 -0.88189 0 848.353] concat
gs
573 727 m
573 725 l
3 sw
0.502 0.502 0.502 rgb
1 sj
1 scap
st
573 720 m
573 718 l
st
573 713 m
573 711 l
st
573 706 m
573 704 l
st
573 699 m
573 697 l
st
573 692 m
573 690 l
st
573 685 m
573 683 l
st
573 678 m
573 676 l
st
573 671 m
573 669 l
st
573 664 m
573 662 l
st
573 657 m
573 655 l
st
573 650 m
573 648 l
st
573 643 m
573 641 l
st
573 636 m
573 634 l
st
573 629 m
573 627 l
st
573 622 m
573 620 l
st
573 615 m
573 613 l
st
573 608 m
573 606 l
st
573 601 m
573 599 l
st
573 594 m
573 592 l
st
573 587 m
573 585 l
st
573 580 m
573 578 l
st
573 573 m
573 571 l
st
573 566 m
573 564 l
st
573 559 m
573 557 l
st
573 552 m
573 550 l
st
573 545 m
573 543 l
st
573 538 m
573 536 l
st
573 531 m
573 529 l
st
573 524 m
573 522 l
st
573 517 m
573 515 l
st
573 510 m
573 508 l
st
573 503 m
573 501 l
st
573 496 m
573 494 l
st
573 489 m
573 487 l
st
573 482 m
573 480 l
st
573 475 m
573 473 l
st
573 468 m
573 466 l
st
573 461 m
573 459 l
st
573 454 m
573 452 l
st
573 447 m
573 445 l
st
573 440 m
573 438 l
st
573 433 m
573 431 l
st
573 426 m
573 424 l
st
573 419 m
573 417 l
st
573 412 m
573 410 l
st
573 405 m
573 403 l
st
573 398 m
573 396 l
st
573 391 m
573 389 l
st
573 384 m
573 382 l
st
573 377 m
573 375 l
st
573 370 m
573 368 l
st
573 363 m
573 361 l
st
573 356 m
573 354 l
st
573 349 m
573 347 l
st
573 342 m
573 340 l
st
573 335 m
573 333 l
st
573 328 m
573 326 l
st
573 321 m
573 319 l
st
573 314 m
573 312 l
st
573 307 m
573 305 l
st
573 300 m
573 298 l
st
573 293 m
573 291 l
st
573 286 m
573 284 l
st
573 279 m
573 277 l
st
573 272 m
573 270 l
st
573 265 m
573 263 l
st
573 258 m
573 256 l
st
573 251 m
573 249 l
st
573 244 m
573 242 l
st
573 237 m
573 235 l
st
573 230 m
573 228 l
st
573 223 m
573 221 l
st
573 216 m
573 214 l
st
573 209 m
573 208 l
st
822 727 m
822 725 l
st
822 720 m
822 718 l
st
822 713 m
822 711 l
st
822 706 m
822 704 l
st
822 699 m
822 697 l
st
822 692 m
822 690 l
st
822 685 m
822 683 l
st
822 678 m
822 676 l
st
822 671 m
822 669 l
st
822 664 m
822 662 l
st
822 657 m
822 655 l
st
822 650 m
822 648 l
st
822 643 m
822 641 l
st
822 636 m
822 634 l
st
822 629 m
822 627 l
st
822 622 m
822 620 l
st
822 615 m
822 613 l
st
822 608 m
822 606 l
st
822 601 m
822 599 l
st
822 594 m
822 592 l
st
822 587 m
822 585 l
st
822 580 m
822 578 l
st
822 573 m
822 571 l
st
822 566 m
822 564 l
st
822 559 m
822 557 l
st
822 552 m
822 550 l
st
822 545 m
822 543 l
st
822 538 m
822 536 l
st
822 531 m
822 529 l
st
822 524 m
822 522 l
st
822 517 m
822 515 l
st
822 510 m
822 508 l
st
822 503 m
822 501 l
st
822 496 m
822 494 l
st
822 489 m
822 487 l
st
822 482 m
822 480 l
st
822 475 m
822 473 l
st
822 468 m
822 466 l
st
822 461 m
822 459 l
st
822 454 m
822 452 l
st
822 447 m
822 445 l
st
822 440 m
822 438 l
st
822 433 m
822 431 l
st
822 426 m
822 424 l
st
822 419 m
822 417 l
st
822 412 m
822 410 l
st
822 405 m
822 403 l
st
822 398 m
822 396 l
st
822 391 m
822 389 l
st
822 384 m
822 382 l
st
822 377 m
822 375 l
st
822 370 m
822 368 l
st
822 363 m
822 361 l
st
822 356 m
822 354 l
st
822 349 m
822 347 l
st
822 342 m
822 340 l
st
822 335 m
822 333 l
st
822 328 m
822 326 l
st
822 321 m
822 319 l
st
822 314 m
822 312 l
st
822 307 m
822 305 l
st
822 300 m
822 298 l
st
822 293 m
822 291 l
st
822 286 m
822 284 l
st
822 279 m
822 277 l
st
822 272 m
822 270 l
st
822 265 m
822 263 l
st
822 258 m
822 256 l
st
822 251 m
822 249 l
st
822 244 m
822 242 l
st
822 237 m
822 235 l
st
822 230 m
822 228 l
st
822 223 m
822 221 l
st
822 216 m
822 214 l
st
822 209 m
822 208 l
st
1071 727 m
1071 725 l
st
1071 720 m
1071 718 l
st
1071 713 m
1071 711 l
st
1071 706 m
1071 704 l
st
1071 699 m
1071 697 l
st
1071 692 m
1071 690 l
st
1071 685 m
1071 683 l
st
1071 678 m
1071 676 l
st
1071 671 m
1071 669 l
st
1071 664 m
1071 662 l
st
1071 657 m
1071 655 l
st
1071 650 m
1071 648 l
st
1071 643 m
1071 641 l
st
1071 636 m
1071 634 l
st
1071 629 m
1071 627 l
st
1071 622 m
1071 620 l
st
1071 615 m
1071 613 l
st
1071 608 m
1071 606 l
st
1071 601 m
1071 599 l
st
1071 594 m
1071 592 l
st
1071 587 m
1071 585 l
st
1071 580 m
1071 578 l
st
1071 573 m
1071 571 l
st
1071 566 m
1071 564 l
st
1071 559 m
1071 557 l
st
1071 552 m
1071 550 l
st
1071 545 m
1071 543 l
st
1071 538 m
1071 536 l
st
1071 531 m
1071 529 l
st
1071 524 m
1071 522 l
st
1071 517 m
1071 515 l
st
1071 510 m
1071 508 l
st
1071 503 m
1071 501 l
st
1071 496 m
1071 494 l
st
1071 489 m
1071 487 l
st
1071 482 m
1071 480 l
st
1071 475 m
1071 473 l
st
1071 468 m
1071 466 l
st
1071 461 m
1071 459 l
st
1071 454 m
1071 452 l
st
1071 447 m
1071 445 l
st
1071 440 m
1071 438 l
st
1071 433 m
1071 431 l
st
1071 426 m
1071 424 l
st
1071 419 m
1071 417 l
st
1071 412 m
1071 410 l
st
1071 405 m
1071 403 l
st
1071 398 m
1071 396 l
st
1071 391 m
1071 389 l
st
1071 384 m
1071 382 l
st
1071 377 m
1071 375 l
st
1071 370 m
1071 368 l
st
1071 363 m
1071 361 l
st
1071 356 m
1071 354 l
st
1071 349 m
1071 347 l
st
1071 342 m
1071 340 l
st
1071 335 m
1071 333 l
st
1071 328 m
1071 326 l
st
1071 321 m
1071 319 l
st
1071 314 m
1071 312 l
st
1071 307 m
1071 305 l
st
1071 300 m
1071 298 l
st
1071 293 m
1071 291 l
st
1071 286 m
1071 284 l
st
1071 279 m
1071 277 l
st
1071 272 m
1071 270 l
st
1071 265 m
1071 263 l
st
1071 258 m
1071 256 l
st
1071 251 m
1071 249 l
st
1071 244 m
1071 242 l
st
1071 237 m
1071 235 l
st
1071 230 m
1071 228 l
st
1071 223 m
1071 221 l
st
1071 216 m
1071 214 l
st
1071 209 m
1071 208 l
st
1320 727 m
1320 725 l
st
1320 720 m
1320 718 l
st
1320 713 m
1320 711 l
st
1320 706 m
1320 704 l
st
1320 699 m
1320 697 l
st
1320 692 m
1320 690 l
st
1320 685 m
1320 683 l
st
1320 678 m
1320 676 l
st
1320 671 m
1320 669 l
st
1320 664 m
1320 662 l
st
1320 657 m
1320 655 l
st
1320 650 m
1320 648 l
st
1320 643 m
1320 641 l
st
1320 636 m
1320 634 l
st
1320 629 m
1320 627 l
st
1320 622 m
1320 620 l
st
1320 615 m
1320 613 l
st
1320 608 m
1320 606 l
st
1320 601 m
1320 599 l
st
1320 594 m
1320 592 l
st
1320 587 m
1320 585 l
st
1320 580 m
1320 578 l
st
1320 573 m
1320 571 l
st
1320 566 m
1320 564 l
st
1320 559 m
1320 557 l
st
1320 552 m
1320 550 l
st
1320 545 m
1320 543 l
st
1320 538 m
1320 536 l
st
1320 531 m
1320 529 l
st
1320 524 m
1320 522 l
st
1320 517 m
1320 515 l
st
1320 510 m
1320 508 l
st
1320 503 m
1320 501 l
st
1320 496 m
1320 494 l
st
1320 489 m
1320 487 l
st
1320 482 m
1320 480 l
st
1320 475 m
1320 473 l
st
1320 468 m
1320 466 l
st
1320 461 m
1320 459 l
st
1320 454 m
1320 452 l
st
1320 447 m
1320 445 l
st
1320 440 m
1320 438 l
st
1320 433 m
1320 431 l
st
1320 426 m
1320 424 l
st
1320 419 m
1320 417 l
st
1320 412 m
1320 410 l
st
1320 405 m
1320 403 l
st
1320 398 m
1320 396 l
st
1320 391 m
1320 389 l
st
1320 384 m
1320 382 l
st
1320 377 m
1320 375 l
st
1320 370 m
1320 368 l
st
1320 363 m
1320 361 l
st
1320 356 m
1320 354 l
st
1320 349 m
1320 347 l
st
1320 342 m
1320 340 l
st
1320 335 m
1320 333 l
st
1320 328 m
1320 326 l
st
1320 321 m
1320 319 l
st
1320 314 m
1320 312 l
st
1320 307 m
1320 305 l
st
1320 300 m
1320 298 l
st
1320 293 m
1320 291 l
st
1320 286 m
1320 284 l
st
1320 279 m
1320 277 l
st
1320 272 m
1320 270 l
st
1320 265 m
1320 263 l
st
1320 258 m
1320 256 l
st
1320 251 m
1320 249 l
st
1320 244 m
1320 242 l
st
1320 237 m
1320 235 l
st
1320 230 m
1320 228 l
st
1320 223 m
1320 221 l
st
1320 216 m
1320 214 l
st
1320 209 m
1320 208 l
st
1569 727 m
1569 725 l
st
1569 720 m
1569 718 l
st
1569 713 m
1569 711 l
st
1569 706 m
1569 704 l
st
1569 699 m
1569 697 l
st
1569 692 m
1569 690 l
st
1569 685 m
1569 683 l
st
1569 678 m
1569 676 l
st
1569 671 m
1569 669 l
st
1569 664 m
1569 662 l
st
1569 657 m
1569 655 l
st
1569 650 m
1569 648 l
st
1569 643 m
1569 641 l
st
1569 636 m
1569 634 l
st
1569 629 m
1569 627 l
st
1569 622 m
1569 620 l
st
1569 615 m
1569 613 l
st
1569 608 m
1569 606 l
st
1569 601 m
1569 599 l
st
1569 594 m
1569 592 l
st
1569 587 m
1569 585 l
st
1569 580 m
1569 578 l
st
1569 573 m
1569 571 l
st
1569 566 m
1569 564 l
st
1569 559 m
1569 557 l
st
1569 552 m
1569 550 l
st
1569 545 m
1569 543 l
st
1569 538 m
1569 536 l
st
1569 531 m
1569 529 l
st
1569 524 m
1569 522 l
st
1569 517 m
1569 515 l
st
1569 510 m
1569 508 l
st
1569 503 m
1569 501 l
st
1569 496 m
1569 494 l
st
1569 489 m
1569 487 l
st
1569 482 m
1569 480 l
st
1569 475 m
1569 473 l
st
1569 468 m
1569 466 l
st
1569 461 m
1569 459 l
st
1569 454 m
1569 452 l
st
1569 447 m
1569 445 l
st
1569 440 m
1569 438 l
st
1569 433 m
1569 431 l
st
1569 426 m
1569 424 l
st
1569 419 m
1569 417 l
st
1569 412 m
1569 410 l
st
1569 405 m
1569 403 l
st
1569 398 m
1569 396 l
st
1569 391 m
1569 389 l
st
1569 384 m
1569 382 l
st
1569 377 m
1569 375 l
st
1569 370 m
1569 368 l
st
1569 363 m
1569 361 l
st
1569 356 m
1569 354 l
st
1569 349 m
1569 347 l
st
1569 342 m
1569 340 l
st
1569 335 m
1569 333 l
st
1569 328 m
1569 326 l
st
1569 321 m
1569 319 l
st
1569 314 m
1569 312 l
st
1569 307 m
1569 305 l
st
1569 300 m
1569 298 l
st
1569 293 m
1569 291 l
st
1569 286 m
1569 284 l
st
1569 279 m
1569 277 l
st
1569 272 m
1569 270 l
st
1569 265 m
1569 263 l
st
1569 258 m
1569 256 l
st
1569 251 m
1569 249 l
st
1569 244 m
1569 242 l
st
1569 237 m
1569 235 l
st
1569 230 m
1569 228 l
st
1569 223 m
1569 221 l
st
1569 216 m
1569 214 l
st
1569 209 m
1569 208 l
st
448 491 m
457 491 l
st
462 491 m
464 491 l
st
470 491 m
479 491 l
st
484 491 m
486 491 l
st
492 491 m
501 491 l
st
506 491 m
508 491 l
st
514 491 m
523 491 l
st
528 491 m
530 491 l
st
536 491 m
545 491 l
st
550 491 m
552 491 l
st
558 491 m
567 491 l
st
572 491 m
574 491 l
st
580 491 m
589 491 l
st
594 491 m
596 491 l
st
602 491 m
611 491 l
st
616 491 m
618 491 l
st
624 491 m
633 491 l
st
638 491 m
640 491 l
st
646 491 m
655 491 l
st
660 491 m
662 491 l
st
668 491 m
677 491 l
st
682 491 m
684 491 l
st
690 491 m
699 491 l
st
704 491 m
706 491 l
st
712 491 m
721 491 l
st
726 491 m
728 491 l
st
734 491 m
743 491 l
st
748 491 m
750 491 l
st
756 491 m
765 491 l
st
770 491 m
772 491 l
st
778 491 m
787 491 l
st
792 491 m
794 491 l
st
800 491 m
809 491 l
st
814 491 m
816 491 l
st
822 491 m
831 491 l
st
836 491 m
838 491 l
st
844 491 m
853 491 l
st
858 491 m
860 491 l
st
866 491 m
875 491 l
st
880 491 m
882 491 l
st
888 491 m
897 491 l
st
902 491 m
904 491 l
st
910 491 m
919 491 l
st
924 491 m
926 491 l
st
932 491 m
941 491 l
st
946 491 m
948 491 l
st
954 491 m
963 491 l
st
968 491 m
970 491 l
st
976 491 m
985 491 l
st
990 491 m
992 491 l
st
998 491 m
1007 491 l
st
1012 491 m
1014 491 l
st
1020 491 m
1029 491 l
st
1034 491 m
1036 491 l
st
1042 491 m
1051 491 l
st
1056 491 m
1058 491 l
st
1064 491 m
1073 491 l
st
1078 491 m
1080 491 l
st
1086 491 m
1095 491 l
st
1100 491 m
1102 491 l
st
1108 491 m
1117 491 l
st
1122 491 m
1124 491 l
st
1130 491 m
1139 491 l
st
1144 491 m
1146 491 l
st
1152 491 m
1161 491 l
st
1166 491 m
1168 491 l
st
1174 491 m
1183 491 l
st
1188 491 m
1190 491 l
st
1196 491 m
1205 491 l
st
1210 491 m
1212 491 l
st
1218 491 m
1227 491 l
st
1232 491 m
1234 491 l
st
1240 491 m
1249 491 l
st
1254 491 m
1256 491 l
st
1262 491 m
1271 491 l
st
1276 491 m
1278 491 l
st
1284 491 m
1293 491 l
st
1298 491 m
1300 491 l
st
1306 491 m
1315 491 l
st
1320 491 m
1322 491 l
st
1328 491 m
1337 491 l
st
1342 491 m
1344 491 l
st
1350 491 m
1359 491 l
st
1364 491 m
1366 491 l
st
1372 491 m
1381 491 l
st
1386 491 m
1388 491 l
st
1394 491 m
1403 491 l
st
1408 491 m
1410 491 l
st
1416 491 m
1425 491 l
st
1430 491 m
1432 491 l
st
1438 491 m
1447 491 l
st
1452 491 m
1454 491 l
st
1460 491 m
1469 491 l
st
1474 491 m
1476 491 l
st
1482 491 m
1491 491 l
st
1496 491 m
1498 491 l
st
1504 491 m
1513 491 l
st
1518 491 m
1520 491 l
st
1526 491 m
1535 491 l
st
1540 491 m
1542 491 l
st
1548 491 m
1557 491 l
st
1562 491 m
1564 491 l
st
1570 491 m
1579 491 l
st
1584 491 m
1586 491 l
st
1592 491 m
1601 491 l
st
1606 491 m
1608 491 l
st
1614 491 m
1623 491 l
st
1628 491 m
1630 491 l
st
1636 491 m
1645 491 l
st
1650 491 m
1652 491 l
st
1658 491 m
1667 491 l
st
1672 491 m
1674 491 l
st
1680 491 m
1689 491 l
st
448 254 m
457 254 l
st
462 254 m
464 254 l
st
470 254 m
479 254 l
st
484 254 m
486 254 l
st
492 254 m
501 254 l
st
506 254 m
508 254 l
st
514 254 m
523 254 l
st
528 254 m
530 254 l
st
536 254 m
545 254 l
st
550 254 m
552 254 l
st
558 254 m
567 254 l
st
572 254 m
574 254 l
st
580 254 m
589 254 l
st
594 254 m
596 254 l
st
602 254 m
611 254 l
st
616 254 m
618 254 l
st
624 254 m
633 254 l
st
638 254 m
640 254 l
st
646 254 m
655 254 l
st
660 254 m
662 254 l
st
668 254 m
677 254 l
st
682 254 m
684 254 l
st
690 254 m
699 254 l
st
704 254 m
706 254 l
st
712 254 m
721 254 l
st
726 254 m
728 254 l
st
734 254 m
743 254 l
st
748 254 m
750 254 l
st
756 254 m
765 254 l
st
770 254 m
772 254 l
st
778 254 m
787 254 l
st
792 254 m
794 254 l
st
800 254 m
809 254 l
st
814 254 m
816 254 l
st
822 254 m
831 254 l
st
836 254 m
838 254 l
st
844 254 m
853 254 l
st
858 254 m
860 254 l
st
866 254 m
875 254 l
st
880 254 m
882 254 l
st
888 254 m
897 254 l
st
902 254 m
904 254 l
st
910 254 m
919 254 l
st
924 254 m
926 254 l
st
932 254 m
941 254 l
st
946 254 m
948 254 l
st
954 254 m
963 254 l
st
968 254 m
970 254 l
st
976 254 m
985 254 l
st
990 254 m
992 254 l
st
998 254 m
1007 254 l
st
1012 254 m
1014 254 l
st
1020 254 m
1029 254 l
st
1034 254 m
1036 254 l
st
1042 254 m
1051 254 l
st
1056 254 m
1058 254 l
st
1064 254 m
1073 254 l
st
1078 254 m
1080 254 l
st
1086 254 m
1095 254 l
st
1100 254 m
1102 254 l
st
1108 254 m
1117 254 l
st
1122 254 m
1124 254 l
st
1130 254 m
1139 254 l
st
1144 254 m
1146 254 l
st
1152 254 m
1161 254 l
st
1166 254 m
1168 254 l
st
1174 254 m
1183 254 l
st
1188 254 m
1190 254 l
st
1196 254 m
1205 254 l
st
1210 254 m
1212 254 l
st
1218 254 m
1227 254 l
st
1232 254 m
1234 254 l
st
1240 254 m
1249 254 l
st
1254 254 m
1256 254 l
st
1262 254 m
1271 254 l
st
1276 254 m
1278 254 l
st
1284 254 m
1293 254 l
st
1298 254 m
1300 254 l
st
1306 254 m
1315 254 l
st
1320 254 m
1322 254 l
st
1328 254 m
1337 254 l
st
1342 254 m
1344 254 l
st
1350 254 m
1359 254 l
st
1364 254 m
1366 254 l
st
1372 254 m
1381 254 l
st
1386 254 m
1388 254 l
st
1394 254 m
1403 254 l
st
1408 254 m
1410 254 l
st
1416 254 m
1425 254 l
st
1430 254 m
1432 254 l
st
1438 254 m
1447 254 l
st
1452 254 m
1454 254 l
st
1460 254 m
1469 254 l
st
1474 254 m
1476 254 l
st
1482 254 m
1491 254 l
st
1496 254 m
1498 254 l
st
1504 254 m
1513 254 l
st
1518 254 m
1520 254 l
st
1526 254 m
1535 254 l
st
1540 254 m
1542 254 l
st
1548 254 m
1557 254 l
st
1562 254 m
1564 254 l
st
1570 254 m
1579 254 l
st
1584 254 m
1586 254 l
st
1592 254 m
1601 254 l
st
1606 254 m
1608 254 l
st
1614 254 m
1623 254 l
st
1628 254 m
1630 254 l
st
1636 254 m
1645 254 l
st
1650 254 m
1652 254 l
st
1658 254 m
1667 254 l
st
1672 254 m
1674 254 l
st
1680 254 m
1689 254 l
st
gs
pathproc 448 207 1247 521 np rectpath
/eocl cland
np exec
473 658 m
672 658 l
672 727 l
473 727 l
cp
gs
0 0 0 rgb
eofi
gr
13 sw
0 0 0 rgb
st
473 658 m
672 658 l
st
672 658 m
672 727 l
st
473 727 m
473 658 l
st
722 696 m
921 696 l
921 727 l
722 727 l
cp
gs
eofi
gr
st
722 696 m
921 696 l
st
921 696 m
921 727 l
st
722 727 m
722 696 l
st
971 715 m
1171 715 l
1171 727 l
971 727 l
cp
gs
eofi
gr
st
971 715 m
1171 715 l
st
1171 715 m
1171 727 l
st
971 727 m
971 715 l
st
1221 712 m
1420 712 l
1420 727 l
1221 727 l
cp
gs
eofi
gr
st
1221 712 m
1420 712 l
st
1420 712 m
1420 727 l
st
1221 727 m
1221 712 l
st
1470 716 m
1669 716 l
1669 727 l
1470 727 l
cp
gs
eofi
gr
st
1470 716 m
1669 716 l
st
1669 716 m
1669 727 l
st
1470 727 m
1470 716 l
st
gr
gs
pathproc 448 207 1247 521 np rectpath
/eocl cland
np exec
473 254 m
672 254 l
672 658 l
473 658 l
cp
gs
1 1 1 rgb
eofi
gr
13 sw
0 0 0 rgb
st
722 617 m
921 617 l
921 696 l
722 696 l
cp
gs
1 1 1 rgb
eofi
gr
st
971 555 m
1171 555 l
1171 715 l
971 715 l
cp
gs
1 1 1 rgb
eofi
gr
st
1221 565 m
1420 565 l
1420 712 l
1221 712 l
cp
gs
1 1 1 rgb
eofi
gr
st
1470 517 m
1669 517 l
1669 716 l
1470 716 l
cp
gs
1 1 1 rgb
eofi
gr
st
gr
gs
pathproc 448 207 1247 521 np rectpath
/eocl cland
np exec
722 254 m
921 254 l
921 617 l
722 617 l
cp
gs
1 0 0 rgb
eofi
gr
13 sw
0 0 0 rgb
st
971 254 m
1171 254 l
1171 555 l
971 555 l
cp
gs
1 0 0 rgb
eofi
gr
st
1221 254 m
1420 254 l
1420 565 l
1221 565 l
cp
gs
1 0 0 rgb
eofi
gr
st
1470 254 m
1669 254 l
1669 517 l
1470 517 l
cp
gs
1 0 0 rgb
eofi
gr
st
gr
448 727 m
1694 727 l
7 sw
0 0 0 rgb
st
448 727 m
448 744 l
st
697 727 m
697 744 l
st
946 727 m
946 744 l
st
1196 727 m
1196 744 l
st
1445 727 m
1445 744 l
st
1694 727 m
1694 744 l
st
573 727 m
573 761 l
st
822 727 m
822 761 l
st
1071 727 m
1071 761 l
st
1320 727 m
1320 761 l
st
1569 727 m
1569 761 l
st
448 727 m
448 207 l
st
448 609 m
431 609 l
st
448 372 m
431 372 l
st
448 727 m
414 727 l
st
448 491 m
414 491 l
st
448 254 m
414 254 l
st
gs
gr
gs
gr
gs
gs
1 -1 sc
447 -886 tr
20 ro
/MC1_Arial 100 self 0 0 m
(RAID)[72 67 28 72 ] xs
1 -1 sc
gr
gr
gs
gr
gs
gr
gs
gs
1 -1 sc
685 -890 tr
20 ro
/MC1_Arial 100 self 0 0 m
(SSD0)[67 67 72 56 ] xs
1 -1 sc
gr
gr
gs
gr
gs
gr
gs
gs
1 -1 sc
934 -890 tr
20 ro
/MC1_Arial 100 self 0 0 m
(SSD1)[67 67 72 56 ] xs
1 -1 sc
gr
gr
gs
gr
gs
gr
gs
gs
1 -1 sc
1183 -890 tr
20 ro
/MC1_Arial 100 self 0 0 m
(SSD2)[67 67 72 56 ] xs
1 -1 sc
gr
gr
gs
gr
gs
gr
gs
gs
1 -1 sc
1432 -890 tr
20 ro
/MC1_Arial 100 self 0 0 m
(SSD3)[67 67 72 56 ] xs
1 -1 sc
gr
gr
gs
gr
gs
gr
gs
1 -1 sc
/MC2_Arial 108 self 272 -759 m
(0.0)[60 30 60 ] xs
1 -1 sc
gr
gs
gr
gs
gr
gs
1 -1 sc
/MC2_Arial 108 self 272 -523 m
(0.5)[60 30 60 ] xs
1 -1 sc
gr
gs
gr
gs
gr
gs
1 -1 sc
/MC2_Arial 108 self 272 -286 m
(1.0)[60 30 60 ] xs
1 -1 sc
gr
gs
1 -1 sc
/MC2_Arial 117 self 632 -955 m
(webresearch)[83 65 65 39 65 59 65 65 39 59 65 ] xs
1 -1 sc
gr
gs
gs
gs
453 8 m
635 8 l
635 96 l
453 96 l
cp
gs
1 0 0 rgb
eofi
gr
13 sw
st
gr
gr
1 -1 sc
/MC2_Arial 84 self 638 -80 m
( )[23 ] xs
1 -1 sc
1 -1 sc
661 -80 m
(DeviceIdle)[61 47 43 19 42 47 23 47 19 47 ] xs
1 -1 sc
1 -1 sc
1056 -80 m
( )[23 ] xs
1 -1 sc
gs
gs
1082 8 m
1264 8 l
1264 96 l
1082 96 l
cp
gs
1 1 1 rgb
eofi
gr
13 sw
st
gr
gr
1 -1 sc
1267 -80 m
( )[23 ] xs
1 -1 sc
1 -1 sc
1290 -80 m
(UserIdle)[61 42 47 28 23 47 19 47 ] xs
1 -1 sc
gs
gs
453 111 m
635 111 l
635 199 l
453 199 l
cp
gs
eofi
gr
13 sw
st
gr
gr
1 -1 sc
638 -183 m
( )[23 ] xs
1 -1 sc
1 -1 sc
661 -183 m
(DeviceBusy)[61 47 43 19 42 47 56 47 42 41 ] xs
1 -1 sc
gr
gs
gs
1 -1 sc
97 -960 tr
90 ro
/MC1_Arial 117 self 0 0 m
(Storage Execution)[78 33 65 39 65 65 65 33 78 59 65 59 65 33 26 65 65 ] xs
1 -1 sc
gr
gr
gs
gs
1 -1 sc
232 -914 tr
90 ro
/MC1_Arial 117 self 0 0 m
(Time Breakdown)[71 26 97 65 33 78 39 65 65 59 65 65 85 65 ] xs
1 -1 sc
gr
gr
448 207 m
1694 207 l
st
573 207 m
573 224 l
st
822 207 m
822 224 l
st
1071 207 m
1071 224 l
st
1320 207 m
1320 224 l
st
1569 207 m
1569 224 l
st
448 207 m
448 241 l
st
697 207 m
697 241 l
st
946 207 m
946 241 l
st
1196 207 m
1196 241 l
st
1445 207 m
1445 241 l
st
1694 207 m
1694 241 l
st
1694 727 m
1694 207 l
st
1694 675 m
1677 675 l
st
1694 571 m
1677 571 l
st
1694 467 m
1677 467 l
st
1694 363 m
1677 363 l
st
1694 259 m
1677 259 l
st
1694 727 m
1660 727 l
st
1694 623 m
1660 623 l
st
1694 519 m
1660 519 l
st
1694 415 m
1660 415 l
st
1694 311 m
1660 311 l
st
1694 207 m
1660 207 l
st
gs
gr
gs
gr
gs
gr
gs
gr
gr
Save0 restore end
showpage
%%EOF
