%!PS-Adobe-3.0 EPSF-3.0
%%BoundingBox: 0 0 412 231
%%LanguageLevel: 2
%%Creator: OriginLab Corporation
%%Title: (C:\Users\zhang_000\Documents\trace-asbd2016\figs\sto-breakdown2.eps)
%%CreationDate: Fri May 06 18:41:40 2016
%%EndComments

/OriginLab::PSL1 128 dict dup begin def
/Save0 save def
%%BeginResource: procset OriginLab::PSL1
/wd{1 index where{pop pop pop}{bind def}ifelse}bind def
/setcmykcolor{1 sub 4 1 roll 3{3 index add neg dup 0 lt{pop 0}if 3 1 roll}repeat setrgbcolor pop}wd
/selectfont{dup type/arraytype eq{exch findfont exch makefont setfont}{exch findfont exch scalefont setfont}ifelse}wd
/xshow{1 index length 0 le{}{currentpoint exch 3 index length 1 sub 0 exch 1 exch{dup 5 index exch 1 getinterval show 3 index exch get add 2 copy exch moveto}for pop pop}ifelse pop pop}wd
/glyphshow{matrix currentmatrix exch currentfont dup/FontMatrix get concat currentpoint translate
 dup/Metrics get 2 index get 0 4 2 roll gsave/CharProcs get exch 2 copy known not{pop/.notdef}if
 get exec fill grestore moveto setmatrix}wd
/grayimage/image load def/rgbtogray{cvx exec dup length 3 idiv 1 sub 0 exch 1 exch{dup 3 mul dup 3 index exch get 255 div .3 mul exch
 1 add dup 4 index exch get 255 div .59 mul exch 1 add 4 index exch get 255 div .11 mul add add
 255 mul dup 255 gt{255}if round cvi 2 index 3 1 roll put}for dup length 3 idiv 0 exch getinterval}bind def
/colorimage{0 setgray pop pop cvlit/rgbtogray cvx 2 packedarray cvx grayimage}wd
/bd{bind def}bind def/ld{load def}bd/ed{exch def}bd/xd{cvx def}bd
/np/newpath ld/a/arc ld/m/moveto ld/l/lineto ld/c/curveto ld/rm/rmoveto ld/rl/rlineto ld/rc/rcurveto ld/cp/closepath ld/cpt/currentpoint ld
/tr/translate ld/sc/scale ld/ro/rotate ld/t/transform ld/it/itransform ld/dt/dtransform ld/idt/idtransform ld
/mtx/matrix ld/cmtx/currentmatrix ld/dmtx/defaultmatrix ld/smtx/setmatrix ld/catmtx/concatmatrix ld
/sw/setlinewidth ld/scap/setlinecap ld/sj/setlinejoin ld/sm/setmiterlimit ld/sd/setdash ld/rgb/setrgbcolor ld/crgb/currentrgbcolor ld/cmyk/setcmykcolor ld/gs/gsave ld/gr/grestore ld
/st/stroke ld/fi/fill ld/eofi/eofill ld/cl/clip ld/eocl/eoclip ld
/df/definefont ld/ff/findfont ld/sf/setfont ld/scf/scalefont ld/self/selectfont ld/cf/currentfont ld
/s/show ld/xs/xshow ld/gls/glyphshow ld/xgls{cpt 3 1 roll add exch 3 -1 roll gls m}bd
/cd/currentdict ld/i/index ld
/DrawBox{4 2 roll m 1 index 0 rl 0 exch rl neg 0 rl cp}bd
/plus.re { 6 { 3 index } repeat moveto 0 exch rlineto 0 rlineto pop pop neg 0 exch rlineto pop lineto closepath } def
/DrawBcc{4 2 roll m 2 copy 0 lt exch 0 lt xor{dup 0 exch rl exch 0 rl neg 0 exch rl}{exch dup 0 rl exch 0 exch rl neg 0 rl}ifelse cp}bd
/rectline{dup type/arraytype eq{dup length 0 exch 4 exch 4 sub{0 1 3{3 copy add get 4 1 roll pop}for pop 5 1 roll DrawBox}for pop}{DrawBox}ifelse}bd
/rectpath{dup type/arraytype eq{dup length 0 exch 4 exch 4 sub{0 1 3{3 copy add get 4 1 roll pop}for pop 5 1 roll DrawBcc}for pop}{DrawBcc}ifelse}bd
/pathproc{[{/m cvx}{/l cvx}{/c cvx}{/cp cvx}pathforall]cvx}bd
/L1img/image ld/L1idx[{0}
 {dup 7 and 3 1 roll -3 bitshift get exch 7 sub 1 mul bitshift  1 and}bind 1 index dup
 {dup 1 and 3 1 roll -1 bitshift get exch 1 sub 4 mul bitshift 15 and}bind 1 index dup dup
 {get}bind]def
/image{dup type/dicttype eq {dup/ImgCS get 0 get/Indexed eq}{false}ifelse
 {begin Width Height 8 ImageMatrix {rgb_string rgb_lookup
 cd/DataSource get dup type/filetype eq
 {mystring readstring pop}{exec}ifelse
 dup length 0 ne
 {L1idx BitsPerComponent get 0 1 Width 1 sub
 {3 copy exch exec exch 3 mul exch
 3 mul dup 5 index exch get exch 1 add dup 6 index exch get exch 1 add 6 index exch get
 7 index exch 4 index 2 add exch put 6 index exch 3 index 1 add exch put 5 index exch 2 index exch put pop
 }for pop pop pop }{pop pop pop ()}ifelse }false 3 colorimage end} {dup type/dicttype eq
 {{dup mark exch L1img pop pop}stopped{cleartomark begin Width Height BitsPerComponent ImageMatrix
 {cd/DataSource get dup type/filetype eq {mystring readstring pop}{exec}ifelse
 }false 3 colorimage end} if}{L1img}ifelse}ifelse
 }bd
/L1imgmask/imagemask ld/imagemask{dup type/dicttype eq
 {{dup mark exch L1imgmask pop pop}stopped {cleartomark begin Width Height polarityflag ImageMatrix
 {cd/DataSource get dup type/filetype eq {mystring readstring pop}{exec}ifelse
 }L1imgmask end}if}{L1imgmask}ifelse
 }bd
% Gradient function
/GradientStep 1 150 div def
/GradientStartRGB { /R1 exch def /G1 exch def /B1 exch def } def
/GradientEndRGB { /R2 exch def /G2 exch def /B2 exch def
/GradientSteps GradientLength GradientStep div def
/GradientRStep R2 R1 sub GradientSteps div def
/GradientGStep G2 G1 sub GradientSteps div def
/GradientBStep B2 B1 sub GradientSteps div def
} def
/GradientStepRGB { /R1 R1 GradientRStep add def
/G1 G1 GradientGStep add def
/B1 B1 GradientBStep add def
R1 G1 B1 setrgbcolor
} def
%%EndResource
/rectclip{np rectpath clip np}wd
/rectfill{gs np rectpath fi gr}wd
/rectstroke{gs np dup type/arraytype eq{dup length 6 eq}{false}ifelse{1 index type/arraytype eq{exch}{5 1 roll}ifelse rectline concat st}{rectline st}ifelse gr}wd
%%BeginResource: procset OriginLab::Image
/OriginLab::Image 32 dict dup begin
/BinProc{[currentfile mystring /readstring cvx /pop cvx] cvx bind}bd
/HexProc{[currentfile mystring /readhexstring cvx /pop cvx] cvx bind}bd
/Ascii85Proc{currentfile /ASCII85Decode filter}bd
/LZWA85{currentfile /ASCII85Decode filter /LZWDecode filter}bd
/ImgProcArray[/BinProc /HexProc /Ascii85Proc /LZWA85]def
/ImgDict{/ImgDict 16 dict def ImgDict dup begin /ImageType 1 def /MultipleDataSource false def end}bd
/L2Dec{{[1 0]}{[0 1]}ifelse}bd
/BegImg{ /Img_sv save def
 /ImgDir ed ImgProcArray exch get /ImgProc exch ld
 dup /polarityflag ed L2Dec /polarity ed /smoothflag ed
 tr /dx 2 index def /dy 1 index abs def sc
 string /mystring ed /bpc ed /ih ed /iw ed
 }bd
/EndImg {Img_sv restore}bd
/DoXImg{ /rgb_lookup ed /hival ed ImgDict dup begin
 [/Indexed /DeviceRGB hival rgb_lookup] /L1img where{pop/ImgCS ed}{setcolorspace}ifelse
 /rgb_string iw 3 mul string def
 /Width iw def
 /Height ih def
 /Decode [0 1 bpc{2 mul}repeat 1 sub] def
 /ImageMatrix
  ImgDir 0 eq{[iw 0 0 ih 0 0]}if
  ImgDir 1 eq{[iw neg 0 0 ih iw 0]}if
  ImgDir 2 eq{[iw 0 0 ih neg 0 ih]}if
  ImgDir 3 eq{[iw neg 0 0 ih neg iw ih]}if
  def
 /DataSource ImgProc def
 /BitsPerComponent bpc def
 /Interpolate smoothflag def
 end image}bd
/DoImg{ ImgDict dup begin
 [/DeviceRGB] /L1img where{pop/ImgCS ed}{setcolorspace}ifelse
 /rgb_string iw 3 mul string def
 /Width iw def
 /Height ih def
 /Decode [0 1 0 1 0 1] def
 /ImageMatrix
  ImgDir 0 eq{[iw 0 0 ih 0 0]}if
  ImgDir 1 eq{[iw neg 0 0 ih iw 0]}if
  ImgDir 2 eq{[iw 0 0 ih neg 0 ih]}if
  ImgDir 3 eq{[iw neg 0 0 ih neg iw ih]}if
  def
 /DataSource ImgProc def
 /BitsPerComponent 8 def
 /Interpolate smoothflag def
 end image}bd
end def
%%EndResource
/initmtx mtx cmtx def
%%BeginFont: /MC1_Arial
12 dict begin
/FontInfo 8 dict dup begin
/ItalicAngle 0 def
/UnderlinePosition -217.00 def
/UnderlineThickness 150.00 def
/StrikeoutPosition 530.00 def
/StrikeoutThickness 102.00 def
/isFixedPitch false def
end readonly def
/FontName /MC1_Arial def
/FontType 3 def
/FontMatrix [1 2048 div 0 0 1 2048 div 0 0] def
/FontBBox [-1361 -665 4096 2129] def
/Encoding 256 array def 0 1 255{Encoding exch/.notdef put}for
Encoding 32/s32 put
Encoding 48/s48 put
Encoding 49/s49 put
Encoding 50/s50 put
Encoding 51/s51 put
Encoding 65/s65 put
Encoding 66/s66 put
Encoding 68/s68 put
Encoding 69/s69 put
Encoding 73/s73 put
Encoding 82/s82 put
Encoding 83/s83 put
Encoding 84/s84 put
Encoding 97/s97 put
Encoding 99/s99 put
Encoding 100/s100 put
Encoding 101/s101 put
Encoding 103/s103 put
Encoding 105/s105 put
Encoding 107/s107 put
Encoding 109/s109 put
Encoding 110/s110 put
Encoding 111/s111 put
Encoding 114/s114 put
Encoding 116/s116 put
Encoding 117/s117 put
Encoding 119/s119 put
Encoding 120/s120 put
/BoundingBoxes 29 dict def
BoundingBoxes begin
/s32 [0 -434 569 1854] def
/s48 [0 -434 1139 1854] def
/s49 [0 -434 1139 1854] def
/s50 [0 -434 1139 1854] def
/s51 [0 -434 1139 1854] def
/s65 [-3 -434 1366 1854] def
/s66 [0 -434 1366 1854] def
/s68 [0 -434 1479 1854] def
/s69 [0 -434 1366 1854] def
/s73 [0 -434 569 1854] def
/s82 [0 -434 1479 1854] def
/s83 [0 -434 1366 1854] def
/s84 [0 -434 1251 1854] def
/s97 [0 -434 1139 1854] def
/s99 [0 -434 1024 1854] def
/s100 [0 -434 1139 1854] def
/s101 [0 -434 1139 1854] def
/s103 [0 -434 1139 1854] def
/s105 [0 -434 455 1854] def
/s107 [0 -434 1024 1854] def
/s109 [0 -434 1706 1854] def
/s110 [0 -434 1139 1854] def
/s111 [0 -434 1139 1854] def
/s114 [0 -434 682 1854] def
/s116 [0 -434 569 1854] def
/s117 [0 -434 1139 1854] def
/s119 [0 -434 1479 1854] def
/s120 [0 -434 1024 1854] def
end
/Metrics 29 dict def
 Metrics begin
/s32 569 def
/s48 1139 def
/s49 1139 def
/s50 1139 def
/s51 1139 def
/s65 1366 def
/s66 1366 def
/s68 1479 def
/s69 1366 def
/s73 569 def
/s82 1479 def
/s83 1366 def
/s84 1251 def
/s97 1139 def
/s99 1024 def
/s100 1139 def
/s101 1139 def
/s103 1139 def
/s105 455 def
/s107 1024 def
/s109 1706 def
/s110 1139 def
/s111 1139 def
/s114 682 def
/s116 569 def
/s117 1139 def
/s119 1479 def
/s120 1024 def
end
/CharProcs 29 dict def
CharProcs begin
/.notdef {} def
/s48 {
85 723 m
85 896.33 102.83 1035.83 138.5 1141.5 c
174.17 1247.17 227.17 1328.67 297.5 1386 c
367.83 1443.33 456.33 1472 563 1472 c
641.67 1472 710.67 1456.17 770 1424.5 c
829.33 1392.83 878.33 1347.17 917 1287.5 c
955.67 1227.83 986 1155.17 1008 1069.5 c
1030 983.83 1041 868.33 1041 723 c
1041 551 1023.33 412.17 988 306.5 c
952.67 200.83 899.83 119.17 829.5 61.5 c
759.17 3.83 670.33 -25 563 -25 c
421.67 -25 310.67 25.67 230 127 c
133.33 249 85 447.67 85 723 c
closepath 270 723 m
270 482.33 298.17 322.17 354.5 242.5 c
410.83 162.83 480.33 123 563 123 c
645.67 123 715.17 163 771.5 243 c
827.83 323 856 483 856 723 c
856 964.33 827.83 1124.67 771.5 1204 c
715.17 1283.33 645 1323 561 1323 c
478.33 1323 412.33 1288 363 1218 c
301 1128.67 270 963.67 270 723 c
closepath } bind def
/s49 {
763 0 m
583 0 763 0 583 0 c
583 1147 583 0 583 1147 c
539.67 1105.67 482.83 1064.33 412.5 1023 c
342.17 981.67 279 950.67 223 930 c
223 1104 223 930 223 1104 c
323.67 1151.33 411.67 1208.67 487 1276 c
562.33 1343.33 615.67 1408.67 647 1472 c
763 1472 647 1472 763 1472 c
763 0 763 1472 763 0 c
closepath } bind def
/s50 {
1031 173 m
1031 0 1031 173 1031 0 c
62 0 1031 0 62 0 c
60.67 43.33 67.67 85 83 125 c
107.67 191 147.17 256 201.5 320 c
255.83 384 334.33 458 437 542 c
596.33 672.67 704 776.17 760 852.5 c
816 928.83 844 1001 844 1069 c
844 1140.33 818.5 1200.5 767.5 1249.5 c
716.5 1298.5 650 1323 568 1323 c
481.33 1323 412 1297 360 1245 c
308 1193 281.67 1121 281 1029 c
96 1048 281 1029 96 1048 c
108.67 1186 156.33 1291.17 239 1363.5 c
321.67 1435.83 432.67 1472 572 1472 c
712.67 1472 824 1433 906 1355 c
988 1277 1029 1180.33 1029 1065 c
1029 1006.33 1017 948.67 993 892 c
969 835.33 929.17 775.67 873.5 713 c
817.83 650.33 725.33 564.33 596 455 c
488 364.33 418.67 302.83 388 270.5 c
357.33 238.17 332 205.67 312 173 c
1031 173 312 173 1031 173 c
closepath } bind def
/s51 {
86 387 m
266 411 86 387 266 411 c
286.67 309 321.83 235.5 371.5 190.5 c
421.17 145.5 481.67 123 553 123 c
637.67 123 709.17 152.33 767.5 211 c
825.83 269.67 855 342.33 855 429 c
855 511.67 828 579.83 774 633.5 c
720 687.17 651.33 714 568 714 c
534 714 491.67 707.33 441 694 c
461 852 441 694 461 852 c
473 850.67 482.67 850 490 850 c
566.67 850 635.67 870 697 910 c
758.33 950 789 1011.67 789 1095 c
789 1161 766.67 1215.67 722 1259 c
677.33 1302.33 619.67 1324 549 1324 c
479 1324 420.67 1302 374 1258 c
327.33 1214 297.33 1148 284 1060 c
104 1092 284 1060 104 1092 c
126 1212.67 176 1306.17 254 1372.5 c
332 1438.83 429 1472 545 1472 c
625 1472 698.67 1454.83 766 1420.5 c
833.33 1386.17 884.83 1339.33 920.5 1280 c
956.17 1220.67 974 1157.67 974 1091 c
974 1027.67 957 970 923 918 c
889 866 838.67 824.67 772 794 c
858.67 774 926 732.5 974 669.5 c
1022 606.5 1046 527.67 1046 433 c
1046 305 999.33 196.5 906 107.5 c
812.67 18.5 694.67 -26 552 -26 c
423.33 -26 316.5 12.33 231.5 89 c
146.5 165.67 98 265 86 387 c
closepath } bind def
/s65 {
-3 0 m
560 1466 -3 0 560 1466 c
769 1466 560 1466 769 1466 c
1369 0 769 1466 1369 0 c
1148 0 1369 0 1148 0 c
977 444 1148 0 977 444 c
364 444 977 444 364 444 c
203 0 364 444 203 0 c
-3 0 203 0 -3 0 c
closepath 420 602 m
917 602 420 602 917 602 c
764 1008 917 602 764 1008 c
717.33 1131.33 682.67 1232.67 660 1312 c
641.33 1218 615 1124.67 581 1032 c
420 602 581 1032 420 602 c
closepath } bind def
/s66 {
150 0 m
150 1466 150 0 150 1466 c
700 1466 150 1466 700 1466 c
812 1466 901.83 1451.17 969.5 1421.5 c
1037.17 1391.83 1090.17 1346.17 1128.5 1284.5 c
1166.83 1222.83 1186 1158.33 1186 1091 c
1186 1028.33 1169 969.33 1135 914 c
1101 858.67 1049.67 814 981 780 c
1069.67 754 1137.83 709.67 1185.5 647 c
1233.17 584.33 1257 510.33 1257 425 c
1257 356.33 1242.5 292.5 1213.5 233.5 c
1184.5 174.5 1148.67 129 1106 97 c
1063.33 65 1009.83 40.83 945.5 24.5 c
881.17 8.17 802.33 0 709 0 c
150 0 709 0 150 0 c
closepath 344 850 m
661 850 344 850 661 850 c
747 850 808.67 855.67 846 867 c
895.33 881.67 932.5 906 957.5 940 c
982.5 974 995 1016.67 995 1068 c
995 1116.67 983.33 1159.5 960 1196.5 c
936.67 1233.5 903.33 1258.83 860 1272.5 c
816.67 1286.17 742.33 1293 637 1293 c
344 1293 637 1293 344 1293 c
344 850 344 1293 344 850 c
closepath 344 173 m
709 173 344 173 709 173 c
771.67 173 815.67 175.33 841 180 c
885.67 188 923 201.33 953 220 c
983 238.67 1007.67 265.83 1027 301.5 c
1046.33 337.17 1056 378.33 1056 425 c
1056 479.67 1042 527.17 1014 567.5 c
986 607.83 947.17 636.17 897.5 652.5 c
847.83 668.83 776.33 677 683 677 c
344 677 683 677 344 677 c
344 173 344 677 344 173 c
closepath } bind def
/s68 {
158 0 m
158 1466 158 0 158 1466 c
663 1466 158 1466 663 1466 c
777 1466 864 1459 924 1445 c
1008 1425.67 1079.67 1390.67 1139 1340 c
1216.33 1274.67 1274.17 1191.17 1312.5 1089.5 c
1350.83 987.83 1370 871.67 1370 741 c
1370 629.67 1357 531 1331 445 c
1305 359 1271.67 287.83 1231 231.5 c
1190.33 175.17 1145.83 130.83 1097.5 98.5 c
1049.17 66.17 990.83 41.67 922.5 25 c
854.17 8.33 775.67 0 687 0 c
158 0 687 0 158 0 c
closepath 352 173 m
665 173 352 173 665 173 c
761.67 173 837.5 182 892.5 200 c
947.5 218 991.33 243.33 1024 276 c
1070 322 1105.83 383.83 1131.5 461.5 c
1157.17 539.17 1170 633.33 1170 744 c
1170 897.33 1144.83 1015.17 1094.5 1097.5 c
1044.17 1179.83 983 1235 911 1263 c
859 1283 775.33 1293 660 1293 c
352 1293 660 1293 352 1293 c
352 173 352 1293 352 173 c
closepath } bind def
/s69 {
162 0 m
162 1466 162 0 162 1466 c
1222 1466 162 1466 1222 1466 c
1222 1293 1222 1466 1222 1293 c
356 1293 1222 1293 356 1293 c
356 844 356 1293 356 844 c
1167 844 356 844 1167 844 c
1167 672 1167 844 1167 672 c
356 672 1167 672 356 672 c
356 173 356 672 356 173 c
1256 173 356 173 1256 173 c
1256 0 1256 173 1256 0 c
162 0 1256 0 162 0 c
closepath } bind def
/s73 {
191 0 m
191 1466 191 0 191 1466 c
385 1466 191 1466 385 1466 c
385 0 385 1466 385 0 c
191 0 385 0 191 0 c
closepath } bind def
/s82 {
161 0 m
161 1466 161 0 161 1466 c
811 1466 161 1466 811 1466 c
941.67 1466 1041 1452.83 1109 1426.5 c
1177 1400.17 1231.33 1353.67 1272 1287 c
1312.67 1220.33 1333 1146.67 1333 1066 c
1333 962 1299.33 874.33 1232 803 c
1164.67 731.67 1060.67 686.33 920 667 c
971.33 642.33 1010.33 618 1037 594 c
1093.67 542 1147.33 477 1198 399 c
1453 0 1198 399 1453 0 c
1209 0 1453 0 1209 0 c
1015 305 1209 0 1015 305 c
958.33 393 911.67 460.33 875 507 c
838.33 553.67 805.5 586.33 776.5 605 c
747.5 623.67 718 636.67 688 644 c
666 648.67 630 651 580 651 c
355 651 580 651 355 651 c
355 0 355 651 355 0 c
161 0 355 0 161 0 c
closepath 355 819 m
772 819 355 819 772 819 c
860.67 819 930 828.17 980 846.5 c
1030 864.83 1068 894.17 1094 934.5 c
1120 974.83 1133 1018.67 1133 1066 c
1133 1135.33 1107.83 1192.33 1057.5 1237 c
1007.17 1281.67 927.67 1304 819 1304 c
355 1304 819 1304 355 1304 c
355 819 355 1304 355 819 c
closepath } bind def
/s83 {
92 471 m
275 487 92 471 275 487 c
283.67 413.67 303.83 353.5 335.5 306.5 c
367.17 259.5 416.33 221.5 483 192.5 c
549.67 163.5 624.67 149 708 149 c
782 149 847.33 160 904 182 c
960.67 204 1002.83 234.17 1030.5 272.5 c
1058.17 310.83 1072 352.67 1072 398 c
1072 444 1058.67 484.17 1032 518.5 c
1005.33 552.83 961.33 581.67 900 605 c
860.67 620.33 773.67 644.17 639 676.5 c
504.33 708.83 410 739.33 356 768 c
286 804.67 233.83 850.17 199.5 904.5 c
165.17 958.83 148 1019.67 148 1087 c
148 1161 169 1230.17 211 1294.5 c
253 1358.83 314.33 1407.67 395 1441 c
475.67 1474.33 565.33 1491 664 1491 c
772.67 1491 868.5 1473.5 951.5 1438.5 c
1034.5 1403.5 1098.33 1352 1143 1284 c
1187.67 1216 1211.67 1139 1215 1053 c
1029 1039 1215 1053 1029 1039 c
1019 1131.67 985.17 1201.67 927.5 1249 c
869.83 1296.33 784.67 1320 672 1320 c
554.67 1320 469.17 1298.5 415.5 1255.5 c
361.83 1212.5 335 1160.67 335 1100 c
335 1047.33 354 1004 392 970 c
429.33 936 526.83 901.17 684.5 865.5 c
842.17 829.83 950.33 798.67 1009 772 c
1094.33 732.67 1157.33 682.83 1198 622.5 c
1238.67 562.17 1259 492.67 1259 414 c
1259 336 1236.67 262.5 1192 193.5 c
1147.33 124.5 1083.17 70.83 999.5 32.5 c
915.83 -5.83 821.67 -25 717 -25 c
584.33 -25 473.17 -5.67 383.5 33 c
293.83 71.67 223.5 129.83 172.5 207.5 c
121.5 285.17 94.67 373 92 471 c
closepath } bind def
/s84 {
531 0 m
531 1293 531 0 531 1293 c
48 1293 531 1293 48 1293 c
48 1466 48 1293 48 1466 c
1210 1466 48 1466 1210 1466 c
1210 1293 1210 1466 1210 1293 c
725 1293 1210 1293 725 1293 c
725 0 725 1293 725 0 c
531 0 725 0 531 0 c
closepath } bind def
/s97 {
828 131 m
761.33 74.33 697.17 34.33 635.5 11 c
573.83 -12.33 507.67 -24 437 -24 c
320.33 -24 230.67 4.5 168 61.5 c
105.33 118.5 74 191.33 74 280 c
74 332 85.83 379.5 109.5 422.5 c
133.17 465.5 164.17 500 202.5 526 c
240.83 552 284 571.67 332 585 c
367.33 594.33 420.67 603.33 492 612 c
637.33 629.33 744.33 650 813 674 c
813.67 698.67 814 714.33 814 721 c
814 794.33 797 846 763 876 c
717 916.67 648.67 937 558 937 c
473.33 937 410.83 922.17 370.5 892.5 c
330.17 862.83 300.33 810.33 281 735 c
105 759 281 735 105 759 c
121 834.33 147.33 895.17 184 941.5 c
220.67 987.83 273.67 1023.5 343 1048.5 c
412.33 1073.5 492.67 1086 584 1086 c
674.67 1086 748.33 1075.33 805 1054 c
861.67 1032.67 903.33 1005.83 930 973.5 c
956.67 941.17 975.33 900.33 986 851 c
992 820.33 995 765 995 685 c
995 445 995 685 995 445 c
995 277.67 998.83 171.83 1006.5 127.5 c
1014.17 83.17 1029.33 40.67 1052 0 c
864 0 1052 0 864 0 c
845.33 37.33 833.33 81 828 131 c
closepath 813 533 m
747.67 506.33 649.67 483.67 519 465 c
445 454.33 392.67 442.33 362 429 c
331.33 415.67 307.67 396.17 291 370.5 c
274.33 344.83 266 316.33 266 285 c
266 237 284.17 197 320.5 165 c
356.83 133 410 117 480 117 c
549.33 117 611 132.17 665 162.5 c
719 192.83 758.67 234.33 784 287 c
803.33 327.67 813 387.67 813 467 c
813 533 813 467 813 533 c
closepath } bind def
/s99 {
828 389 m
1005 366 828 389 1005 366 c
985.67 244 936.17 148.5 856.5 79.5 c
776.83 10.5 679 -24 563 -24 c
417.67 -24 300.83 23.5 212.5 118.5 c
124.17 213.5 80 349.67 80 527 c
80 641.67 99 742 137 828 c
175 914 232.83 978.5 310.5 1021.5 c
388.17 1064.5 472.67 1086 564 1086 c
679.33 1086 773.67 1056.83 847 998.5 c
920.33 940.17 967.33 857.33 988 750 c
813 723 988 750 813 723 c
796.33 794.33 766.83 848 724.5 884 c
682.17 920 631 938 571 938 c
480.33 938 406.67 905.5 350 840.5 c
293.33 775.5 265 672.67 265 532 c
265 389.33 292.33 285.67 347 221 c
401.67 156.33 473 124 561 124 c
631.67 124 690.67 145.67 738 189 c
785.33 232.33 815.33 299 828 389 c
closepath } bind def
/s100 {
824 0 m
824 134 824 0 824 134 c
756.67 28.67 657.67 -24 527 -24 c
442.33 -24 364.5 -0.67 293.5 46 c
222.5 92.67 167.5 157.83 128.5 241.5 c
89.5 325.17 70 421.33 70 530 c
70 636 87.67 732.17 123 818.5 c
158.33 904.83 211.33 971 282 1017 c
352.67 1063 431.67 1086 519 1086 c
583 1086 640 1072.5 690 1045.5 c
740 1018.5 780.67 983.33 812 940 c
812 1466 812 940 812 1466 c
991 1466 812 1466 991 1466 c
991 0 991 1466 991 0 c
824 0 991 0 824 0 c
closepath 255 530 m
255 394 283.67 292.33 341 225 c
398.33 157.67 466 124 544 124 c
622.67 124 689.5 156.17 744.5 220.5 c
799.5 284.83 827 383 827 515 c
827 660.33 799 767 743 835 c
687 903 618 937 536 937 c
456 937 389.17 904.33 335.5 839 c
281.83 773.67 255 670.67 255 530 c
closepath } bind def
/s101 {
862 342 m
1048 319 862 342 1048 319 c
1018.67 210.33 964.33 126 885 66 c
805.67 6 704.33 -24 581 -24 c
425.67 -24 302.5 23.83 211.5 119.5 c
120.5 215.17 75 349.33 75 522 c
75 700.67 121 839.33 213 938 c
305 1036.67 424.33 1086 571 1086 c
713 1086 829 1037.67 919 941 c
1009 844.33 1054 708.33 1054 533 c
1054 522.33 1053.67 506.33 1053 485 c
261 485 1053 485 261 485 c
267.67 368.33 300.67 279 360 217 c
419.33 155 493.33 124 582 124 c
648 124 704.33 141.33 751 176 c
797.67 210.67 834.67 266 862 342 c
closepath 271 633 m
864 633 271 633 864 633 c
856 722.33 833.33 789.33 796 834 c
738.67 903.33 664.33 938 573 938 c
490.33 938 420.83 910.33 364.5 855 c
308.17 799.67 277 725.67 271 633 c
closepath } bind def
/s103 {
102 -88 m
277 -114 102 -88 277 -114 c
284.33 -168 304.67 -207.33 338 -232 c
382.67 -265.33 443.67 -282 521 -282 c
604.33 -282 668.67 -265.33 714 -232 c
759.33 -198.67 790 -152 806 -92 c
815.33 -55.33 819.67 21.67 819 139 c
740.33 46.33 642.33 0 525 0 c
379 0 266 52.67 186 158 c
106 263.33 66 389.67 66 537 c
66 638.33 84.33 731.83 121 817.5 c
157.67 903.17 210.83 969.33 280.5 1016 c
350.17 1062.67 432 1086 526 1086 c
651.33 1086 754.67 1035.33 836 934 c
836 1062 836 934 836 1062 c
1002 1062 836 1062 1002 1062 c
1002 144 1002 1062 1002 144 c
1002 -21.33 985.17 -138.5 951.5 -207.5 c
917.83 -276.5 864.5 -331 791.5 -371 c
718.5 -411 628.67 -431 522 -431 c
395.33 -431 293 -402.5 215 -345.5 c
137 -288.5 99.33 -202.67 102 -88 c
closepath 251 550 m
251 410.67 278.67 309 334 245 c
389.33 181 458.67 149 542 149 c
624.67 149 694 180.83 750 244.5 c
806 308.17 834 408 834 544 c
834 674 805.17 772 747.5 838 c
689.83 904 620.33 937 539 937 c
459 937 391 904.5 335 839.5 c
279 774.5 251 678 251 550 c
closepath } bind def
/s105 {
136 1259 m
136 1466 136 1259 136 1466 c
316 1466 136 1466 316 1466 c
316 1259 316 1466 316 1259 c
136 1259 316 1259 136 1259 c
closepath 136 0 m
136 1062 136 0 136 1062 c
316 1062 136 1062 316 1062 c
316 0 316 1062 316 0 c
136 0 316 0 136 0 c
closepath } bind def
/s107 {
136 0 m
136 1466 136 0 136 1466 c
316 1466 136 1466 316 1466 c
316 630 316 1466 316 630 c
742 1062 316 630 742 1062 c
975 1062 742 1062 975 1062 c
569 668 975 1062 569 668 c
1016 0 569 668 1016 0 c
794 0 1016 0 794 0 c
443 543 794 0 443 543 c
316 421 443 543 316 421 c
316 0 316 421 316 0 c
136 0 316 0 136 0 c
closepath } bind def
/s109 {
135 0 m
135 1062 135 0 135 1062 c
296 1062 135 1062 296 1062 c
296 913 296 1062 296 913 c
329.33 965 373.67 1006.83 429 1038.5 c
484.33 1070.17 547.33 1086 618 1086 c
696.67 1086 761.17 1069.67 811.5 1037 c
861.83 1004.33 897.33 958.67 918 900 c
1002 1024 1111.33 1086 1246 1086 c
1351.33 1086 1432.33 1056.83 1489 998.5 c
1545.67 940.17 1574 850.33 1574 729 c
1574 0 1574 729 1574 0 c
1395 0 1574 0 1395 0 c
1395 669 1395 0 1395 669 c
1395 741 1389.17 792.83 1377.5 824.5 c
1365.83 856.17 1344.67 881.67 1314 901 c
1283.33 920.33 1247.33 930 1206 930 c
1131.33 930 1069.33 905.17 1020 855.5 c
970.67 805.83 946 726.33 946 617 c
946 0 946 617 946 0 c
766 0 946 0 766 0 c
766 690 766 0 766 690 c
766 770 751.33 830 722 870 c
692.67 910 644.67 930 578 930 c
527.33 930 480.5 916.67 437.5 890 c
394.5 863.33 363.33 824.33 344 773 c
324.67 721.67 315 647.67 315 551 c
315 0 315 551 315 0 c
135 0 315 0 135 0 c
closepath } bind def
/s110 {
135 0 m
135 1062 135 0 135 1062 c
297 1062 135 1062 297 1062 c
297 911 297 1062 297 911 c
375 1027.67 487.67 1086 635 1086 c
699 1086 757.83 1074.5 811.5 1051.5 c
865.17 1028.5 905.33 998.33 932 961 c
958.67 923.67 977.33 879.33 988 828 c
994.67 794.67 998 736.33 998 653 c
998 0 998 653 998 0 c
818 0 998 0 818 0 c
818 646 818 0 818 646 c
818 719.33 811 774.17 797 810.5 c
783 846.83 758.17 875.83 722.5 897.5 c
686.83 919.17 645 930 597 930 c
520.33 930 454.17 905.67 398.5 857 c
342.83 808.33 315 716 315 580 c
315 0 315 580 315 0 c
135 0 315 0 135 0 c
closepath } bind def
/s111 {
68 531 m
68 727.67 122.67 873.33 232 968 c
323.33 1046.67 434.67 1086 566 1086 c
712 1086 831.33 1038.17 924 942.5 c
1016.67 846.83 1063 714.67 1063 546 c
1063 409.33 1042.5 301.83 1001.5 223.5 c
960.5 145.17 900.83 84.33 822.5 41 c
744.17 -2.33 658.67 -24 566 -24 c
417.33 -24 297.17 23.67 205.5 119 c
113.83 214.33 68 351.67 68 531 c
closepath 253 531 m
253 395 282.67 293.17 342 225.5 c
401.33 157.83 476 124 566 124 c
655.33 124 729.67 158 789 226 c
848.33 294 878 397.67 878 537 c
878 668.33 848.17 767.83 788.5 835.5 c
728.83 903.17 654.67 937 566 937 c
476 937 401.33 903.33 342 836 c
282.67 768.67 253 667 253 531 c
closepath } bind def
/s114 {
133 0 m
133 1062 133 0 133 1062 c
295 1062 133 1062 295 1062 c
295 901 295 1062 295 901 c
336.33 976.33 374.5 1026 409.5 1050 c
444.5 1074 483 1086 525 1086 c
585.67 1086 647.33 1066.67 710 1028 c
648 861 710 1028 648 861 c
604 887 560 900 516 900 c
476.67 900 441.33 888.17 410 864.5 c
378.67 840.83 356.33 808 343 766 c
323 702 313 632 313 556 c
313 0 313 556 313 0 c
133 0 313 0 133 0 c
closepath } bind def
/s116 {
528 161 m
554 2 528 161 554 2 c
503.33 -8.67 458 -14 418 -14 c
352.67 -14 302 -3.67 266 17 c
230 37.67 204.67 64.83 190 98.5 c
175.33 132.17 168 203 168 311 c
168 922 168 311 168 922 c
36 922 168 922 36 922 c
36 1062 36 922 36 1062 c
168 1062 36 1062 168 1062 c
168 1325 168 1062 168 1325 c
347 1433 168 1325 347 1433 c
347 1062 347 1433 347 1062 c
528 1062 347 1062 528 1062 c
528 922 528 1062 528 922 c
347 922 528 922 347 922 c
347 301 347 922 347 301 c
347 249.67 350.17 216.67 356.5 202 c
362.83 187.33 373.17 175.67 387.5 167 c
401.83 158.33 422.33 154 449 154 c
469 154 495.33 156.33 528 161 c
closepath } bind def
/s117 {
831 0 m
831 156 831 0 831 156 c
748.33 36 636 -24 494 -24 c
431.33 -24 372.83 -12 318.5 12 c
264.17 36 223.83 66.17 197.5 102.5 c
171.17 138.83 152.67 183.33 142 236 c
134.67 271.33 131 327.33 131 404 c
131 1062 131 404 131 1062 c
311 1062 131 1062 311 1062 c
311 473 311 1062 311 473 c
311 379 314.67 315.67 322 283 c
333.33 235.67 357.33 198.5 394 171.5 c
430.67 144.5 476 131 530 131 c
584 131 634.67 144.83 682 172.5 c
729.33 200.17 762.83 237.83 782.5 285.5 c
802.17 333.17 812 402.33 812 493 c
812 1062 812 493 812 1062 c
992 1062 812 1062 992 1062 c
992 0 992 1062 992 0 c
831 0 992 0 831 0 c
closepath } bind def
/s119 {
331 0 m
6 1062 331 0 6 1062 c
192 1062 6 1062 192 1062 c
361 449 192 1062 361 449 c
424 221 361 449 424 221 c
426.67 232.33 445 305.33 479 440 c
648 1062 479 440 648 1062 c
833 1062 648 1062 833 1062 c
992 446 833 1062 992 446 c
1045 243 992 446 1045 243 c
1106 448 1045 243 1106 448 c
1288 1062 1106 448 1288 1062 c
1463 1062 1288 1062 1463 1062 c
1131 0 1463 1062 1131 0 c
944 0 1131 0 944 0 c
775 636 944 0 775 636 c
734 817 775 636 734 817 c
519 0 734 817 519 0 c
331 0 519 0 331 0 c
closepath } bind def
/s120 {
15 0 m
403 552 15 0 403 552 c
44 1062 403 552 44 1062 c
269 1062 44 1062 269 1062 c
432 813 269 1062 432 813 c
462.67 765.67 487.33 726 506 694 c
535.33 738 562.33 777 587 811 c
766 1062 587 811 766 1062 c
981 1062 766 1062 981 1062 c
614 562 981 1062 614 562 c
1009 0 614 562 1009 0 c
788 0 1009 0 788 0 c
570 330 788 0 570 330 c
512 419 570 330 512 419 c
233 0 512 419 233 0 c
15 0 233 0 15 0 c
closepath } bind def
end
/BuildGlyph {
 exch dup /Metrics get 2 index get 0 setcharwidth
/CharProcs get exch 2 copy known not{pop/.notdef}if get exec fill}bind def
/BuildChar {
1 index /Encoding get exch get
1 index /BuildGlyph get exec
} bind def
currentdict end /MC1_Arial exch definefont pop
%%EndFont
%%BeginFont: /MC2_Arial
12 dict begin
/FontInfo 8 dict dup begin
/ItalicAngle 0 def
/UnderlinePosition -217.00 def
/UnderlineThickness 150.00 def
/StrikeoutPosition 530.00 def
/StrikeoutThickness 102.00 def
/isFixedPitch false def
end readonly def
/FontName /MC2_Arial def
/FontType 3 def
/FontMatrix [1 2048 div 0 0 1 2048 div 0 0] def
/FontBBox [-1361 -665 4096 2129] def
/Encoding 256 array def 0 1 255{Encoding exch/.notdef put}for
Encoding 32/s32 put
Encoding 46/s46 put
Encoding 48/s48 put
Encoding 49/s49 put
Encoding 53/s53 put
Encoding 66/s66 put
Encoding 68/s68 put
Encoding 70/s70 put
Encoding 73/s73 put
Encoding 77/s77 put
Encoding 78/s78 put
Encoding 83/s83 put
Encoding 85/s85 put
Encoding 99/s99 put
Encoding 100/s100 put
Encoding 101/s101 put
Encoding 105/s105 put
Encoding 108/s108 put
Encoding 114/s114 put
Encoding 115/s115 put
Encoding 117/s117 put
Encoding 118/s118 put
Encoding 121/s121 put
/BoundingBoxes 24 dict def
BoundingBoxes begin
/s32 [0 -434 569 1854] def
/s46 [0 -434 569 1854] def
/s48 [0 -434 1139 1854] def
/s49 [0 -434 1139 1854] def
/s53 [0 -434 1139 1854] def
/s66 [0 -434 1366 1854] def
/s68 [0 -434 1479 1854] def
/s70 [0 -434 1251 1854] def
/s73 [0 -434 569 1854] def
/s77 [0 -434 1706 1854] def
/s78 [0 -434 1479 1854] def
/s83 [0 -434 1366 1854] def
/s85 [0 -434 1479 1854] def
/s99 [0 -434 1024 1854] def
/s100 [0 -434 1139 1854] def
/s101 [0 -434 1139 1854] def
/s105 [0 -434 455 1854] def
/s108 [0 -434 455 1854] def
/s114 [0 -434 682 1854] def
/s115 [0 -434 1024 1854] def
/s117 [0 -434 1139 1854] def
/s118 [0 -434 1024 1854] def
/s121 [0 -434 1024 1854] def
end
/Metrics 24 dict def
 Metrics begin
/s32 569 def
/s46 569 def
/s48 1139 def
/s49 1139 def
/s53 1139 def
/s66 1366 def
/s68 1479 def
/s70 1251 def
/s73 569 def
/s77 1706 def
/s78 1479 def
/s83 1366 def
/s85 1479 def
/s99 1024 def
/s100 1139 def
/s101 1139 def
/s105 455 def
/s108 455 def
/s114 682 def
/s115 1024 def
/s117 1139 def
/s118 1024 def
/s121 1024 def
end
/CharProcs 24 dict def
CharProcs begin
/.notdef {} def
/s46 {
186 0 m
186 205 186 0 186 205 c
391 205 186 205 391 205 c
391 0 391 205 391 0 c
186 0 391 0 186 0 c
closepath } bind def
/s48 {
85 723 m
85 896.33 102.83 1035.83 138.5 1141.5 c
174.17 1247.17 227.17 1328.67 297.5 1386 c
367.83 1443.33 456.33 1472 563 1472 c
641.67 1472 710.67 1456.17 770 1424.5 c
829.33 1392.83 878.33 1347.17 917 1287.5 c
955.67 1227.83 986 1155.17 1008 1069.5 c
1030 983.83 1041 868.33 1041 723 c
1041 551 1023.33 412.17 988 306.5 c
952.67 200.83 899.83 119.17 829.5 61.5 c
759.17 3.83 670.33 -25 563 -25 c
421.67 -25 310.67 25.67 230 127 c
133.33 249 85 447.67 85 723 c
closepath 270 723 m
270 482.33 298.17 322.17 354.5 242.5 c
410.83 162.83 480.33 123 563 123 c
645.67 123 715.17 163 771.5 243 c
827.83 323 856 483 856 723 c
856 964.33 827.83 1124.67 771.5 1204 c
715.17 1283.33 645 1323 561 1323 c
478.33 1323 412.33 1288 363 1218 c
301 1128.67 270 963.67 270 723 c
closepath } bind def
/s49 {
763 0 m
583 0 763 0 583 0 c
583 1147 583 0 583 1147 c
539.67 1105.67 482.83 1064.33 412.5 1023 c
342.17 981.67 279 950.67 223 930 c
223 1104 223 930 223 1104 c
323.67 1151.33 411.67 1208.67 487 1276 c
562.33 1343.33 615.67 1408.67 647 1472 c
763 1472 647 1472 763 1472 c
763 0 763 1472 763 0 c
closepath } bind def
/s53 {
85 384 m
274 400 85 384 274 400 c
288 308 320.5 238.83 371.5 192.5 c
422.5 146.17 484 123 556 123 c
642.67 123 716 155.67 776 221 c
836 286.33 866 373 866 481 c
866 583.67 837.17 664.67 779.5 724 c
721.83 783.33 646.33 813 553 813 c
495 813 442.67 799.83 396 773.5 c
349.33 747.17 312.67 713 286 671 c
117 693 286 671 117 693 c
259 1446 117 693 259 1446 c
988 1446 259 1446 988 1446 c
988 1274 988 1446 988 1274 c
403 1274 988 1274 403 1274 c
324 880 403 1274 324 880 c
412 941.33 504.33 972 601 972 c
729 972 837 927.67 925 839 c
1013 750.33 1057 636.33 1057 497 c
1057 364.33 1018.33 249.67 941 153 c
847 34.33 718.67 -25 556 -25 c
422.67 -25 313.83 12.33 229.5 87 c
145.17 161.67 97 260.67 85 384 c
closepath } bind def
/s66 {
150 0 m
150 1466 150 0 150 1466 c
700 1466 150 1466 700 1466 c
812 1466 901.83 1451.17 969.5 1421.5 c
1037.17 1391.83 1090.17 1346.17 1128.5 1284.5 c
1166.83 1222.83 1186 1158.33 1186 1091 c
1186 1028.33 1169 969.33 1135 914 c
1101 858.67 1049.67 814 981 780 c
1069.67 754 1137.83 709.67 1185.5 647 c
1233.17 584.33 1257 510.33 1257 425 c
1257 356.33 1242.5 292.5 1213.5 233.5 c
1184.5 174.5 1148.67 129 1106 97 c
1063.33 65 1009.83 40.83 945.5 24.5 c
881.17 8.17 802.33 0 709 0 c
150 0 709 0 150 0 c
closepath 344 850 m
661 850 344 850 661 850 c
747 850 808.67 855.67 846 867 c
895.33 881.67 932.5 906 957.5 940 c
982.5 974 995 1016.67 995 1068 c
995 1116.67 983.33 1159.5 960 1196.5 c
936.67 1233.5 903.33 1258.83 860 1272.5 c
816.67 1286.17 742.33 1293 637 1293 c
344 1293 637 1293 344 1293 c
344 850 344 1293 344 850 c
closepath 344 173 m
709 173 344 173 709 173 c
771.67 173 815.67 175.33 841 180 c
885.67 188 923 201.33 953 220 c
983 238.67 1007.67 265.83 1027 301.5 c
1046.33 337.17 1056 378.33 1056 425 c
1056 479.67 1042 527.17 1014 567.5 c
986 607.83 947.17 636.17 897.5 652.5 c
847.83 668.83 776.33 677 683 677 c
344 677 683 677 344 677 c
344 173 344 677 344 173 c
closepath } bind def
/s68 {
158 0 m
158 1466 158 0 158 1466 c
663 1466 158 1466 663 1466 c
777 1466 864 1459 924 1445 c
1008 1425.67 1079.67 1390.67 1139 1340 c
1216.33 1274.67 1274.17 1191.17 1312.5 1089.5 c
1350.83 987.83 1370 871.67 1370 741 c
1370 629.67 1357 531 1331 445 c
1305 359 1271.67 287.83 1231 231.5 c
1190.33 175.17 1145.83 130.83 1097.5 98.5 c
1049.17 66.17 990.83 41.67 922.5 25 c
854.17 8.33 775.67 0 687 0 c
158 0 687 0 158 0 c
closepath 352 173 m
665 173 352 173 665 173 c
761.67 173 837.5 182 892.5 200 c
947.5 218 991.33 243.33 1024 276 c
1070 322 1105.83 383.83 1131.5 461.5 c
1157.17 539.17 1170 633.33 1170 744 c
1170 897.33 1144.83 1015.17 1094.5 1097.5 c
1044.17 1179.83 983 1235 911 1263 c
859 1283 775.33 1293 660 1293 c
352 1293 660 1293 352 1293 c
352 173 352 1293 352 173 c
closepath } bind def
/s70 {
168 0 m
168 1466 168 0 168 1466 c
1157 1466 168 1466 1157 1466 c
1157 1293 1157 1466 1157 1293 c
362 1293 1157 1293 362 1293 c
362 839 362 1293 362 839 c
1050 839 362 839 1050 839 c
1050 666 1050 839 1050 666 c
362 666 1050 666 362 666 c
362 0 362 666 362 0 c
168 0 362 0 168 0 c
closepath } bind def
/s73 {
191 0 m
191 1466 191 0 191 1466 c
385 1466 191 1466 385 1466 c
385 0 385 1466 385 0 c
191 0 385 0 191 0 c
closepath } bind def
/s77 {
152 0 m
152 1466 152 0 152 1466 c
444 1466 152 1466 444 1466 c
791 428 444 1466 791 428 c
823 331.33 846.33 259 861 211 c
877.67 264.33 903.67 342.67 939 446 c
1290 1466 939 446 1290 1466 c
1551 1466 1290 1466 1551 1466 c
1551 0 1551 1466 1551 0 c
1364 0 1551 0 1364 0 c
1364 1227 1364 0 1364 1227 c
938 0 1364 1227 938 0 c
763 0 938 0 763 0 c
339 1248 763 0 339 1248 c
339 0 339 1248 339 0 c
152 0 339 0 152 0 c
closepath } bind def
/s78 {
156 0 m
156 1466 156 0 156 1466 c
355 1466 156 1466 355 1466 c
1125 315 355 1466 1125 315 c
1125 1466 1125 315 1125 1466 c
1311 1466 1125 1466 1311 1466 c
1311 0 1311 1466 1311 0 c
1112 0 1311 0 1112 0 c
342 1152 1112 0 342 1152 c
342 0 342 1152 342 0 c
156 0 342 0 156 0 c
closepath } bind def
/s83 {
92 471 m
275 487 92 471 275 487 c
283.67 413.67 303.83 353.5 335.5 306.5 c
367.17 259.5 416.33 221.5 483 192.5 c
549.67 163.5 624.67 149 708 149 c
782 149 847.33 160 904 182 c
960.67 204 1002.83 234.17 1030.5 272.5 c
1058.17 310.83 1072 352.67 1072 398 c
1072 444 1058.67 484.17 1032 518.5 c
1005.33 552.83 961.33 581.67 900 605 c
860.67 620.33 773.67 644.17 639 676.5 c
504.33 708.83 410 739.33 356 768 c
286 804.67 233.83 850.17 199.5 904.5 c
165.17 958.83 148 1019.67 148 1087 c
148 1161 169 1230.17 211 1294.5 c
253 1358.83 314.33 1407.67 395 1441 c
475.67 1474.33 565.33 1491 664 1491 c
772.67 1491 868.5 1473.5 951.5 1438.5 c
1034.5 1403.5 1098.33 1352 1143 1284 c
1187.67 1216 1211.67 1139 1215 1053 c
1029 1039 1215 1053 1029 1039 c
1019 1131.67 985.17 1201.67 927.5 1249 c
869.83 1296.33 784.67 1320 672 1320 c
554.67 1320 469.17 1298.5 415.5 1255.5 c
361.83 1212.5 335 1160.67 335 1100 c
335 1047.33 354 1004 392 970 c
429.33 936 526.83 901.17 684.5 865.5 c
842.17 829.83 950.33 798.67 1009 772 c
1094.33 732.67 1157.33 682.83 1198 622.5 c
1238.67 562.17 1259 492.67 1259 414 c
1259 336 1236.67 262.5 1192 193.5 c
1147.33 124.5 1083.17 70.83 999.5 32.5 c
915.83 -5.83 821.67 -25 717 -25 c
584.33 -25 473.17 -5.67 383.5 33 c
293.83 71.67 223.5 129.83 172.5 207.5 c
121.5 285.17 94.67 373 92 471 c
closepath } bind def
/s85 {
1120 1466 m
1314 1466 1120 1466 1314 1466 c
1314 619 1314 1466 1314 619 c
1314 471.67 1297.33 354.67 1264 268 c
1230.67 181.33 1170.5 110.83 1083.5 56.5 c
996.5 2.17 882.33 -25 741 -25 c
603.67 -25 491.33 -1.33 404 46 c
316.67 93.33 254.33 161.83 217 251.5 c
179.67 341.17 161 463.67 161 619 c
161 1466 161 619 161 1466 c
355 1466 161 1466 355 1466 c
355 620 355 1466 355 620 c
355 492.67 366.83 398.83 390.5 338.5 c
414.17 278.17 454.83 231.67 512.5 199 c
570.17 166.33 640.67 150 724 150 c
866.67 150 968.33 182.33 1029 247 c
1089.67 311.67 1120 436 1120 620 c
1120 1466 1120 620 1120 1466 c
closepath } bind def
/s99 {
828 389 m
1005 366 828 389 1005 366 c
985.67 244 936.17 148.5 856.5 79.5 c
776.83 10.5 679 -24 563 -24 c
417.67 -24 300.83 23.5 212.5 118.5 c
124.17 213.5 80 349.67 80 527 c
80 641.67 99 742 137 828 c
175 914 232.83 978.5 310.5 1021.5 c
388.17 1064.5 472.67 1086 564 1086 c
679.33 1086 773.67 1056.83 847 998.5 c
920.33 940.17 967.33 857.33 988 750 c
813 723 988 750 813 723 c
796.33 794.33 766.83 848 724.5 884 c
682.17 920 631 938 571 938 c
480.33 938 406.67 905.5 350 840.5 c
293.33 775.5 265 672.67 265 532 c
265 389.33 292.33 285.67 347 221 c
401.67 156.33 473 124 561 124 c
631.67 124 690.67 145.67 738 189 c
785.33 232.33 815.33 299 828 389 c
closepath } bind def
/s100 {
824 0 m
824 134 824 0 824 134 c
756.67 28.67 657.67 -24 527 -24 c
442.33 -24 364.5 -0.67 293.5 46 c
222.5 92.67 167.5 157.83 128.5 241.5 c
89.5 325.17 70 421.33 70 530 c
70 636 87.67 732.17 123 818.5 c
158.33 904.83 211.33 971 282 1017 c
352.67 1063 431.67 1086 519 1086 c
583 1086 640 1072.5 690 1045.5 c
740 1018.5 780.67 983.33 812 940 c
812 1466 812 940 812 1466 c
991 1466 812 1466 991 1466 c
991 0 991 1466 991 0 c
824 0 991 0 824 0 c
closepath 255 530 m
255 394 283.67 292.33 341 225 c
398.33 157.67 466 124 544 124 c
622.67 124 689.5 156.17 744.5 220.5 c
799.5 284.83 827 383 827 515 c
827 660.33 799 767 743 835 c
687 903 618 937 536 937 c
456 937 389.17 904.33 335.5 839 c
281.83 773.67 255 670.67 255 530 c
closepath } bind def
/s101 {
862 342 m
1048 319 862 342 1048 319 c
1018.67 210.33 964.33 126 885 66 c
805.67 6 704.33 -24 581 -24 c
425.67 -24 302.5 23.83 211.5 119.5 c
120.5 215.17 75 349.33 75 522 c
75 700.67 121 839.33 213 938 c
305 1036.67 424.33 1086 571 1086 c
713 1086 829 1037.67 919 941 c
1009 844.33 1054 708.33 1054 533 c
1054 522.33 1053.67 506.33 1053 485 c
261 485 1053 485 261 485 c
267.67 368.33 300.67 279 360 217 c
419.33 155 493.33 124 582 124 c
648 124 704.33 141.33 751 176 c
797.67 210.67 834.67 266 862 342 c
closepath 271 633 m
864 633 271 633 864 633 c
856 722.33 833.33 789.33 796 834 c
738.67 903.33 664.33 938 573 938 c
490.33 938 420.83 910.33 364.5 855 c
308.17 799.67 277 725.67 271 633 c
closepath } bind def
/s105 {
136 1259 m
136 1466 136 1259 136 1466 c
316 1466 136 1466 316 1466 c
316 1259 316 1466 316 1259 c
136 1259 316 1259 136 1259 c
closepath 136 0 m
136 1062 136 0 136 1062 c
316 1062 136 1062 316 1062 c
316 0 316 1062 316 0 c
136 0 316 0 136 0 c
closepath } bind def
/s108 {
131 0 m
131 1466 131 0 131 1466 c
311 1466 131 1466 311 1466 c
311 0 311 1466 311 0 c
131 0 311 0 131 0 c
closepath } bind def
/s114 {
133 0 m
133 1062 133 0 133 1062 c
295 1062 133 1062 295 1062 c
295 901 295 1062 295 901 c
336.33 976.33 374.5 1026 409.5 1050 c
444.5 1074 483 1086 525 1086 c
585.67 1086 647.33 1066.67 710 1028 c
648 861 710 1028 648 861 c
604 887 560 900 516 900 c
476.67 900 441.33 888.17 410 864.5 c
378.67 840.83 356.33 808 343 766 c
323 702 313 632 313 556 c
313 0 313 556 313 0 c
133 0 313 0 133 0 c
closepath } bind def
/s115 {
63 317 m
241 345 63 317 241 345 c
251 273.67 278.83 219 324.5 181 c
370.17 143 434 124 516 124 c
598.67 124 660 140.83 700 174.5 c
740 208.17 760 247.67 760 293 c
760 333.67 742.33 365.67 707 389 c
682.33 405 621 425.33 523 450 c
391 483.33 299.5 512.17 248.5 536.5 c
197.5 560.83 158.83 594.5 132.5 637.5 c
106.17 680.5 93 728 93 780 c
93 827.33 103.83 871.17 125.5 911.5 c
147.17 951.83 176.67 985.33 214 1012 c
242 1032.67 280.17 1050.17 328.5 1064.5 c
376.83 1078.83 428.67 1086 484 1086 c
567.33 1086 640.5 1074 703.5 1050 c
766.5 1026 813 993.5 843 952.5 c
873 911.5 893.67 856.67 905 788 c
729 764 905 788 729 764 c
721 818.67 697.83 861.33 659.5 892 c
621.17 922.67 567 938 497 938 c
414.33 938 355.33 924.33 320 897 c
284.67 869.67 267 837.67 267 801 c
267 777.67 274.33 756.67 289 738 c
303.67 718.67 326.67 702.67 358 690 c
376 683.33 429 668 517 644 c
644.33 610 733.17 582.17 783.5 560.5 c
833.83 538.83 873.33 507.33 902 466 c
930.67 424.67 945 373.33 945 312 c
945 252 927.5 195.5 892.5 142.5 c
857.5 89.5 807 48.5 741 19.5 c
675 -9.5 600.33 -24 517 -24 c
379 -24 273.83 4.67 201.5 62 c
129.17 119.33 83 204.33 63 317 c
closepath } bind def
/s117 {
831 0 m
831 156 831 0 831 156 c
748.33 36 636 -24 494 -24 c
431.33 -24 372.83 -12 318.5 12 c
264.17 36 223.83 66.17 197.5 102.5 c
171.17 138.83 152.67 183.33 142 236 c
134.67 271.33 131 327.33 131 404 c
131 1062 131 404 131 1062 c
311 1062 131 1062 311 1062 c
311 473 311 1062 311 473 c
311 379 314.67 315.67 322 283 c
333.33 235.67 357.33 198.5 394 171.5 c
430.67 144.5 476 131 530 131 c
584 131 634.67 144.83 682 172.5 c
729.33 200.17 762.83 237.83 782.5 285.5 c
802.17 333.17 812 402.33 812 493 c
812 1062 812 493 812 1062 c
992 1062 812 1062 992 1062 c
992 0 992 1062 992 0 c
831 0 992 0 831 0 c
closepath } bind def
/s118 {
430 0 m
26 1062 430 0 26 1062 c
216 1062 26 1062 216 1062 c
444 426 216 1062 444 426 c
468.67 357.33 491.33 286 512 212 c
528 268 550.33 335.33 579 414 c
815 1062 579 414 815 1062 c
1000 1062 815 1062 1000 1062 c
598 0 1000 1062 598 0 c
430 0 598 0 430 0 c
closepath } bind def
/s121 {
127 -409 m
107 -240 127 -409 107 -240 c
146.33 -250.67 180.67 -256 210 -256 c
250 -256 282 -249.33 306 -236 c
330 -222.67 349.67 -204 365 -180 c
376.33 -162 394.67 -117.33 420 -46 c
423.33 -36 428.67 -21.33 436 -2 c
33 1062 436 -2 33 1062 c
227 1062 33 1062 227 1062 c
448 447 227 1062 448 447 c
476.67 369 502.33 287 525 201 c
545.67 283.67 570.33 364.33 599 443 c
826 1062 599 443 826 1062 c
1006 1062 826 1062 1006 1062 c
602 -18 1006 1062 602 -18 c
558.67 -134.67 525 -215 501 -259 c
469 -318.33 432.33 -361.83 391 -389.5 c
349.67 -417.17 300.33 -431 243 -431 c
208.33 -431 169.67 -423.67 127 -409 c
closepath } bind def
end
/BuildGlyph {
 exch dup /Metrics get 2 index get 0 setcharwidth
/CharProcs get exch 2 copy known not{pop/.notdef}if get exec fill}bind def
/BuildChar {
1 index /Encoding get exch get
1 index /BuildGlyph get exec
} bind def
currentdict end /MC2_Arial exch definefont pop
%%EndFont
/clipproc{clippath{[{/m cvx}{/l cvx}{/c cvx}{/cp cvx}pathforall}stopped
{cleartomark[pathbbox exch 3 i sub exch 2 i sub/rectpath cvx}if]np}bd
/iclmtx mtx cmtx def/iclpath clipproc xd/clinit{pathproc initclip np iclpath cl np exec}bd
/clmove{pathproc 3 1 roll clippath pathproc 2 i neg 2 i neg tr initclip np exec cl tr np exec}bd
/clrect[gs np iclpath{pathbbox}stopped{0 0 411.85 230.85 }if gr]def
/cloper{mtx cmtx iclmtx smtx exch exec smtx}bd
/cland{{exch cvx exec}cloper}bd
/clcopy{{exch clinit cvx exec}cloper}bd
/cldiff{{exch pathbbox 4 -1 roll clrect 0 get 2 copy gt{exch}if pop 4 1 roll
 3 -1 roll clrect 1 get 2 copy gt{exch}if pop 3 1 roll
 2 -1 roll clrect 2 get 2 copy lt{exch}if pop 2 1 roll
 1 -1 roll clrect 3 get 2 copy lt{exch}if pop 1 1 roll
 exch 3 i sub exch 2 i sub rectpath cvx exec}cloper}bd
/icl{{clinit}cloper}bd
0.271844 0.27212 sc

/initmtx mtx cmtx def
initmtx smtx
[1.0000 0.0000 0.0000 1.0000 0.0000 0.0000 ] concat
 [0.882874 -0 0 -0.88189 0 848.353] concat
gs
573 712 m
573 710 l
3 sw
0.502 0.502 0.502 rgb
1 sj
1 scap
st
573 705 m
573 703 l
st
573 698 m
573 696 l
st
573 691 m
573 689 l
st
573 684 m
573 682 l
st
573 677 m
573 675 l
st
573 670 m
573 668 l
st
573 663 m
573 661 l
st
573 656 m
573 654 l
st
573 649 m
573 647 l
st
573 642 m
573 640 l
st
573 635 m
573 633 l
st
573 628 m
573 626 l
st
573 621 m
573 619 l
st
573 614 m
573 612 l
st
573 607 m
573 605 l
st
573 600 m
573 598 l
st
573 593 m
573 591 l
st
573 586 m
573 584 l
st
573 579 m
573 577 l
st
573 572 m
573 570 l
st
573 565 m
573 563 l
st
573 558 m
573 556 l
st
573 551 m
573 549 l
st
573 544 m
573 542 l
st
573 537 m
573 535 l
st
573 530 m
573 528 l
st
573 523 m
573 521 l
st
573 516 m
573 514 l
st
573 509 m
573 507 l
st
573 502 m
573 500 l
st
573 495 m
573 493 l
st
573 488 m
573 486 l
st
573 481 m
573 479 l
st
573 474 m
573 472 l
st
573 467 m
573 465 l
st
573 460 m
573 458 l
st
573 453 m
573 451 l
st
573 446 m
573 444 l
st
573 439 m
573 437 l
st
573 432 m
573 430 l
st
573 425 m
573 423 l
st
573 418 m
573 416 l
st
573 411 m
573 409 l
st
573 404 m
573 402 l
st
573 397 m
573 395 l
st
573 390 m
573 388 l
st
573 383 m
573 381 l
st
573 376 m
573 374 l
st
573 369 m
573 367 l
st
573 362 m
573 360 l
st
573 355 m
573 353 l
st
573 348 m
573 346 l
st
573 341 m
573 339 l
st
573 334 m
573 332 l
st
573 327 m
573 325 l
st
573 320 m
573 318 l
st
573 313 m
573 311 l
st
573 306 m
573 304 l
st
573 299 m
573 297 l
st
573 292 m
573 290 l
st
573 285 m
573 283 l
st
573 278 m
573 276 l
st
573 271 m
573 269 l
st
573 264 m
573 262 l
st
573 257 m
573 255 l
st
573 250 m
573 248 l
st
573 243 m
573 241 l
st
573 236 m
573 234 l
st
573 229 m
573 227 l
st
573 222 m
573 220 l
st
573 215 m
573 213 l
st
573 208 m
573 208 l
st
822 712 m
822 710 l
st
822 705 m
822 703 l
st
822 698 m
822 696 l
st
822 691 m
822 689 l
st
822 684 m
822 682 l
st
822 677 m
822 675 l
st
822 670 m
822 668 l
st
822 663 m
822 661 l
st
822 656 m
822 654 l
st
822 649 m
822 647 l
st
822 642 m
822 640 l
st
822 635 m
822 633 l
st
822 628 m
822 626 l
st
822 621 m
822 619 l
st
822 614 m
822 612 l
st
822 607 m
822 605 l
st
822 600 m
822 598 l
st
822 593 m
822 591 l
st
822 586 m
822 584 l
st
822 579 m
822 577 l
st
822 572 m
822 570 l
st
822 565 m
822 563 l
st
822 558 m
822 556 l
st
822 551 m
822 549 l
st
822 544 m
822 542 l
st
822 537 m
822 535 l
st
822 530 m
822 528 l
st
822 523 m
822 521 l
st
822 516 m
822 514 l
st
822 509 m
822 507 l
st
822 502 m
822 500 l
st
822 495 m
822 493 l
st
822 488 m
822 486 l
st
822 481 m
822 479 l
st
822 474 m
822 472 l
st
822 467 m
822 465 l
st
822 460 m
822 458 l
st
822 453 m
822 451 l
st
822 446 m
822 444 l
st
822 439 m
822 437 l
st
822 432 m
822 430 l
st
822 425 m
822 423 l
st
822 418 m
822 416 l
st
822 411 m
822 409 l
st
822 404 m
822 402 l
st
822 397 m
822 395 l
st
822 390 m
822 388 l
st
822 383 m
822 381 l
st
822 376 m
822 374 l
st
822 369 m
822 367 l
st
822 362 m
822 360 l
st
822 355 m
822 353 l
st
822 348 m
822 346 l
st
822 341 m
822 339 l
st
822 334 m
822 332 l
st
822 327 m
822 325 l
st
822 320 m
822 318 l
st
822 313 m
822 311 l
st
822 306 m
822 304 l
st
822 299 m
822 297 l
st
822 292 m
822 290 l
st
822 285 m
822 283 l
st
822 278 m
822 276 l
st
822 271 m
822 269 l
st
822 264 m
822 262 l
st
822 257 m
822 255 l
st
822 250 m
822 248 l
st
822 243 m
822 241 l
st
822 236 m
822 234 l
st
822 229 m
822 227 l
st
822 222 m
822 220 l
st
822 215 m
822 213 l
st
822 208 m
822 208 l
st
1071 712 m
1071 710 l
st
1071 705 m
1071 703 l
st
1071 698 m
1071 696 l
st
1071 691 m
1071 689 l
st
1071 684 m
1071 682 l
st
1071 677 m
1071 675 l
st
1071 670 m
1071 668 l
st
1071 663 m
1071 661 l
st
1071 656 m
1071 654 l
st
1071 649 m
1071 647 l
st
1071 642 m
1071 640 l
st
1071 635 m
1071 633 l
st
1071 628 m
1071 626 l
st
1071 621 m
1071 619 l
st
1071 614 m
1071 612 l
st
1071 607 m
1071 605 l
st
1071 600 m
1071 598 l
st
1071 593 m
1071 591 l
st
1071 586 m
1071 584 l
st
1071 579 m
1071 577 l
st
1071 572 m
1071 570 l
st
1071 565 m
1071 563 l
st
1071 558 m
1071 556 l
st
1071 551 m
1071 549 l
st
1071 544 m
1071 542 l
st
1071 537 m
1071 535 l
st
1071 530 m
1071 528 l
st
1071 523 m
1071 521 l
st
1071 516 m
1071 514 l
st
1071 509 m
1071 507 l
st
1071 502 m
1071 500 l
st
1071 495 m
1071 493 l
st
1071 488 m
1071 486 l
st
1071 481 m
1071 479 l
st
1071 474 m
1071 472 l
st
1071 467 m
1071 465 l
st
1071 460 m
1071 458 l
st
1071 453 m
1071 451 l
st
1071 446 m
1071 444 l
st
1071 439 m
1071 437 l
st
1071 432 m
1071 430 l
st
1071 425 m
1071 423 l
st
1071 418 m
1071 416 l
st
1071 411 m
1071 409 l
st
1071 404 m
1071 402 l
st
1071 397 m
1071 395 l
st
1071 390 m
1071 388 l
st
1071 383 m
1071 381 l
st
1071 376 m
1071 374 l
st
1071 369 m
1071 367 l
st
1071 362 m
1071 360 l
st
1071 355 m
1071 353 l
st
1071 348 m
1071 346 l
st
1071 341 m
1071 339 l
st
1071 334 m
1071 332 l
st
1071 327 m
1071 325 l
st
1071 320 m
1071 318 l
st
1071 313 m
1071 311 l
st
1071 306 m
1071 304 l
st
1071 299 m
1071 297 l
st
1071 292 m
1071 290 l
st
1071 285 m
1071 283 l
st
1071 278 m
1071 276 l
st
1071 271 m
1071 269 l
st
1071 264 m
1071 262 l
st
1071 257 m
1071 255 l
st
1071 250 m
1071 248 l
st
1071 243 m
1071 241 l
st
1071 236 m
1071 234 l
st
1071 229 m
1071 227 l
st
1071 222 m
1071 220 l
st
1071 215 m
1071 213 l
st
1071 208 m
1071 208 l
st
1320 712 m
1320 710 l
st
1320 705 m
1320 703 l
st
1320 698 m
1320 696 l
st
1320 691 m
1320 689 l
st
1320 684 m
1320 682 l
st
1320 677 m
1320 675 l
st
1320 670 m
1320 668 l
st
1320 663 m
1320 661 l
st
1320 656 m
1320 654 l
st
1320 649 m
1320 647 l
st
1320 642 m
1320 640 l
st
1320 635 m
1320 633 l
st
1320 628 m
1320 626 l
st
1320 621 m
1320 619 l
st
1320 614 m
1320 612 l
st
1320 607 m
1320 605 l
st
1320 600 m
1320 598 l
st
1320 593 m
1320 591 l
st
1320 586 m
1320 584 l
st
1320 579 m
1320 577 l
st
1320 572 m
1320 570 l
st
1320 565 m
1320 563 l
st
1320 558 m
1320 556 l
st
1320 551 m
1320 549 l
st
1320 544 m
1320 542 l
st
1320 537 m
1320 535 l
st
1320 530 m
1320 528 l
st
1320 523 m
1320 521 l
st
1320 516 m
1320 514 l
st
1320 509 m
1320 507 l
st
1320 502 m
1320 500 l
st
1320 495 m
1320 493 l
st
1320 488 m
1320 486 l
st
1320 481 m
1320 479 l
st
1320 474 m
1320 472 l
st
1320 467 m
1320 465 l
st
1320 460 m
1320 458 l
st
1320 453 m
1320 451 l
st
1320 446 m
1320 444 l
st
1320 439 m
1320 437 l
st
1320 432 m
1320 430 l
st
1320 425 m
1320 423 l
st
1320 418 m
1320 416 l
st
1320 411 m
1320 409 l
st
1320 404 m
1320 402 l
st
1320 397 m
1320 395 l
st
1320 390 m
1320 388 l
st
1320 383 m
1320 381 l
st
1320 376 m
1320 374 l
st
1320 369 m
1320 367 l
st
1320 362 m
1320 360 l
st
1320 355 m
1320 353 l
st
1320 348 m
1320 346 l
st
1320 341 m
1320 339 l
st
1320 334 m
1320 332 l
st
1320 327 m
1320 325 l
st
1320 320 m
1320 318 l
st
1320 313 m
1320 311 l
st
1320 306 m
1320 304 l
st
1320 299 m
1320 297 l
st
1320 292 m
1320 290 l
st
1320 285 m
1320 283 l
st
1320 278 m
1320 276 l
st
1320 271 m
1320 269 l
st
1320 264 m
1320 262 l
st
1320 257 m
1320 255 l
st
1320 250 m
1320 248 l
st
1320 243 m
1320 241 l
st
1320 236 m
1320 234 l
st
1320 229 m
1320 227 l
st
1320 222 m
1320 220 l
st
1320 215 m
1320 213 l
st
1320 208 m
1320 208 l
st
1569 712 m
1569 710 l
st
1569 705 m
1569 703 l
st
1569 698 m
1569 696 l
st
1569 691 m
1569 689 l
st
1569 684 m
1569 682 l
st
1569 677 m
1569 675 l
st
1569 670 m
1569 668 l
st
1569 663 m
1569 661 l
st
1569 656 m
1569 654 l
st
1569 649 m
1569 647 l
st
1569 642 m
1569 640 l
st
1569 635 m
1569 633 l
st
1569 628 m
1569 626 l
st
1569 621 m
1569 619 l
st
1569 614 m
1569 612 l
st
1569 607 m
1569 605 l
st
1569 600 m
1569 598 l
st
1569 593 m
1569 591 l
st
1569 586 m
1569 584 l
st
1569 579 m
1569 577 l
st
1569 572 m
1569 570 l
st
1569 565 m
1569 563 l
st
1569 558 m
1569 556 l
st
1569 551 m
1569 549 l
st
1569 544 m
1569 542 l
st
1569 537 m
1569 535 l
st
1569 530 m
1569 528 l
st
1569 523 m
1569 521 l
st
1569 516 m
1569 514 l
st
1569 509 m
1569 507 l
st
1569 502 m
1569 500 l
st
1569 495 m
1569 493 l
st
1569 488 m
1569 486 l
st
1569 481 m
1569 479 l
st
1569 474 m
1569 472 l
st
1569 467 m
1569 465 l
st
1569 460 m
1569 458 l
st
1569 453 m
1569 451 l
st
1569 446 m
1569 444 l
st
1569 439 m
1569 437 l
st
1569 432 m
1569 430 l
st
1569 425 m
1569 423 l
st
1569 418 m
1569 416 l
st
1569 411 m
1569 409 l
st
1569 404 m
1569 402 l
st
1569 397 m
1569 395 l
st
1569 390 m
1569 388 l
st
1569 383 m
1569 381 l
st
1569 376 m
1569 374 l
st
1569 369 m
1569 367 l
st
1569 362 m
1569 360 l
st
1569 355 m
1569 353 l
st
1569 348 m
1569 346 l
st
1569 341 m
1569 339 l
st
1569 334 m
1569 332 l
st
1569 327 m
1569 325 l
st
1569 320 m
1569 318 l
st
1569 313 m
1569 311 l
st
1569 306 m
1569 304 l
st
1569 299 m
1569 297 l
st
1569 292 m
1569 290 l
st
1569 285 m
1569 283 l
st
1569 278 m
1569 276 l
st
1569 271 m
1569 269 l
st
1569 264 m
1569 262 l
st
1569 257 m
1569 255 l
st
1569 250 m
1569 248 l
st
1569 243 m
1569 241 l
st
1569 236 m
1569 234 l
st
1569 229 m
1569 227 l
st
1569 222 m
1569 220 l
st
1569 215 m
1569 213 l
st
1569 208 m
1569 208 l
st
448 482 m
457 482 l
st
462 482 m
464 482 l
st
470 482 m
479 482 l
st
484 482 m
486 482 l
st
492 482 m
501 482 l
st
506 482 m
508 482 l
st
514 482 m
523 482 l
st
528 482 m
530 482 l
st
536 482 m
545 482 l
st
550 482 m
552 482 l
st
558 482 m
567 482 l
st
572 482 m
574 482 l
st
580 482 m
589 482 l
st
594 482 m
596 482 l
st
602 482 m
611 482 l
st
616 482 m
618 482 l
st
624 482 m
633 482 l
st
638 482 m
640 482 l
st
646 482 m
655 482 l
st
660 482 m
662 482 l
st
668 482 m
677 482 l
st
682 482 m
684 482 l
st
690 482 m
699 482 l
st
704 482 m
706 482 l
st
712 482 m
721 482 l
st
726 482 m
728 482 l
st
734 482 m
743 482 l
st
748 482 m
750 482 l
st
756 482 m
765 482 l
st
770 482 m
772 482 l
st
778 482 m
787 482 l
st
792 482 m
794 482 l
st
800 482 m
809 482 l
st
814 482 m
816 482 l
st
822 482 m
831 482 l
st
836 482 m
838 482 l
st
844 482 m
853 482 l
st
858 482 m
860 482 l
st
866 482 m
875 482 l
st
880 482 m
882 482 l
st
888 482 m
897 482 l
st
902 482 m
904 482 l
st
910 482 m
919 482 l
st
924 482 m
926 482 l
st
932 482 m
941 482 l
st
946 482 m
948 482 l
st
954 482 m
963 482 l
st
968 482 m
970 482 l
st
976 482 m
985 482 l
st
990 482 m
992 482 l
st
998 482 m
1007 482 l
st
1012 482 m
1014 482 l
st
1020 482 m
1029 482 l
st
1034 482 m
1036 482 l
st
1042 482 m
1051 482 l
st
1056 482 m
1058 482 l
st
1064 482 m
1073 482 l
st
1078 482 m
1080 482 l
st
1086 482 m
1095 482 l
st
1100 482 m
1102 482 l
st
1108 482 m
1117 482 l
st
1122 482 m
1124 482 l
st
1130 482 m
1139 482 l
st
1144 482 m
1146 482 l
st
1152 482 m
1161 482 l
st
1166 482 m
1168 482 l
st
1174 482 m
1183 482 l
st
1188 482 m
1190 482 l
st
1196 482 m
1205 482 l
st
1210 482 m
1212 482 l
st
1218 482 m
1227 482 l
st
1232 482 m
1234 482 l
st
1240 482 m
1249 482 l
st
1254 482 m
1256 482 l
st
1262 482 m
1271 482 l
st
1276 482 m
1278 482 l
st
1284 482 m
1293 482 l
st
1298 482 m
1300 482 l
st
1306 482 m
1315 482 l
st
1320 482 m
1322 482 l
st
1328 482 m
1337 482 l
st
1342 482 m
1344 482 l
st
1350 482 m
1359 482 l
st
1364 482 m
1366 482 l
st
1372 482 m
1381 482 l
st
1386 482 m
1388 482 l
st
1394 482 m
1403 482 l
st
1408 482 m
1410 482 l
st
1416 482 m
1425 482 l
st
1430 482 m
1432 482 l
st
1438 482 m
1447 482 l
st
1452 482 m
1454 482 l
st
1460 482 m
1469 482 l
st
1474 482 m
1476 482 l
st
1482 482 m
1491 482 l
st
1496 482 m
1498 482 l
st
1504 482 m
1513 482 l
st
1518 482 m
1520 482 l
st
1526 482 m
1535 482 l
st
1540 482 m
1542 482 l
st
1548 482 m
1557 482 l
st
1562 482 m
1564 482 l
st
1570 482 m
1579 482 l
st
1584 482 m
1586 482 l
st
1592 482 m
1601 482 l
st
1606 482 m
1608 482 l
st
1614 482 m
1623 482 l
st
1628 482 m
1630 482 l
st
1636 482 m
1645 482 l
st
1650 482 m
1652 482 l
st
1658 482 m
1667 482 l
st
1672 482 m
1674 482 l
st
1680 482 m
1689 482 l
st
448 253 m
457 253 l
st
462 253 m
464 253 l
st
470 253 m
479 253 l
st
484 253 m
486 253 l
st
492 253 m
501 253 l
st
506 253 m
508 253 l
st
514 253 m
523 253 l
st
528 253 m
530 253 l
st
536 253 m
545 253 l
st
550 253 m
552 253 l
st
558 253 m
567 253 l
st
572 253 m
574 253 l
st
580 253 m
589 253 l
st
594 253 m
596 253 l
st
602 253 m
611 253 l
st
616 253 m
618 253 l
st
624 253 m
633 253 l
st
638 253 m
640 253 l
st
646 253 m
655 253 l
st
660 253 m
662 253 l
st
668 253 m
677 253 l
st
682 253 m
684 253 l
st
690 253 m
699 253 l
st
704 253 m
706 253 l
st
712 253 m
721 253 l
st
726 253 m
728 253 l
st
734 253 m
743 253 l
st
748 253 m
750 253 l
st
756 253 m
765 253 l
st
770 253 m
772 253 l
st
778 253 m
787 253 l
st
792 253 m
794 253 l
st
800 253 m
809 253 l
st
814 253 m
816 253 l
st
822 253 m
831 253 l
st
836 253 m
838 253 l
st
844 253 m
853 253 l
st
858 253 m
860 253 l
st
866 253 m
875 253 l
st
880 253 m
882 253 l
st
888 253 m
897 253 l
st
902 253 m
904 253 l
st
910 253 m
919 253 l
st
924 253 m
926 253 l
st
932 253 m
941 253 l
st
946 253 m
948 253 l
st
954 253 m
963 253 l
st
968 253 m
970 253 l
st
976 253 m
985 253 l
st
990 253 m
992 253 l
st
998 253 m
1007 253 l
st
1012 253 m
1014 253 l
st
1020 253 m
1029 253 l
st
1034 253 m
1036 253 l
st
1042 253 m
1051 253 l
st
1056 253 m
1058 253 l
st
1064 253 m
1073 253 l
st
1078 253 m
1080 253 l
st
1086 253 m
1095 253 l
st
1100 253 m
1102 253 l
st
1108 253 m
1117 253 l
st
1122 253 m
1124 253 l
st
1130 253 m
1139 253 l
st
1144 253 m
1146 253 l
st
1152 253 m
1161 253 l
st
1166 253 m
1168 253 l
st
1174 253 m
1183 253 l
st
1188 253 m
1190 253 l
st
1196 253 m
1205 253 l
st
1210 253 m
1212 253 l
st
1218 253 m
1227 253 l
st
1232 253 m
1234 253 l
st
1240 253 m
1249 253 l
st
1254 253 m
1256 253 l
st
1262 253 m
1271 253 l
st
1276 253 m
1278 253 l
st
1284 253 m
1293 253 l
st
1298 253 m
1300 253 l
st
1306 253 m
1315 253 l
st
1320 253 m
1322 253 l
st
1328 253 m
1337 253 l
st
1342 253 m
1344 253 l
st
1350 253 m
1359 253 l
st
1364 253 m
1366 253 l
st
1372 253 m
1381 253 l
st
1386 253 m
1388 253 l
st
1394 253 m
1403 253 l
st
1408 253 m
1410 253 l
st
1416 253 m
1425 253 l
st
1430 253 m
1432 253 l
st
1438 253 m
1447 253 l
st
1452 253 m
1454 253 l
st
1460 253 m
1469 253 l
st
1474 253 m
1476 253 l
st
1482 253 m
1491 253 l
st
1496 253 m
1498 253 l
st
1504 253 m
1513 253 l
st
1518 253 m
1520 253 l
st
1526 253 m
1535 253 l
st
1540 253 m
1542 253 l
st
1548 253 m
1557 253 l
st
1562 253 m
1564 253 l
st
1570 253 m
1579 253 l
st
1584 253 m
1586 253 l
st
1592 253 m
1601 253 l
st
1606 253 m
1608 253 l
st
1614 253 m
1623 253 l
st
1628 253 m
1630 253 l
st
1636 253 m
1645 253 l
st
1650 253 m
1652 253 l
st
1658 253 m
1667 253 l
st
1672 253 m
1674 253 l
st
1680 253 m
1689 253 l
st
gs
pathproc 448 207 1247 506 np rectpath
/eocl cland
np exec
473 254 m
672 254 l
672 712 l
473 712 l
cp
gs
0 0 0 rgb
eofi
gr
13 sw
0 0 0 rgb
st
473 254 m
672 254 l
st
672 254 m
672 712 l
st
473 712 m
473 254 l
st
722 593 m
921 593 l
921 712 l
722 712 l
cp
gs
eofi
gr
st
722 593 m
921 593 l
st
921 593 m
921 712 l
st
722 712 m
722 593 l
st
971 594 m
1171 594 l
1171 712 l
971 712 l
cp
gs
eofi
gr
st
971 594 m
1171 594 l
st
1171 594 m
1171 712 l
st
971 712 m
971 594 l
st
1221 594 m
1420 594 l
1420 712 l
1221 712 l
cp
gs
eofi
gr
st
1221 594 m
1420 594 l
st
1420 594 m
1420 712 l
st
1221 712 m
1221 594 l
st
1470 586 m
1669 586 l
1669 712 l
1470 712 l
cp
gs
eofi
gr
st
1470 586 m
1669 586 l
st
1669 586 m
1669 712 l
st
1470 712 m
1470 586 l
st
gr
gs
pathproc 448 207 1247 506 np rectpath
/eocl cland
np exec
473 253 m
672 253 l
672 254 l
473 254 l
cp
gs
1 1 1 rgb
eofi
gr
13 sw
0 0 0 rgb
st
722 593 m
921 593 l
st
971 594 m
1171 594 l
st
1221 594 m
1420 594 l
st
1470 586 m
1669 586 l
st
gr
gs
pathproc 448 207 1247 506 np rectpath
/eocl cland
np exec
722 253 m
921 253 l
921 593 l
722 593 l
cp
gs
1 0 0 rgb
eofi
gr
13 sw
0 0 0 rgb
st
971 253 m
1171 253 l
1171 594 l
971 594 l
cp
gs
1 0 0 rgb
eofi
gr
st
1221 253 m
1420 253 l
1420 594 l
1221 594 l
cp
gs
1 0 0 rgb
eofi
gr
st
1470 253 m
1669 253 l
1669 586 l
1470 586 l
cp
gs
1 0 0 rgb
eofi
gr
st
gr
448 712 m
1694 712 l
7 sw
0 0 0 rgb
st
448 712 m
448 729 l
st
697 712 m
697 729 l
st
946 712 m
946 729 l
st
1196 712 m
1196 729 l
st
1445 712 m
1445 729 l
st
1694 712 m
1694 729 l
st
573 712 m
573 746 l
st
822 712 m
822 746 l
st
1071 712 m
1071 746 l
st
1320 712 m
1320 746 l
st
1569 712 m
1569 746 l
st
448 712 m
448 207 l
st
448 597 m
431 597 l
st
448 368 m
431 368 l
st
448 712 m
414 712 l
st
448 482 m
414 482 l
st
448 253 m
414 253 l
st
gs
gr
gs
gr
gs
gs
1 -1 sc
447 -871 tr
20 ro
/MC1_Arial 100 self 0 0 m
(RAID)[72 67 28 72 ] xs
1 -1 sc
gr
gr
gs
gr
gs
gr
gs
gs
1 -1 sc
685 -875 tr
20 ro
/MC1_Arial 100 self 0 0 m
(SSD0)[67 67 72 56 ] xs
1 -1 sc
gr
gr
gs
gr
gs
gr
gs
gs
1 -1 sc
934 -875 tr
20 ro
/MC1_Arial 100 self 0 0 m
(SSD1)[67 67 72 56 ] xs
1 -1 sc
gr
gr
gs
gr
gs
gr
gs
gs
1 -1 sc
1183 -875 tr
20 ro
/MC1_Arial 100 self 0 0 m
(SSD2)[67 67 72 56 ] xs
1 -1 sc
gr
gr
gs
gr
gs
gr
gs
gs
1 -1 sc
1432 -875 tr
20 ro
/MC1_Arial 100 self 0 0 m
(SSD3)[67 67 72 56 ] xs
1 -1 sc
gr
gr
gs
gr
gs
gr
gs
1 -1 sc
/MC2_Arial 108 self 272 -744 m
(0.0)[60 30 60 ] xs
1 -1 sc
gr
gs
gr
gs
gr
gs
1 -1 sc
/MC2_Arial 108 self 272 -514 m
(0.5)[60 30 60 ] xs
1 -1 sc
gr
gs
gr
gs
gr
gs
1 -1 sc
/MC2_Arial 108 self 272 -285 m
(1.0)[60 30 60 ] xs
1 -1 sc
gr
gs
1 -1 sc
/MC2_Arial 117 self 764 -955 m
(MSNFS)[97 78 84 71 78 ] xs
1 -1 sc
gr
gs
gs
gs
453 14 m
635 14 l
635 102 l
453 102 l
cp
gs
1 0 0 rgb
eofi
gr
13 sw
st
gr
gr
1 -1 sc
/MC2_Arial 84 self 638 -86 m
( )[23 ] xs
1 -1 sc
1 -1 sc
661 -86 m
(DeviceIdle)[61 47 43 19 42 47 23 47 19 47 ] xs
1 -1 sc
1 -1 sc
1056 -86 m
( )[23 ] xs
1 -1 sc
gs
gs
1082 14 m
1264 14 l
1264 102 l
1082 102 l
cp
gs
1 1 1 rgb
eofi
gr
13 sw
st
gr
gr
1 -1 sc
1267 -86 m
( )[23 ] xs
1 -1 sc
1 -1 sc
1290 -86 m
(UserIdle)[61 42 47 28 23 47 19 47 ] xs
1 -1 sc
gs
gs
453 117 m
635 117 l
635 205 l
453 205 l
cp
gs
eofi
gr
13 sw
st
gr
gr
1 -1 sc
638 -189 m
( )[23 ] xs
1 -1 sc
1 -1 sc
661 -189 m
(DeviceBusy)[61 47 43 19 42 47 56 47 42 41 ] xs
1 -1 sc
gr
gs
gs
1 -1 sc
97 -960 tr
90 ro
/MC1_Arial 117 self 0 0 m
(Storage Execution)[78 33 65 39 65 65 65 33 78 59 65 59 65 33 26 65 65 ] xs
1 -1 sc
gr
gr
gs
gs
1 -1 sc
232 -914 tr
90 ro
/MC1_Arial 117 self 0 0 m
(Time Breakdown)[71 26 97 65 33 78 39 65 65 59 65 65 85 65 ] xs
1 -1 sc
gr
gr
448 207 m
1694 207 l
st
573 207 m
573 224 l
st
822 207 m
822 224 l
st
1071 207 m
1071 224 l
st
1320 207 m
1320 224 l
st
1569 207 m
1569 224 l
st
448 207 m
448 241 l
st
697 207 m
697 241 l
st
946 207 m
946 241 l
st
1196 207 m
1196 241 l
st
1445 207 m
1445 241 l
st
1694 207 m
1694 241 l
st
1694 712 m
1694 207 l
st
1694 662 m
1677 662 l
st
1694 561 m
1677 561 l
st
1694 460 m
1677 460 l
st
1694 359 m
1677 359 l
st
1694 258 m
1677 258 l
st
1694 712 m
1660 712 l
st
1694 611 m
1660 611 l
st
1694 510 m
1660 510 l
st
1694 409 m
1660 409 l
st
1694 308 m
1660 308 l
st
1694 207 m
1660 207 l
st
gs
gr
gs
gr
gs
gr
gs
gr
gr
Save0 restore end
showpage
%%EOF
