%!PS-Adobe-3.0 EPSF-3.0
%%BoundingBox: 0 0 772 303
%%LanguageLevel: 2
%%Creator: OriginLab Corporation
%%Title: (C:\Users\zhang_000\Documents\trace-asbd2016\figs\usr_idle.eps)
%%CreationDate: Sat May 07 18:06:49 2016
%%EndComments

/OriginLab::PSL1 128 dict dup begin def
/Save0 save def
%%BeginResource: procset OriginLab::PSL1
/wd{1 index where{pop pop pop}{bind def}ifelse}bind def
/setcmykcolor{1 sub 4 1 roll 3{3 index add neg dup 0 lt{pop 0}if 3 1 roll}repeat setrgbcolor pop}wd
/selectfont{dup type/arraytype eq{exch findfont exch makefont setfont}{exch findfont exch scalefont setfont}ifelse}wd
/xshow{1 index length 0 le{}{currentpoint exch 3 index length 1 sub 0 exch 1 exch{dup 5 index exch 1 getinterval show 3 index exch get add 2 copy exch moveto}for pop pop}ifelse pop pop}wd
/glyphshow{matrix currentmatrix exch currentfont dup/FontMatrix get concat currentpoint translate
 dup/Metrics get 2 index get 0 4 2 roll gsave/CharProcs get exch 2 copy known not{pop/.notdef}if
 get exec fill grestore moveto setmatrix}wd
/grayimage/image load def/rgbtogray{cvx exec dup length 3 idiv 1 sub 0 exch 1 exch{dup 3 mul dup 3 index exch get 255 div .3 mul exch
 1 add dup 4 index exch get 255 div .59 mul exch 1 add 4 index exch get 255 div .11 mul add add
 255 mul dup 255 gt{255}if round cvi 2 index 3 1 roll put}for dup length 3 idiv 0 exch getinterval}bind def
/colorimage{0 setgray pop pop cvlit/rgbtogray cvx 2 packedarray cvx grayimage}wd
/bd{bind def}bind def/ld{load def}bd/ed{exch def}bd/xd{cvx def}bd
/np/newpath ld/a/arc ld/m/moveto ld/l/lineto ld/c/curveto ld/rm/rmoveto ld/rl/rlineto ld/rc/rcurveto ld/cp/closepath ld/cpt/currentpoint ld
/tr/translate ld/sc/scale ld/ro/rotate ld/t/transform ld/it/itransform ld/dt/dtransform ld/idt/idtransform ld
/mtx/matrix ld/cmtx/currentmatrix ld/dmtx/defaultmatrix ld/smtx/setmatrix ld/catmtx/concatmatrix ld
/sw/setlinewidth ld/scap/setlinecap ld/sj/setlinejoin ld/sm/setmiterlimit ld/sd/setdash ld/rgb/setrgbcolor ld/crgb/currentrgbcolor ld/cmyk/setcmykcolor ld/gs/gsave ld/gr/grestore ld
/st/stroke ld/fi/fill ld/eofi/eofill ld/cl/clip ld/eocl/eoclip ld
/df/definefont ld/ff/findfont ld/sf/setfont ld/scf/scalefont ld/self/selectfont ld/cf/currentfont ld
/s/show ld/xs/xshow ld/gls/glyphshow ld/xgls{cpt 3 1 roll add exch 3 -1 roll gls m}bd
/cd/currentdict ld/i/index ld
/DrawBox{4 2 roll m 1 index 0 rl 0 exch rl neg 0 rl cp}bd
/plus.re { 6 { 3 index } repeat moveto 0 exch rlineto 0 rlineto pop pop neg 0 exch rlineto pop lineto closepath } def
/DrawBcc{4 2 roll m 2 copy 0 lt exch 0 lt xor{dup 0 exch rl exch 0 rl neg 0 exch rl}{exch dup 0 rl exch 0 exch rl neg 0 rl}ifelse cp}bd
/rectline{dup type/arraytype eq{dup length 0 exch 4 exch 4 sub{0 1 3{3 copy add get 4 1 roll pop}for pop 5 1 roll DrawBox}for pop}{DrawBox}ifelse}bd
/rectpath{dup type/arraytype eq{dup length 0 exch 4 exch 4 sub{0 1 3{3 copy add get 4 1 roll pop}for pop 5 1 roll DrawBcc}for pop}{DrawBcc}ifelse}bd
/pathproc{[{/m cvx}{/l cvx}{/c cvx}{/cp cvx}pathforall]cvx}bd
/L1img/image ld/L1idx[{0}
 {dup 7 and 3 1 roll -3 bitshift get exch 7 sub 1 mul bitshift  1 and}bind 1 index dup
 {dup 1 and 3 1 roll -1 bitshift get exch 1 sub 4 mul bitshift 15 and}bind 1 index dup dup
 {get}bind]def
/image{dup type/dicttype eq {dup/ImgCS get 0 get/Indexed eq}{false}ifelse
 {begin Width Height 8 ImageMatrix {rgb_string rgb_lookup
 cd/DataSource get dup type/filetype eq
 {mystring readstring pop}{exec}ifelse
 dup length 0 ne
 {L1idx BitsPerComponent get 0 1 Width 1 sub
 {3 copy exch exec exch 3 mul exch
 3 mul dup 5 index exch get exch 1 add dup 6 index exch get exch 1 add 6 index exch get
 7 index exch 4 index 2 add exch put 6 index exch 3 index 1 add exch put 5 index exch 2 index exch put pop
 }for pop pop pop }{pop pop pop ()}ifelse }false 3 colorimage end} {dup type/dicttype eq
 {{dup mark exch L1img pop pop}stopped{cleartomark begin Width Height BitsPerComponent ImageMatrix
 {cd/DataSource get dup type/filetype eq {mystring readstring pop}{exec}ifelse
 }false 3 colorimage end} if}{L1img}ifelse}ifelse
 }bd
/L1imgmask/imagemask ld/imagemask{dup type/dicttype eq
 {{dup mark exch L1imgmask pop pop}stopped {cleartomark begin Width Height polarityflag ImageMatrix
 {cd/DataSource get dup type/filetype eq {mystring readstring pop}{exec}ifelse
 }L1imgmask end}if}{L1imgmask}ifelse
 }bd
% Gradient function
/GradientStep 1 150 div def
/GradientStartRGB { /R1 exch def /G1 exch def /B1 exch def } def
/GradientEndRGB { /R2 exch def /G2 exch def /B2 exch def
/GradientSteps GradientLength GradientStep div def
/GradientRStep R2 R1 sub GradientSteps div def
/GradientGStep G2 G1 sub GradientSteps div def
/GradientBStep B2 B1 sub GradientSteps div def
} def
/GradientStepRGB { /R1 R1 GradientRStep add def
/G1 G1 GradientGStep add def
/B1 B1 GradientBStep add def
R1 G1 B1 setrgbcolor
} def
%%EndResource
/rectclip{np rectpath clip np}wd
/rectfill{gs np rectpath fi gr}wd
/rectstroke{gs np dup type/arraytype eq{dup length 6 eq}{false}ifelse{1 index type/arraytype eq{exch}{5 1 roll}ifelse rectline concat st}{rectline st}ifelse gr}wd
%%BeginResource: procset OriginLab::Image
/OriginLab::Image 32 dict dup begin
/BinProc{[currentfile mystring /readstring cvx /pop cvx] cvx bind}bd
/HexProc{[currentfile mystring /readhexstring cvx /pop cvx] cvx bind}bd
/Ascii85Proc{currentfile /ASCII85Decode filter}bd
/LZWA85{currentfile /ASCII85Decode filter /LZWDecode filter}bd
/ImgProcArray[/BinProc /HexProc /Ascii85Proc /LZWA85]def
/ImgDict{/ImgDict 16 dict def ImgDict dup begin /ImageType 1 def /MultipleDataSource false def end}bd
/L2Dec{{[1 0]}{[0 1]}ifelse}bd
/BegImg{ /Img_sv save def
 /ImgDir ed ImgProcArray exch get /ImgProc exch ld
 dup /polarityflag ed L2Dec /polarity ed /smoothflag ed
 tr /dx 2 index def /dy 1 index abs def sc
 string /mystring ed /bpc ed /ih ed /iw ed
 }bd
/EndImg {Img_sv restore}bd
/DoXImg{ /rgb_lookup ed /hival ed ImgDict dup begin
 [/Indexed /DeviceRGB hival rgb_lookup] /L1img where{pop/ImgCS ed}{setcolorspace}ifelse
 /rgb_string iw 3 mul string def
 /Width iw def
 /Height ih def
 /Decode [0 1 bpc{2 mul}repeat 1 sub] def
 /ImageMatrix
  ImgDir 0 eq{[iw 0 0 ih 0 0]}if
  ImgDir 1 eq{[iw neg 0 0 ih iw 0]}if
  ImgDir 2 eq{[iw 0 0 ih neg 0 ih]}if
  ImgDir 3 eq{[iw neg 0 0 ih neg iw ih]}if
  def
 /DataSource ImgProc def
 /BitsPerComponent bpc def
 /Interpolate smoothflag def
 end image}bd
/DoImg{ ImgDict dup begin
 [/DeviceRGB] /L1img where{pop/ImgCS ed}{setcolorspace}ifelse
 /rgb_string iw 3 mul string def
 /Width iw def
 /Height ih def
 /Decode [0 1 0 1 0 1] def
 /ImageMatrix
  ImgDir 0 eq{[iw 0 0 ih 0 0]}if
  ImgDir 1 eq{[iw neg 0 0 ih iw 0]}if
  ImgDir 2 eq{[iw 0 0 ih neg 0 ih]}if
  ImgDir 3 eq{[iw neg 0 0 ih neg iw ih]}if
  def
 /DataSource ImgProc def
 /BitsPerComponent 8 def
 /Interpolate smoothflag def
 end image}bd
end def
%%EndResource
/initmtx mtx cmtx def
%%BeginFont: /MC1_Arial
12 dict begin
/FontInfo 8 dict dup begin
/ItalicAngle 0 def
/UnderlinePosition -217.00 def
/UnderlineThickness 150.00 def
/StrikeoutPosition 530.00 def
/StrikeoutThickness 102.00 def
/isFixedPitch false def
end readonly def
/FontName /MC1_Arial def
/FontType 3 def
/FontMatrix [1 2048 div 0 0 1 2048 div 0 0] def
/FontBBox [-1361 -665 4096 2129] def
/Encoding 256 array def 0 1 255{Encoding exch/.notdef put}for
Encoding 32/s32 put
Encoding 43/s43 put
Encoding 49/s49 put
Encoding 50/s50 put
Encoding 52/s52 put
Encoding 65/s65 put
Encoding 66/s66 put
Encoding 67/s67 put
Encoding 68/s68 put
Encoding 69/s69 put
Encoding 70/s70 put
Encoding 72/s72 put
Encoding 76/s76 put
Encoding 77/s77 put
Encoding 78/s78 put
Encoding 80/s80 put
Encoding 82/s82 put
Encoding 83/s83 put
Encoding 95/s95 put
Encoding 97/s97 put
Encoding 98/s98 put
Encoding 99/s99 put
Encoding 100/s100 put
Encoding 101/s101 put
Encoding 103/s103 put
Encoding 104/s104 put
Encoding 105/s105 put
Encoding 106/s106 put
Encoding 107/s107 put
Encoding 108/s108 put
Encoding 109/s109 put
Encoding 110/s110 put
Encoding 111/s111 put
Encoding 112/s112 put
Encoding 114/s114 put
Encoding 115/s115 put
Encoding 116/s116 put
Encoding 117/s117 put
Encoding 118/s118 put
Encoding 119/s119 put
Encoding 120/s120 put
Encoding 121/s121 put
/BoundingBoxes 43 dict def
BoundingBoxes begin
/s32 [0 -434 569 1854] def
/s43 [0 -434 1196 1854] def
/s49 [0 -434 1139 1854] def
/s50 [0 -434 1139 1854] def
/s52 [0 -434 1139 1854] def
/s65 [-3 -434 1366 1854] def
/s66 [0 -434 1366 1854] def
/s67 [0 -434 1479 1854] def
/s68 [0 -434 1479 1854] def
/s69 [0 -434 1366 1854] def
/s70 [0 -434 1251 1854] def
/s72 [0 -434 1479 1854] def
/s76 [0 -434 1139 1854] def
/s77 [0 -434 1706 1854] def
/s78 [0 -434 1479 1854] def
/s80 [0 -434 1366 1854] def
/s82 [0 -434 1479 1854] def
/s83 [0 -434 1366 1854] def
/s95 [-31 -434 1139 1854] def
/s97 [0 -434 1139 1854] def
/s98 [0 -434 1139 1854] def
/s99 [0 -434 1024 1854] def
/s100 [0 -434 1139 1854] def
/s101 [0 -434 1139 1854] def
/s103 [0 -434 1139 1854] def
/s104 [0 -434 1139 1854] def
/s105 [0 -434 455 1854] def
/s106 [-94 -434 455 1854] def
/s107 [0 -434 1024 1854] def
/s108 [0 -434 455 1854] def
/s109 [0 -434 1706 1854] def
/s110 [0 -434 1139 1854] def
/s111 [0 -434 1139 1854] def
/s112 [0 -434 1139 1854] def
/s114 [0 -434 682 1854] def
/s115 [0 -434 1024 1854] def
/s116 [0 -434 569 1854] def
/s117 [0 -434 1139 1854] def
/s118 [0 -434 1024 1854] def
/s119 [0 -434 1479 1854] def
/s120 [0 -434 1024 1854] def
/s121 [0 -434 1024 1854] def
end
/Metrics 43 dict def
 Metrics begin
/s32 569 def
/s43 1196 def
/s49 1139 def
/s50 1139 def
/s52 1139 def
/s65 1366 def
/s66 1366 def
/s67 1479 def
/s68 1479 def
/s69 1366 def
/s70 1251 def
/s72 1479 def
/s76 1139 def
/s77 1706 def
/s78 1479 def
/s80 1366 def
/s82 1479 def
/s83 1366 def
/s95 1139 def
/s97 1139 def
/s98 1139 def
/s99 1024 def
/s100 1139 def
/s101 1139 def
/s103 1139 def
/s104 1139 def
/s105 455 def
/s106 455 def
/s107 1024 def
/s108 455 def
/s109 1706 def
/s110 1139 def
/s111 1139 def
/s112 1139 def
/s114 682 def
/s115 1024 def
/s116 569 def
/s117 1139 def
/s118 1024 def
/s119 1479 def
/s120 1024 def
/s121 1024 def
end
/CharProcs 43 dict def
CharProcs begin
/.notdef {} def
/s43 {
513 237 m
513 639 513 237 513 639 c
114 639 513 639 114 639 c
114 807 114 639 114 807 c
513 807 114 807 513 807 c
513 1206 513 807 513 1206 c
683 1206 513 1206 683 1206 c
683 807 683 1206 683 807 c
1082 807 683 807 1082 807 c
1082 639 1082 807 1082 639 c
683 639 1082 639 683 639 c
683 237 683 639 683 237 c
513 237 683 237 513 237 c
closepath } bind def
/s49 {
763 0 m
583 0 763 0 583 0 c
583 1147 583 0 583 1147 c
539.67 1105.67 482.83 1064.33 412.5 1023 c
342.17 981.67 279 950.67 223 930 c
223 1104 223 930 223 1104 c
323.67 1151.33 411.67 1208.67 487 1276 c
562.33 1343.33 615.67 1408.67 647 1472 c
763 1472 647 1472 763 1472 c
763 0 763 1472 763 0 c
closepath } bind def
/s50 {
1031 173 m
1031 0 1031 173 1031 0 c
62 0 1031 0 62 0 c
60.67 43.33 67.67 85 83 125 c
107.67 191 147.17 256 201.5 320 c
255.83 384 334.33 458 437 542 c
596.33 672.67 704 776.17 760 852.5 c
816 928.83 844 1001 844 1069 c
844 1140.33 818.5 1200.5 767.5 1249.5 c
716.5 1298.5 650 1323 568 1323 c
481.33 1323 412 1297 360 1245 c
308 1193 281.67 1121 281 1029 c
96 1048 281 1029 96 1048 c
108.67 1186 156.33 1291.17 239 1363.5 c
321.67 1435.83 432.67 1472 572 1472 c
712.67 1472 824 1433 906 1355 c
988 1277 1029 1180.33 1029 1065 c
1029 1006.33 1017 948.67 993 892 c
969 835.33 929.17 775.67 873.5 713 c
817.83 650.33 725.33 564.33 596 455 c
488 364.33 418.67 302.83 388 270.5 c
357.33 238.17 332 205.67 312 173 c
1031 173 312 173 1031 173 c
closepath } bind def
/s52 {
662 0 m
662 351 662 0 662 351 c
26 351 662 351 26 351 c
26 516 26 351 26 516 c
695 1466 26 516 695 1466 c
842 1466 695 1466 842 1466 c
842 516 842 1466 842 516 c
1040 516 842 516 1040 516 c
1040 351 1040 516 1040 351 c
842 351 1040 351 842 351 c
842 0 842 351 842 0 c
662 0 842 0 662 0 c
closepath 662 516 m
662 1177 662 516 662 1177 c
203 516 662 1177 203 516 c
662 516 203 516 662 516 c
closepath } bind def
/s65 {
-3 0 m
560 1466 -3 0 560 1466 c
769 1466 560 1466 769 1466 c
1369 0 769 1466 1369 0 c
1148 0 1369 0 1148 0 c
977 444 1148 0 977 444 c
364 444 977 444 364 444 c
203 0 364 444 203 0 c
-3 0 203 0 -3 0 c
closepath 420 602 m
917 602 420 602 917 602 c
764 1008 917 602 764 1008 c
717.33 1131.33 682.67 1232.67 660 1312 c
641.33 1218 615 1124.67 581 1032 c
420 602 581 1032 420 602 c
closepath } bind def
/s66 {
150 0 m
150 1466 150 0 150 1466 c
700 1466 150 1466 700 1466 c
812 1466 901.83 1451.17 969.5 1421.5 c
1037.17 1391.83 1090.17 1346.17 1128.5 1284.5 c
1166.83 1222.83 1186 1158.33 1186 1091 c
1186 1028.33 1169 969.33 1135 914 c
1101 858.67 1049.67 814 981 780 c
1069.67 754 1137.83 709.67 1185.5 647 c
1233.17 584.33 1257 510.33 1257 425 c
1257 356.33 1242.5 292.5 1213.5 233.5 c
1184.5 174.5 1148.67 129 1106 97 c
1063.33 65 1009.83 40.83 945.5 24.5 c
881.17 8.17 802.33 0 709 0 c
150 0 709 0 150 0 c
closepath 344 850 m
661 850 344 850 661 850 c
747 850 808.67 855.67 846 867 c
895.33 881.67 932.5 906 957.5 940 c
982.5 974 995 1016.67 995 1068 c
995 1116.67 983.33 1159.5 960 1196.5 c
936.67 1233.5 903.33 1258.83 860 1272.5 c
816.67 1286.17 742.33 1293 637 1293 c
344 1293 637 1293 344 1293 c
344 850 344 1293 344 850 c
closepath 344 173 m
709 173 344 173 709 173 c
771.67 173 815.67 175.33 841 180 c
885.67 188 923 201.33 953 220 c
983 238.67 1007.67 265.83 1027 301.5 c
1046.33 337.17 1056 378.33 1056 425 c
1056 479.67 1042 527.17 1014 567.5 c
986 607.83 947.17 636.17 897.5 652.5 c
847.83 668.83 776.33 677 683 677 c
344 677 683 677 344 677 c
344 173 344 677 344 173 c
closepath } bind def
/s67 {
1204 514 m
1398 465 1204 514 1398 465 c
1357.33 305.67 1284.17 184.17 1178.5 100.5 c
1072.83 16.83 943.67 -25 791 -25 c
633 -25 504.5 7.17 405.5 71.5 c
306.5 135.83 231.17 229 179.5 351 c
127.83 473 102 604 102 744 c
102 896.67 131.17 1029.83 189.5 1143.5 c
247.83 1257.17 330.83 1343.5 438.5 1402.5 c
546.17 1461.5 664.67 1491 794 1491 c
940.67 1491 1064 1453.67 1164 1379 c
1264 1304.33 1333.67 1199.33 1373 1064 c
1182 1019 1373 1064 1182 1019 c
1148 1125.67 1098.67 1203.33 1034 1252 c
969.33 1300.67 888 1325 790 1325 c
677.33 1325 583.17 1298 507.5 1244 c
431.83 1190 378.67 1117.5 348 1026.5 c
317.33 935.5 302 841.67 302 745 c
302 620.33 320.17 511.5 356.5 418.5 c
392.83 325.5 449.33 256 526 210 c
602.67 164 685.67 141 775 141 c
883.67 141 975.67 172.33 1051 235 c
1126.33 297.67 1177.33 390.67 1204 514 c
closepath } bind def
/s68 {
158 0 m
158 1466 158 0 158 1466 c
663 1466 158 1466 663 1466 c
777 1466 864 1459 924 1445 c
1008 1425.67 1079.67 1390.67 1139 1340 c
1216.33 1274.67 1274.17 1191.17 1312.5 1089.5 c
1350.83 987.83 1370 871.67 1370 741 c
1370 629.67 1357 531 1331 445 c
1305 359 1271.67 287.83 1231 231.5 c
1190.33 175.17 1145.83 130.83 1097.5 98.5 c
1049.17 66.17 990.83 41.67 922.5 25 c
854.17 8.33 775.67 0 687 0 c
158 0 687 0 158 0 c
closepath 352 173 m
665 173 352 173 665 173 c
761.67 173 837.5 182 892.5 200 c
947.5 218 991.33 243.33 1024 276 c
1070 322 1105.83 383.83 1131.5 461.5 c
1157.17 539.17 1170 633.33 1170 744 c
1170 897.33 1144.83 1015.17 1094.5 1097.5 c
1044.17 1179.83 983 1235 911 1263 c
859 1283 775.33 1293 660 1293 c
352 1293 660 1293 352 1293 c
352 173 352 1293 352 173 c
closepath } bind def
/s69 {
162 0 m
162 1466 162 0 162 1466 c
1222 1466 162 1466 1222 1466 c
1222 1293 1222 1466 1222 1293 c
356 1293 1222 1293 356 1293 c
356 844 356 1293 356 844 c
1167 844 356 844 1167 844 c
1167 672 1167 844 1167 672 c
356 672 1167 672 356 672 c
356 173 356 672 356 173 c
1256 173 356 173 1256 173 c
1256 0 1256 173 1256 0 c
162 0 1256 0 162 0 c
closepath } bind def
/s70 {
168 0 m
168 1466 168 0 168 1466 c
1157 1466 168 1466 1157 1466 c
1157 1293 1157 1466 1157 1293 c
362 1293 1157 1293 362 1293 c
362 839 362 1293 362 839 c
1050 839 362 839 1050 839 c
1050 666 1050 839 1050 666 c
362 666 1050 666 362 666 c
362 0 362 666 362 0 c
168 0 362 0 168 0 c
closepath } bind def
/s72 {
164 0 m
164 1466 164 0 164 1466 c
358 1466 164 1466 358 1466 c
358 864 358 1466 358 864 c
1120 864 358 864 1120 864 c
1120 1466 1120 864 1120 1466 c
1314 1466 1120 1466 1314 1466 c
1314 0 1314 1466 1314 0 c
1120 0 1314 0 1120 0 c
1120 691 1120 0 1120 691 c
358 691 1120 691 358 691 c
358 0 358 691 358 0 c
164 0 358 0 164 0 c
closepath } bind def
/s76 {
150 0 m
150 1466 150 0 150 1466 c
344 1466 150 1466 344 1466 c
344 173 344 1466 344 173 c
1066 173 344 173 1066 173 c
1066 0 1066 173 1066 0 c
150 0 1066 0 150 0 c
closepath } bind def
/s77 {
152 0 m
152 1466 152 0 152 1466 c
444 1466 152 1466 444 1466 c
791 428 444 1466 791 428 c
823 331.33 846.33 259 861 211 c
877.67 264.33 903.67 342.67 939 446 c
1290 1466 939 446 1290 1466 c
1551 1466 1290 1466 1551 1466 c
1551 0 1551 1466 1551 0 c
1364 0 1551 0 1364 0 c
1364 1227 1364 0 1364 1227 c
938 0 1364 1227 938 0 c
763 0 938 0 763 0 c
339 1248 763 0 339 1248 c
339 0 339 1248 339 0 c
152 0 339 0 152 0 c
closepath } bind def
/s78 {
156 0 m
156 1466 156 0 156 1466 c
355 1466 156 1466 355 1466 c
1125 315 355 1466 1125 315 c
1125 1466 1125 315 1125 1466 c
1311 1466 1125 1466 1311 1466 c
1311 0 1311 1466 1311 0 c
1112 0 1311 0 1112 0 c
342 1152 1112 0 342 1152 c
342 0 342 1152 342 0 c
156 0 342 0 156 0 c
closepath } bind def
/s80 {
158 0 m
158 1466 158 0 158 1466 c
711 1466 158 1466 711 1466 c
808.33 1466 882.67 1461.33 934 1452 c
1006 1440 1066.33 1417.17 1115 1383.5 c
1163.67 1349.83 1202.83 1302.67 1232.5 1242 c
1262.17 1181.33 1277 1114.67 1277 1042 c
1277 917.33 1237.33 811.83 1158 725.5 c
1078.67 639.17 935.33 596 728 596 c
352 596 728 596 352 596 c
352 0 352 596 352 0 c
158 0 352 0 158 0 c
closepath 352 769 m
731 769 352 769 731 769 c
856.33 769 945.33 792.33 998 839 c
1050.67 885.67 1077 951.33 1077 1036 c
1077 1097.33 1061.5 1149.83 1030.5 1193.5 c
999.5 1237.17 958.67 1266 908 1280 c
875.33 1288.67 815 1293 727 1293 c
352 1293 727 1293 352 1293 c
352 769 352 1293 352 769 c
closepath } bind def
/s82 {
161 0 m
161 1466 161 0 161 1466 c
811 1466 161 1466 811 1466 c
941.67 1466 1041 1452.83 1109 1426.5 c
1177 1400.17 1231.33 1353.67 1272 1287 c
1312.67 1220.33 1333 1146.67 1333 1066 c
1333 962 1299.33 874.33 1232 803 c
1164.67 731.67 1060.67 686.33 920 667 c
971.33 642.33 1010.33 618 1037 594 c
1093.67 542 1147.33 477 1198 399 c
1453 0 1198 399 1453 0 c
1209 0 1453 0 1209 0 c
1015 305 1209 0 1015 305 c
958.33 393 911.67 460.33 875 507 c
838.33 553.67 805.5 586.33 776.5 605 c
747.5 623.67 718 636.67 688 644 c
666 648.67 630 651 580 651 c
355 651 580 651 355 651 c
355 0 355 651 355 0 c
161 0 355 0 161 0 c
closepath 355 819 m
772 819 355 819 772 819 c
860.67 819 930 828.17 980 846.5 c
1030 864.83 1068 894.17 1094 934.5 c
1120 974.83 1133 1018.67 1133 1066 c
1133 1135.33 1107.83 1192.33 1057.5 1237 c
1007.17 1281.67 927.67 1304 819 1304 c
355 1304 819 1304 355 1304 c
355 819 355 1304 355 819 c
closepath } bind def
/s83 {
92 471 m
275 487 92 471 275 487 c
283.67 413.67 303.83 353.5 335.5 306.5 c
367.17 259.5 416.33 221.5 483 192.5 c
549.67 163.5 624.67 149 708 149 c
782 149 847.33 160 904 182 c
960.67 204 1002.83 234.17 1030.5 272.5 c
1058.17 310.83 1072 352.67 1072 398 c
1072 444 1058.67 484.17 1032 518.5 c
1005.33 552.83 961.33 581.67 900 605 c
860.67 620.33 773.67 644.17 639 676.5 c
504.33 708.83 410 739.33 356 768 c
286 804.67 233.83 850.17 199.5 904.5 c
165.17 958.83 148 1019.67 148 1087 c
148 1161 169 1230.17 211 1294.5 c
253 1358.83 314.33 1407.67 395 1441 c
475.67 1474.33 565.33 1491 664 1491 c
772.67 1491 868.5 1473.5 951.5 1438.5 c
1034.5 1403.5 1098.33 1352 1143 1284 c
1187.67 1216 1211.67 1139 1215 1053 c
1029 1039 1215 1053 1029 1039 c
1019 1131.67 985.17 1201.67 927.5 1249 c
869.83 1296.33 784.67 1320 672 1320 c
554.67 1320 469.17 1298.5 415.5 1255.5 c
361.83 1212.5 335 1160.67 335 1100 c
335 1047.33 354 1004 392 970 c
429.33 936 526.83 901.17 684.5 865.5 c
842.17 829.83 950.33 798.67 1009 772 c
1094.33 732.67 1157.33 682.83 1198 622.5 c
1238.67 562.17 1259 492.67 1259 414 c
1259 336 1236.67 262.5 1192 193.5 c
1147.33 124.5 1083.17 70.83 999.5 32.5 c
915.83 -5.83 821.67 -25 717 -25 c
584.33 -25 473.17 -5.67 383.5 33 c
293.83 71.67 223.5 129.83 172.5 207.5 c
121.5 285.17 94.67 373 92 471 c
closepath } bind def
/s95 {
-31 -407 m
-31 -277 -31 -407 -31 -277 c
1162 -277 -31 -277 1162 -277 c
1162 -407 1162 -277 1162 -407 c
-31 -407 1162 -407 -31 -407 c
closepath } bind def
/s97 {
828 131 m
761.33 74.33 697.17 34.33 635.5 11 c
573.83 -12.33 507.67 -24 437 -24 c
320.33 -24 230.67 4.5 168 61.5 c
105.33 118.5 74 191.33 74 280 c
74 332 85.83 379.5 109.5 422.5 c
133.17 465.5 164.17 500 202.5 526 c
240.83 552 284 571.67 332 585 c
367.33 594.33 420.67 603.33 492 612 c
637.33 629.33 744.33 650 813 674 c
813.67 698.67 814 714.33 814 721 c
814 794.33 797 846 763 876 c
717 916.67 648.67 937 558 937 c
473.33 937 410.83 922.17 370.5 892.5 c
330.17 862.83 300.33 810.33 281 735 c
105 759 281 735 105 759 c
121 834.33 147.33 895.17 184 941.5 c
220.67 987.83 273.67 1023.5 343 1048.5 c
412.33 1073.5 492.67 1086 584 1086 c
674.67 1086 748.33 1075.33 805 1054 c
861.67 1032.67 903.33 1005.83 930 973.5 c
956.67 941.17 975.33 900.33 986 851 c
992 820.33 995 765 995 685 c
995 445 995 685 995 445 c
995 277.67 998.83 171.83 1006.5 127.5 c
1014.17 83.17 1029.33 40.67 1052 0 c
864 0 1052 0 864 0 c
845.33 37.33 833.33 81 828 131 c
closepath 813 533 m
747.67 506.33 649.67 483.67 519 465 c
445 454.33 392.67 442.33 362 429 c
331.33 415.67 307.67 396.17 291 370.5 c
274.33 344.83 266 316.33 266 285 c
266 237 284.17 197 320.5 165 c
356.83 133 410 117 480 117 c
549.33 117 611 132.17 665 162.5 c
719 192.83 758.67 234.33 784 287 c
803.33 327.67 813 387.67 813 467 c
813 533 813 467 813 533 c
closepath } bind def
/s98 {
301 0 m
134 0 301 0 134 0 c
134 1466 134 0 134 1466 c
314 1466 134 1466 314 1466 c
314 943 314 1466 314 943 c
390 1038.33 487 1086 605 1086 c
670.33 1086 732.17 1072.83 790.5 1046.5 c
848.83 1020.17 896.83 983.17 934.5 935.5 c
972.17 887.83 1001.67 830.33 1023 763 c
1044.33 695.67 1055 623.67 1055 547 c
1055 365 1010 224.33 920 125 c
830 25.67 722 -24 596 -24 c
470.67 -24 372.33 28.33 301 133 c
301 0 301 133 301 0 c
closepath 299 539 m
299 411.67 316.33 319.67 351 263 c
407.67 170.33 484.33 124 581 124 c
659.67 124 727.67 158.17 785 226.5 c
842.33 294.83 871 396.67 871 532 c
871 670.67 843.5 773 788.5 839 c
733.5 905 667 938 589 938 c
510.33 938 442.33 903.83 385 835.5 c
327.67 767.17 299 668.33 299 539 c
closepath } bind def
/s99 {
828 389 m
1005 366 828 389 1005 366 c
985.67 244 936.17 148.5 856.5 79.5 c
776.83 10.5 679 -24 563 -24 c
417.67 -24 300.83 23.5 212.5 118.5 c
124.17 213.5 80 349.67 80 527 c
80 641.67 99 742 137 828 c
175 914 232.83 978.5 310.5 1021.5 c
388.17 1064.5 472.67 1086 564 1086 c
679.33 1086 773.67 1056.83 847 998.5 c
920.33 940.17 967.33 857.33 988 750 c
813 723 988 750 813 723 c
796.33 794.33 766.83 848 724.5 884 c
682.17 920 631 938 571 938 c
480.33 938 406.67 905.5 350 840.5 c
293.33 775.5 265 672.67 265 532 c
265 389.33 292.33 285.67 347 221 c
401.67 156.33 473 124 561 124 c
631.67 124 690.67 145.67 738 189 c
785.33 232.33 815.33 299 828 389 c
closepath } bind def
/s100 {
824 0 m
824 134 824 0 824 134 c
756.67 28.67 657.67 -24 527 -24 c
442.33 -24 364.5 -0.67 293.5 46 c
222.5 92.67 167.5 157.83 128.5 241.5 c
89.5 325.17 70 421.33 70 530 c
70 636 87.67 732.17 123 818.5 c
158.33 904.83 211.33 971 282 1017 c
352.67 1063 431.67 1086 519 1086 c
583 1086 640 1072.5 690 1045.5 c
740 1018.5 780.67 983.33 812 940 c
812 1466 812 940 812 1466 c
991 1466 812 1466 991 1466 c
991 0 991 1466 991 0 c
824 0 991 0 824 0 c
closepath 255 530 m
255 394 283.67 292.33 341 225 c
398.33 157.67 466 124 544 124 c
622.67 124 689.5 156.17 744.5 220.5 c
799.5 284.83 827 383 827 515 c
827 660.33 799 767 743 835 c
687 903 618 937 536 937 c
456 937 389.17 904.33 335.5 839 c
281.83 773.67 255 670.67 255 530 c
closepath } bind def
/s101 {
862 342 m
1048 319 862 342 1048 319 c
1018.67 210.33 964.33 126 885 66 c
805.67 6 704.33 -24 581 -24 c
425.67 -24 302.5 23.83 211.5 119.5 c
120.5 215.17 75 349.33 75 522 c
75 700.67 121 839.33 213 938 c
305 1036.67 424.33 1086 571 1086 c
713 1086 829 1037.67 919 941 c
1009 844.33 1054 708.33 1054 533 c
1054 522.33 1053.67 506.33 1053 485 c
261 485 1053 485 261 485 c
267.67 368.33 300.67 279 360 217 c
419.33 155 493.33 124 582 124 c
648 124 704.33 141.33 751 176 c
797.67 210.67 834.67 266 862 342 c
closepath 271 633 m
864 633 271 633 864 633 c
856 722.33 833.33 789.33 796 834 c
738.67 903.33 664.33 938 573 938 c
490.33 938 420.83 910.33 364.5 855 c
308.17 799.67 277 725.67 271 633 c
closepath } bind def
/s103 {
102 -88 m
277 -114 102 -88 277 -114 c
284.33 -168 304.67 -207.33 338 -232 c
382.67 -265.33 443.67 -282 521 -282 c
604.33 -282 668.67 -265.33 714 -232 c
759.33 -198.67 790 -152 806 -92 c
815.33 -55.33 819.67 21.67 819 139 c
740.33 46.33 642.33 0 525 0 c
379 0 266 52.67 186 158 c
106 263.33 66 389.67 66 537 c
66 638.33 84.33 731.83 121 817.5 c
157.67 903.17 210.83 969.33 280.5 1016 c
350.17 1062.67 432 1086 526 1086 c
651.33 1086 754.67 1035.33 836 934 c
836 1062 836 934 836 1062 c
1002 1062 836 1062 1002 1062 c
1002 144 1002 1062 1002 144 c
1002 -21.33 985.17 -138.5 951.5 -207.5 c
917.83 -276.5 864.5 -331 791.5 -371 c
718.5 -411 628.67 -431 522 -431 c
395.33 -431 293 -402.5 215 -345.5 c
137 -288.5 99.33 -202.67 102 -88 c
closepath 251 550 m
251 410.67 278.67 309 334 245 c
389.33 181 458.67 149 542 149 c
624.67 149 694 180.83 750 244.5 c
806 308.17 834 408 834 544 c
834 674 805.17 772 747.5 838 c
689.83 904 620.33 937 539 937 c
459 937 391 904.5 335 839.5 c
279 774.5 251 678 251 550 c
closepath } bind def
/s104 {
135 0 m
135 1466 135 0 135 1466 c
315 1466 135 1466 315 1466 c
315 940 315 1466 315 940 c
399 1037.33 505 1086 633 1086 c
711.67 1086 780 1070.5 838 1039.5 c
896 1008.5 937.5 965.67 962.5 911 c
987.5 856.33 1000 777 1000 673 c
1000 0 1000 673 1000 0 c
820 0 1000 0 820 0 c
820 673 820 0 820 673 c
820 763 800.5 828.5 761.5 869.5 c
722.5 910.5 667.33 931 596 931 c
542.67 931 492.5 917.17 445.5 889.5 c
398.5 861.83 365 824.33 345 777 c
325 729.67 315 664.33 315 581 c
315 0 315 581 315 0 c
135 0 315 0 135 0 c
closepath } bind def
/s105 {
136 1259 m
136 1466 136 1259 136 1466 c
316 1466 136 1466 316 1466 c
316 1259 316 1466 316 1259 c
136 1259 316 1259 136 1259 c
closepath 136 0 m
136 1062 136 0 136 1062 c
316 1062 136 1062 316 1062 c
316 0 316 1062 316 0 c
136 0 316 0 136 0 c
closepath } bind def
/s106 {
134 1257 m
134 1466 134 1257 134 1466 c
314 1466 134 1466 314 1466 c
314 1257 314 1466 314 1257 c
134 1257 314 1257 134 1257 c
closepath -94 -412 m
-60 -259 -94 -412 -60 -259 c
-24 -268.33 4.33 -273 25 -273 c
61.67 -273 89 -260.83 107 -236.5 c
125 -212.17 134 -151.33 134 -54 c
134 1062 134 -54 134 1062 c
314 1062 134 1062 314 1062 c
314 -58 314 1062 314 -58 c
314 -188.67 297 -279.67 263 -331 c
219.67 -397.67 147.67 -431 47 -431 c
-1.67 -431 -48.67 -424.67 -94 -412 c
closepath } bind def
/s107 {
136 0 m
136 1466 136 0 136 1466 c
316 1466 136 1466 316 1466 c
316 630 316 1466 316 630 c
742 1062 316 630 742 1062 c
975 1062 742 1062 975 1062 c
569 668 975 1062 569 668 c
1016 0 569 668 1016 0 c
794 0 1016 0 794 0 c
443 543 794 0 443 543 c
316 421 443 543 316 421 c
316 0 316 421 316 0 c
136 0 316 0 136 0 c
closepath } bind def
/s108 {
131 0 m
131 1466 131 0 131 1466 c
311 1466 131 1466 311 1466 c
311 0 311 1466 311 0 c
131 0 311 0 131 0 c
closepath } bind def
/s109 {
135 0 m
135 1062 135 0 135 1062 c
296 1062 135 1062 296 1062 c
296 913 296 1062 296 913 c
329.33 965 373.67 1006.83 429 1038.5 c
484.33 1070.17 547.33 1086 618 1086 c
696.67 1086 761.17 1069.67 811.5 1037 c
861.83 1004.33 897.33 958.67 918 900 c
1002 1024 1111.33 1086 1246 1086 c
1351.33 1086 1432.33 1056.83 1489 998.5 c
1545.67 940.17 1574 850.33 1574 729 c
1574 0 1574 729 1574 0 c
1395 0 1574 0 1395 0 c
1395 669 1395 0 1395 669 c
1395 741 1389.17 792.83 1377.5 824.5 c
1365.83 856.17 1344.67 881.67 1314 901 c
1283.33 920.33 1247.33 930 1206 930 c
1131.33 930 1069.33 905.17 1020 855.5 c
970.67 805.83 946 726.33 946 617 c
946 0 946 617 946 0 c
766 0 946 0 766 0 c
766 690 766 0 766 690 c
766 770 751.33 830 722 870 c
692.67 910 644.67 930 578 930 c
527.33 930 480.5 916.67 437.5 890 c
394.5 863.33 363.33 824.33 344 773 c
324.67 721.67 315 647.67 315 551 c
315 0 315 551 315 0 c
135 0 315 0 135 0 c
closepath } bind def
/s110 {
135 0 m
135 1062 135 0 135 1062 c
297 1062 135 1062 297 1062 c
297 911 297 1062 297 911 c
375 1027.67 487.67 1086 635 1086 c
699 1086 757.83 1074.5 811.5 1051.5 c
865.17 1028.5 905.33 998.33 932 961 c
958.67 923.67 977.33 879.33 988 828 c
994.67 794.67 998 736.33 998 653 c
998 0 998 653 998 0 c
818 0 998 0 818 0 c
818 646 818 0 818 646 c
818 719.33 811 774.17 797 810.5 c
783 846.83 758.17 875.83 722.5 897.5 c
686.83 919.17 645 930 597 930 c
520.33 930 454.17 905.67 398.5 857 c
342.83 808.33 315 716 315 580 c
315 0 315 580 315 0 c
135 0 315 0 135 0 c
closepath } bind def
/s111 {
68 531 m
68 727.67 122.67 873.33 232 968 c
323.33 1046.67 434.67 1086 566 1086 c
712 1086 831.33 1038.17 924 942.5 c
1016.67 846.83 1063 714.67 1063 546 c
1063 409.33 1042.5 301.83 1001.5 223.5 c
960.5 145.17 900.83 84.33 822.5 41 c
744.17 -2.33 658.67 -24 566 -24 c
417.33 -24 297.17 23.67 205.5 119 c
113.83 214.33 68 351.67 68 531 c
closepath 253 531 m
253 395 282.67 293.17 342 225.5 c
401.33 157.83 476 124 566 124 c
655.33 124 729.67 158 789 226 c
848.33 294 878 397.67 878 537 c
878 668.33 848.17 767.83 788.5 835.5 c
728.83 903.17 654.67 937 566 937 c
476 937 401.33 903.33 342 836 c
282.67 768.67 253 667 253 531 c
closepath } bind def
/s112 {
135 -407 m
135 1062 135 -407 135 1062 c
299 1062 135 1062 299 1062 c
299 924 299 1062 299 924 c
337.67 978 381.33 1018.5 430 1045.5 c
478.67 1072.5 537.67 1086 607 1086 c
697.67 1086 777.67 1062.67 847 1016 c
916.33 969.33 968.67 903.5 1004 818.5 c
1039.33 733.5 1057 640.33 1057 539 c
1057 430.33 1037.5 332.5 998.5 245.5 c
959.5 158.5 902.83 91.83 828.5 45.5 c
754.17 -0.83 676 -24 594 -24 c
534 -24 480.17 -11.33 432.5 14 c
384.83 39.33 345.67 71.33 315 110 c
315 -407 315 110 315 -407 c
135 -407 315 -407 135 -407 c
closepath 298 525 m
298 388.33 325.67 287.33 381 222 c
436.33 156.67 503.33 124 582 124 c
662 124 730.5 157.83 787.5 225.5 c
844.5 293.17 873 398 873 540 c
873 675.33 845.17 776.67 789.5 844 c
733.83 911.33 667.33 945 590 945 c
513.33 945 445.5 909.17 386.5 837.5 c
327.5 765.83 298 661.67 298 525 c
closepath } bind def
/s114 {
133 0 m
133 1062 133 0 133 1062 c
295 1062 133 1062 295 1062 c
295 901 295 1062 295 901 c
336.33 976.33 374.5 1026 409.5 1050 c
444.5 1074 483 1086 525 1086 c
585.67 1086 647.33 1066.67 710 1028 c
648 861 710 1028 648 861 c
604 887 560 900 516 900 c
476.67 900 441.33 888.17 410 864.5 c
378.67 840.83 356.33 808 343 766 c
323 702 313 632 313 556 c
313 0 313 556 313 0 c
133 0 313 0 133 0 c
closepath } bind def
/s115 {
63 317 m
241 345 63 317 241 345 c
251 273.67 278.83 219 324.5 181 c
370.17 143 434 124 516 124 c
598.67 124 660 140.83 700 174.5 c
740 208.17 760 247.67 760 293 c
760 333.67 742.33 365.67 707 389 c
682.33 405 621 425.33 523 450 c
391 483.33 299.5 512.17 248.5 536.5 c
197.5 560.83 158.83 594.5 132.5 637.5 c
106.17 680.5 93 728 93 780 c
93 827.33 103.83 871.17 125.5 911.5 c
147.17 951.83 176.67 985.33 214 1012 c
242 1032.67 280.17 1050.17 328.5 1064.5 c
376.83 1078.83 428.67 1086 484 1086 c
567.33 1086 640.5 1074 703.5 1050 c
766.5 1026 813 993.5 843 952.5 c
873 911.5 893.67 856.67 905 788 c
729 764 905 788 729 764 c
721 818.67 697.83 861.33 659.5 892 c
621.17 922.67 567 938 497 938 c
414.33 938 355.33 924.33 320 897 c
284.67 869.67 267 837.67 267 801 c
267 777.67 274.33 756.67 289 738 c
303.67 718.67 326.67 702.67 358 690 c
376 683.33 429 668 517 644 c
644.33 610 733.17 582.17 783.5 560.5 c
833.83 538.83 873.33 507.33 902 466 c
930.67 424.67 945 373.33 945 312 c
945 252 927.5 195.5 892.5 142.5 c
857.5 89.5 807 48.5 741 19.5 c
675 -9.5 600.33 -24 517 -24 c
379 -24 273.83 4.67 201.5 62 c
129.17 119.33 83 204.33 63 317 c
closepath } bind def
/s116 {
528 161 m
554 2 528 161 554 2 c
503.33 -8.67 458 -14 418 -14 c
352.67 -14 302 -3.67 266 17 c
230 37.67 204.67 64.83 190 98.5 c
175.33 132.17 168 203 168 311 c
168 922 168 311 168 922 c
36 922 168 922 36 922 c
36 1062 36 922 36 1062 c
168 1062 36 1062 168 1062 c
168 1325 168 1062 168 1325 c
347 1433 168 1325 347 1433 c
347 1062 347 1433 347 1062 c
528 1062 347 1062 528 1062 c
528 922 528 1062 528 922 c
347 922 528 922 347 922 c
347 301 347 922 347 301 c
347 249.67 350.17 216.67 356.5 202 c
362.83 187.33 373.17 175.67 387.5 167 c
401.83 158.33 422.33 154 449 154 c
469 154 495.33 156.33 528 161 c
closepath } bind def
/s117 {
831 0 m
831 156 831 0 831 156 c
748.33 36 636 -24 494 -24 c
431.33 -24 372.83 -12 318.5 12 c
264.17 36 223.83 66.17 197.5 102.5 c
171.17 138.83 152.67 183.33 142 236 c
134.67 271.33 131 327.33 131 404 c
131 1062 131 404 131 1062 c
311 1062 131 1062 311 1062 c
311 473 311 1062 311 473 c
311 379 314.67 315.67 322 283 c
333.33 235.67 357.33 198.5 394 171.5 c
430.67 144.5 476 131 530 131 c
584 131 634.67 144.83 682 172.5 c
729.33 200.17 762.83 237.83 782.5 285.5 c
802.17 333.17 812 402.33 812 493 c
812 1062 812 493 812 1062 c
992 1062 812 1062 992 1062 c
992 0 992 1062 992 0 c
831 0 992 0 831 0 c
closepath } bind def
/s118 {
430 0 m
26 1062 430 0 26 1062 c
216 1062 26 1062 216 1062 c
444 426 216 1062 444 426 c
468.67 357.33 491.33 286 512 212 c
528 268 550.33 335.33 579 414 c
815 1062 579 414 815 1062 c
1000 1062 815 1062 1000 1062 c
598 0 1000 1062 598 0 c
430 0 598 0 430 0 c
closepath } bind def
/s119 {
331 0 m
6 1062 331 0 6 1062 c
192 1062 6 1062 192 1062 c
361 449 192 1062 361 449 c
424 221 361 449 424 221 c
426.67 232.33 445 305.33 479 440 c
648 1062 479 440 648 1062 c
833 1062 648 1062 833 1062 c
992 446 833 1062 992 446 c
1045 243 992 446 1045 243 c
1106 448 1045 243 1106 448 c
1288 1062 1106 448 1288 1062 c
1463 1062 1288 1062 1463 1062 c
1131 0 1463 1062 1131 0 c
944 0 1131 0 944 0 c
775 636 944 0 775 636 c
734 817 775 636 734 817 c
519 0 734 817 519 0 c
331 0 519 0 331 0 c
closepath } bind def
/s120 {
15 0 m
403 552 15 0 403 552 c
44 1062 403 552 44 1062 c
269 1062 44 1062 269 1062 c
432 813 269 1062 432 813 c
462.67 765.67 487.33 726 506 694 c
535.33 738 562.33 777 587 811 c
766 1062 587 811 766 1062 c
981 1062 766 1062 981 1062 c
614 562 981 1062 614 562 c
1009 0 614 562 1009 0 c
788 0 1009 0 788 0 c
570 330 788 0 570 330 c
512 419 570 330 512 419 c
233 0 512 419 233 0 c
15 0 233 0 15 0 c
closepath } bind def
/s121 {
127 -409 m
107 -240 127 -409 107 -240 c
146.33 -250.67 180.67 -256 210 -256 c
250 -256 282 -249.33 306 -236 c
330 -222.67 349.67 -204 365 -180 c
376.33 -162 394.67 -117.33 420 -46 c
423.33 -36 428.67 -21.33 436 -2 c
33 1062 436 -2 33 1062 c
227 1062 33 1062 227 1062 c
448 447 227 1062 448 447 c
476.67 369 502.33 287 525 201 c
545.67 283.67 570.33 364.33 599 443 c
826 1062 599 443 826 1062 c
1006 1062 826 1062 1006 1062 c
602 -18 1006 1062 602 -18 c
558.67 -134.67 525 -215 501 -259 c
469 -318.33 432.33 -361.83 391 -389.5 c
349.67 -417.17 300.33 -431 243 -431 c
208.33 -431 169.67 -423.67 127 -409 c
closepath } bind def
end
/BuildGlyph {
 exch dup /Metrics get 2 index get 0 setcharwidth
/CharProcs get exch 2 copy known not{pop/.notdef}if get exec fill}bind def
/BuildChar {
1 index /Encoding get exch get
1 index /BuildGlyph get exec
} bind def
currentdict end /MC1_Arial exch definefont pop
%%EndFont
%%BeginFont: /MC2_Arial
12 dict begin
/FontInfo 8 dict dup begin
/ItalicAngle 0 def
/UnderlinePosition -217.00 def
/UnderlineThickness 150.00 def
/StrikeoutPosition 530.00 def
/StrikeoutThickness 102.00 def
/isFixedPitch false def
end readonly def
/FontName /MC2_Arial def
/FontType 3 def
/FontMatrix [1 2048 div 0 0 1 2048 div 0 0] def
/FontBBox [-1361 -665 4096 2129] def
/Encoding 256 array def 0 1 255{Encoding exch/.notdef put}for
Encoding 32/s32 put
Encoding 45/s45 put
Encoding 46/s46 put
Encoding 48/s48 put
Encoding 49/s49 put
Encoding 50/s50 put
Encoding 52/s52 put
Encoding 54/s54 put
Encoding 56/s56 put
Encoding 66/s66 put
Encoding 73/s73 put
Encoding 83/s83 put
Encoding 85/s85 put
Encoding 97/s97 put
Encoding 98/s98 put
Encoding 99/s99 put
Encoding 100/s100 put
Encoding 101/s101 put
Encoding 102/s102 put
Encoding 105/s105 put
Encoding 107/s107 put
Encoding 108/s108 put
Encoding 109/s109 put
Encoding 110/s110 put
Encoding 111/s111 put
Encoding 113/s113 put
Encoding 114/s114 put
Encoding 115/s115 put
Encoding 116/s116 put
Encoding 117/s117 put
Encoding 118/s118 put
Encoding 119/s119 put
Encoding 121/s121 put
/BoundingBoxes 34 dict def
BoundingBoxes begin
/s32 [0 -434 569 1854] def
/s45 [0 -434 682 1854] def
/s46 [0 -434 569 1854] def
/s48 [0 -434 1139 1854] def
/s49 [0 -434 1139 1854] def
/s50 [0 -434 1139 1854] def
/s52 [0 -434 1139 1854] def
/s54 [0 -434 1139 1854] def
/s56 [0 -434 1139 1854] def
/s66 [0 -434 1366 1854] def
/s73 [0 -434 569 1854] def
/s83 [0 -434 1366 1854] def
/s85 [0 -434 1479 1854] def
/s97 [0 -434 1139 1854] def
/s98 [0 -434 1139 1854] def
/s99 [0 -434 1024 1854] def
/s100 [0 -434 1139 1854] def
/s101 [0 -434 1139 1854] def
/s102 [0 -434 569 1854] def
/s105 [0 -434 455 1854] def
/s107 [0 -434 1024 1854] def
/s108 [0 -434 455 1854] def
/s109 [0 -434 1706 1854] def
/s110 [0 -434 1139 1854] def
/s111 [0 -434 1139 1854] def
/s113 [0 -434 1139 1854] def
/s114 [0 -434 682 1854] def
/s115 [0 -434 1024 1854] def
/s116 [0 -434 569 1854] def
/s117 [0 -434 1139 1854] def
/s118 [0 -434 1024 1854] def
/s119 [0 -434 1479 1854] def
/s121 [0 -434 1024 1854] def
end
/Metrics 34 dict def
 Metrics begin
/s32 569 def
/s45 682 def
/s46 569 def
/s48 1139 def
/s49 1139 def
/s50 1139 def
/s52 1139 def
/s54 1139 def
/s56 1139 def
/s66 1366 def
/s73 569 def
/s83 1366 def
/s85 1479 def
/s97 1139 def
/s98 1139 def
/s99 1024 def
/s100 1139 def
/s101 1139 def
/s102 569 def
/s105 455 def
/s107 1024 def
/s108 455 def
/s109 1706 def
/s110 1139 def
/s111 1139 def
/s113 1139 def
/s114 682 def
/s115 1024 def
/s116 569 def
/s117 1139 def
/s118 1024 def
/s119 1479 def
/s121 1024 def
end
/CharProcs 34 dict def
CharProcs begin
/.notdef {} def
/s45 {
65 440 m
65 621 65 440 65 621 c
618 621 65 621 618 621 c
618 440 618 621 618 440 c
65 440 618 440 65 440 c
closepath } bind def
/s46 {
186 0 m
186 205 186 0 186 205 c
391 205 186 205 391 205 c
391 0 391 205 391 0 c
186 0 391 0 186 0 c
closepath } bind def
/s48 {
85 723 m
85 896.33 102.83 1035.83 138.5 1141.5 c
174.17 1247.17 227.17 1328.67 297.5 1386 c
367.83 1443.33 456.33 1472 563 1472 c
641.67 1472 710.67 1456.17 770 1424.5 c
829.33 1392.83 878.33 1347.17 917 1287.5 c
955.67 1227.83 986 1155.17 1008 1069.5 c
1030 983.83 1041 868.33 1041 723 c
1041 551 1023.33 412.17 988 306.5 c
952.67 200.83 899.83 119.17 829.5 61.5 c
759.17 3.83 670.33 -25 563 -25 c
421.67 -25 310.67 25.67 230 127 c
133.33 249 85 447.67 85 723 c
closepath 270 723 m
270 482.33 298.17 322.17 354.5 242.5 c
410.83 162.83 480.33 123 563 123 c
645.67 123 715.17 163 771.5 243 c
827.83 323 856 483 856 723 c
856 964.33 827.83 1124.67 771.5 1204 c
715.17 1283.33 645 1323 561 1323 c
478.33 1323 412.33 1288 363 1218 c
301 1128.67 270 963.67 270 723 c
closepath } bind def
/s49 {
763 0 m
583 0 763 0 583 0 c
583 1147 583 0 583 1147 c
539.67 1105.67 482.83 1064.33 412.5 1023 c
342.17 981.67 279 950.67 223 930 c
223 1104 223 930 223 1104 c
323.67 1151.33 411.67 1208.67 487 1276 c
562.33 1343.33 615.67 1408.67 647 1472 c
763 1472 647 1472 763 1472 c
763 0 763 1472 763 0 c
closepath } bind def
/s50 {
1031 173 m
1031 0 1031 173 1031 0 c
62 0 1031 0 62 0 c
60.67 43.33 67.67 85 83 125 c
107.67 191 147.17 256 201.5 320 c
255.83 384 334.33 458 437 542 c
596.33 672.67 704 776.17 760 852.5 c
816 928.83 844 1001 844 1069 c
844 1140.33 818.5 1200.5 767.5 1249.5 c
716.5 1298.5 650 1323 568 1323 c
481.33 1323 412 1297 360 1245 c
308 1193 281.67 1121 281 1029 c
96 1048 281 1029 96 1048 c
108.67 1186 156.33 1291.17 239 1363.5 c
321.67 1435.83 432.67 1472 572 1472 c
712.67 1472 824 1433 906 1355 c
988 1277 1029 1180.33 1029 1065 c
1029 1006.33 1017 948.67 993 892 c
969 835.33 929.17 775.67 873.5 713 c
817.83 650.33 725.33 564.33 596 455 c
488 364.33 418.67 302.83 388 270.5 c
357.33 238.17 332 205.67 312 173 c
1031 173 312 173 1031 173 c
closepath } bind def
/s52 {
662 0 m
662 351 662 0 662 351 c
26 351 662 351 26 351 c
26 516 26 351 26 516 c
695 1466 26 516 695 1466 c
842 1466 695 1466 842 1466 c
842 516 842 1466 842 516 c
1040 516 842 516 1040 516 c
1040 351 1040 516 1040 351 c
842 351 1040 351 842 351 c
842 0 842 351 842 0 c
662 0 842 0 662 0 c
closepath 662 516 m
662 1177 662 516 662 1177 c
203 516 662 1177 203 516 c
662 516 203 516 662 516 c
closepath } bind def
/s54 {
1019 1107 m
840 1093 1019 1107 840 1093 c
824 1163.67 801.33 1215 772 1247 c
723.33 1298.33 663.33 1324 592 1324 c
534.67 1324 484.33 1308 441 1276 c
384.33 1234.67 339.67 1174.33 307 1095 c
274.33 1015.67 257.33 902.67 256 756 c
299.33 822 352.33 871 415 903 c
477.67 935 543.33 951 612 951 c
732 951 834.17 906.83 918.5 818.5 c
1002.83 730.17 1045 616 1045 476 c
1045 384 1025.17 298.5 985.5 219.5 c
945.83 140.5 891.33 80 822 38 c
752.67 -4 674 -25 586 -25 c
436 -25 313.67 30.17 219 140.5 c
124.33 250.83 77 432.67 77 686 c
77 969.33 129.33 1175.33 234 1304 c
325.33 1416 448.33 1472 603 1472 c
718.33 1472 812.83 1439.67 886.5 1375 c
960.17 1310.33 1004.33 1221 1019 1107 c
closepath 284 475 m
284 413 297.17 353.67 323.5 297 c
349.83 240.33 386.67 197.17 434 167.5 c
481.33 137.83 531 123 583 123 c
659 123 724.33 153.67 779 215 c
833.67 276.33 861 359.67 861 465 c
861 566.33 834 646.17 780 704.5 c
726 762.83 658 792 576 792 c
494.67 792 425.67 762.83 369 704.5 c
312.33 646.17 284 569.67 284 475 c
closepath } bind def
/s56 {
362 795 m
287.33 822.33 232 861.33 196 912 c
160 962.67 142 1023.33 142 1094 c
142 1200.67 180.33 1290.33 257 1363 c
333.67 1435.67 435.67 1472 563 1472 c
691 1472 794 1434.83 872 1360.5 c
950 1286.17 989 1195.67 989 1089 c
989 1021 971.17 961.83 935.5 911.5 c
899.83 861.17 845.67 822.33 773 795 c
863 765.67 931.5 718.33 978.5 653 c
1025.5 587.67 1049 509.67 1049 419 c
1049 293.67 1004.67 188.33 916 103 c
827.33 17.67 710.67 -25 566 -25 c
421.33 -25 304.67 17.83 216 103.5 c
127.33 189.17 83 296 83 424 c
83 519.33 107.17 599.17 155.5 663.5 c
203.83 727.83 272.67 771.67 362 795 c
closepath 326 1100 m
326 1030.67 348.33 974 393 930 c
437.67 886 495.67 864 567 864 c
636.33 864 693.17 885.83 737.5 929.5 c
781.83 973.17 804 1026.67 804 1090 c
804 1156 781.17 1211.5 735.5 1256.5 c
689.83 1301.5 633 1324 565 1324 c
496.33 1324 439.33 1302 394 1258 c
348.67 1214 326 1161.33 326 1100 c
closepath 268 423 m
268 371.67 280.17 322 304.5 274 c
328.83 226 365 188.83 413 162.5 c
461 136.17 512.67 123 568 123 c
654 123 725 150.67 781 206 c
837 261.33 865 331.67 865 417 c
865 503.67 836.17 575.33 778.5 632 c
720.83 688.67 648.67 717 562 717 c
477.33 717 407.17 689 351.5 633 c
295.83 577 268 507 268 423 c
closepath } bind def
/s66 {
150 0 m
150 1466 150 0 150 1466 c
700 1466 150 1466 700 1466 c
812 1466 901.83 1451.17 969.5 1421.5 c
1037.17 1391.83 1090.17 1346.17 1128.5 1284.5 c
1166.83 1222.83 1186 1158.33 1186 1091 c
1186 1028.33 1169 969.33 1135 914 c
1101 858.67 1049.67 814 981 780 c
1069.67 754 1137.83 709.67 1185.5 647 c
1233.17 584.33 1257 510.33 1257 425 c
1257 356.33 1242.5 292.5 1213.5 233.5 c
1184.5 174.5 1148.67 129 1106 97 c
1063.33 65 1009.83 40.83 945.5 24.5 c
881.17 8.17 802.33 0 709 0 c
150 0 709 0 150 0 c
closepath 344 850 m
661 850 344 850 661 850 c
747 850 808.67 855.67 846 867 c
895.33 881.67 932.5 906 957.5 940 c
982.5 974 995 1016.67 995 1068 c
995 1116.67 983.33 1159.5 960 1196.5 c
936.67 1233.5 903.33 1258.83 860 1272.5 c
816.67 1286.17 742.33 1293 637 1293 c
344 1293 637 1293 344 1293 c
344 850 344 1293 344 850 c
closepath 344 173 m
709 173 344 173 709 173 c
771.67 173 815.67 175.33 841 180 c
885.67 188 923 201.33 953 220 c
983 238.67 1007.67 265.83 1027 301.5 c
1046.33 337.17 1056 378.33 1056 425 c
1056 479.67 1042 527.17 1014 567.5 c
986 607.83 947.17 636.17 897.5 652.5 c
847.83 668.83 776.33 677 683 677 c
344 677 683 677 344 677 c
344 173 344 677 344 173 c
closepath } bind def
/s73 {
191 0 m
191 1466 191 0 191 1466 c
385 1466 191 1466 385 1466 c
385 0 385 1466 385 0 c
191 0 385 0 191 0 c
closepath } bind def
/s83 {
92 471 m
275 487 92 471 275 487 c
283.67 413.67 303.83 353.5 335.5 306.5 c
367.17 259.5 416.33 221.5 483 192.5 c
549.67 163.5 624.67 149 708 149 c
782 149 847.33 160 904 182 c
960.67 204 1002.83 234.17 1030.5 272.5 c
1058.17 310.83 1072 352.67 1072 398 c
1072 444 1058.67 484.17 1032 518.5 c
1005.33 552.83 961.33 581.67 900 605 c
860.67 620.33 773.67 644.17 639 676.5 c
504.33 708.83 410 739.33 356 768 c
286 804.67 233.83 850.17 199.5 904.5 c
165.17 958.83 148 1019.67 148 1087 c
148 1161 169 1230.17 211 1294.5 c
253 1358.83 314.33 1407.67 395 1441 c
475.67 1474.33 565.33 1491 664 1491 c
772.67 1491 868.5 1473.5 951.5 1438.5 c
1034.5 1403.5 1098.33 1352 1143 1284 c
1187.67 1216 1211.67 1139 1215 1053 c
1029 1039 1215 1053 1029 1039 c
1019 1131.67 985.17 1201.67 927.5 1249 c
869.83 1296.33 784.67 1320 672 1320 c
554.67 1320 469.17 1298.5 415.5 1255.5 c
361.83 1212.5 335 1160.67 335 1100 c
335 1047.33 354 1004 392 970 c
429.33 936 526.83 901.17 684.5 865.5 c
842.17 829.83 950.33 798.67 1009 772 c
1094.33 732.67 1157.33 682.83 1198 622.5 c
1238.67 562.17 1259 492.67 1259 414 c
1259 336 1236.67 262.5 1192 193.5 c
1147.33 124.5 1083.17 70.83 999.5 32.5 c
915.83 -5.83 821.67 -25 717 -25 c
584.33 -25 473.17 -5.67 383.5 33 c
293.83 71.67 223.5 129.83 172.5 207.5 c
121.5 285.17 94.67 373 92 471 c
closepath } bind def
/s85 {
1120 1466 m
1314 1466 1120 1466 1314 1466 c
1314 619 1314 1466 1314 619 c
1314 471.67 1297.33 354.67 1264 268 c
1230.67 181.33 1170.5 110.83 1083.5 56.5 c
996.5 2.17 882.33 -25 741 -25 c
603.67 -25 491.33 -1.33 404 46 c
316.67 93.33 254.33 161.83 217 251.5 c
179.67 341.17 161 463.67 161 619 c
161 1466 161 619 161 1466 c
355 1466 161 1466 355 1466 c
355 620 355 1466 355 620 c
355 492.67 366.83 398.83 390.5 338.5 c
414.17 278.17 454.83 231.67 512.5 199 c
570.17 166.33 640.67 150 724 150 c
866.67 150 968.33 182.33 1029 247 c
1089.67 311.67 1120 436 1120 620 c
1120 1466 1120 620 1120 1466 c
closepath } bind def
/s97 {
828 131 m
761.33 74.33 697.17 34.33 635.5 11 c
573.83 -12.33 507.67 -24 437 -24 c
320.33 -24 230.67 4.5 168 61.5 c
105.33 118.5 74 191.33 74 280 c
74 332 85.83 379.5 109.5 422.5 c
133.17 465.5 164.17 500 202.5 526 c
240.83 552 284 571.67 332 585 c
367.33 594.33 420.67 603.33 492 612 c
637.33 629.33 744.33 650 813 674 c
813.67 698.67 814 714.33 814 721 c
814 794.33 797 846 763 876 c
717 916.67 648.67 937 558 937 c
473.33 937 410.83 922.17 370.5 892.5 c
330.17 862.83 300.33 810.33 281 735 c
105 759 281 735 105 759 c
121 834.33 147.33 895.17 184 941.5 c
220.67 987.83 273.67 1023.5 343 1048.5 c
412.33 1073.5 492.67 1086 584 1086 c
674.67 1086 748.33 1075.33 805 1054 c
861.67 1032.67 903.33 1005.83 930 973.5 c
956.67 941.17 975.33 900.33 986 851 c
992 820.33 995 765 995 685 c
995 445 995 685 995 445 c
995 277.67 998.83 171.83 1006.5 127.5 c
1014.17 83.17 1029.33 40.67 1052 0 c
864 0 1052 0 864 0 c
845.33 37.33 833.33 81 828 131 c
closepath 813 533 m
747.67 506.33 649.67 483.67 519 465 c
445 454.33 392.67 442.33 362 429 c
331.33 415.67 307.67 396.17 291 370.5 c
274.33 344.83 266 316.33 266 285 c
266 237 284.17 197 320.5 165 c
356.83 133 410 117 480 117 c
549.33 117 611 132.17 665 162.5 c
719 192.83 758.67 234.33 784 287 c
803.33 327.67 813 387.67 813 467 c
813 533 813 467 813 533 c
closepath } bind def
/s98 {
301 0 m
134 0 301 0 134 0 c
134 1466 134 0 134 1466 c
314 1466 134 1466 314 1466 c
314 943 314 1466 314 943 c
390 1038.33 487 1086 605 1086 c
670.33 1086 732.17 1072.83 790.5 1046.5 c
848.83 1020.17 896.83 983.17 934.5 935.5 c
972.17 887.83 1001.67 830.33 1023 763 c
1044.33 695.67 1055 623.67 1055 547 c
1055 365 1010 224.33 920 125 c
830 25.67 722 -24 596 -24 c
470.67 -24 372.33 28.33 301 133 c
301 0 301 133 301 0 c
closepath 299 539 m
299 411.67 316.33 319.67 351 263 c
407.67 170.33 484.33 124 581 124 c
659.67 124 727.67 158.17 785 226.5 c
842.33 294.83 871 396.67 871 532 c
871 670.67 843.5 773 788.5 839 c
733.5 905 667 938 589 938 c
510.33 938 442.33 903.83 385 835.5 c
327.67 767.17 299 668.33 299 539 c
closepath } bind def
/s99 {
828 389 m
1005 366 828 389 1005 366 c
985.67 244 936.17 148.5 856.5 79.5 c
776.83 10.5 679 -24 563 -24 c
417.67 -24 300.83 23.5 212.5 118.5 c
124.17 213.5 80 349.67 80 527 c
80 641.67 99 742 137 828 c
175 914 232.83 978.5 310.5 1021.5 c
388.17 1064.5 472.67 1086 564 1086 c
679.33 1086 773.67 1056.83 847 998.5 c
920.33 940.17 967.33 857.33 988 750 c
813 723 988 750 813 723 c
796.33 794.33 766.83 848 724.5 884 c
682.17 920 631 938 571 938 c
480.33 938 406.67 905.5 350 840.5 c
293.33 775.5 265 672.67 265 532 c
265 389.33 292.33 285.67 347 221 c
401.67 156.33 473 124 561 124 c
631.67 124 690.67 145.67 738 189 c
785.33 232.33 815.33 299 828 389 c
closepath } bind def
/s100 {
824 0 m
824 134 824 0 824 134 c
756.67 28.67 657.67 -24 527 -24 c
442.33 -24 364.5 -0.67 293.5 46 c
222.5 92.67 167.5 157.83 128.5 241.5 c
89.5 325.17 70 421.33 70 530 c
70 636 87.67 732.17 123 818.5 c
158.33 904.83 211.33 971 282 1017 c
352.67 1063 431.67 1086 519 1086 c
583 1086 640 1072.5 690 1045.5 c
740 1018.5 780.67 983.33 812 940 c
812 1466 812 940 812 1466 c
991 1466 812 1466 991 1466 c
991 0 991 1466 991 0 c
824 0 991 0 824 0 c
closepath 255 530 m
255 394 283.67 292.33 341 225 c
398.33 157.67 466 124 544 124 c
622.67 124 689.5 156.17 744.5 220.5 c
799.5 284.83 827 383 827 515 c
827 660.33 799 767 743 835 c
687 903 618 937 536 937 c
456 937 389.17 904.33 335.5 839 c
281.83 773.67 255 670.67 255 530 c
closepath } bind def
/s101 {
862 342 m
1048 319 862 342 1048 319 c
1018.67 210.33 964.33 126 885 66 c
805.67 6 704.33 -24 581 -24 c
425.67 -24 302.5 23.83 211.5 119.5 c
120.5 215.17 75 349.33 75 522 c
75 700.67 121 839.33 213 938 c
305 1036.67 424.33 1086 571 1086 c
713 1086 829 1037.67 919 941 c
1009 844.33 1054 708.33 1054 533 c
1054 522.33 1053.67 506.33 1053 485 c
261 485 1053 485 261 485 c
267.67 368.33 300.67 279 360 217 c
419.33 155 493.33 124 582 124 c
648 124 704.33 141.33 751 176 c
797.67 210.67 834.67 266 862 342 c
closepath 271 633 m
864 633 271 633 864 633 c
856 722.33 833.33 789.33 796 834 c
738.67 903.33 664.33 938 573 938 c
490.33 938 420.83 910.33 364.5 855 c
308.17 799.67 277 725.67 271 633 c
closepath } bind def
/s102 {
178 0 m
178 922 178 0 178 922 c
19 922 178 922 19 922 c
19 1062 19 922 19 1062 c
178 1062 19 1062 178 1062 c
178 1175 178 1062 178 1175 c
178 1246.33 184.33 1299.33 197 1334 c
214.33 1380.67 244.83 1418.5 288.5 1447.5 c
332.17 1476.5 393.33 1491 472 1491 c
522.67 1491 578.67 1485 640 1473 c
613 1316 640 1473 613 1316 c
575.67 1322.67 540.33 1326 507 1326 c
452.33 1326 413.67 1314.33 391 1291 c
368.33 1267.67 357 1224 357 1160 c
357 1062 357 1160 357 1062 c
564 1062 357 1062 564 1062 c
564 922 564 1062 564 922 c
357 922 564 922 357 922 c
357 0 357 922 357 0 c
178 0 357 0 178 0 c
closepath } bind def
/s105 {
136 1259 m
136 1466 136 1259 136 1466 c
316 1466 136 1466 316 1466 c
316 1259 316 1466 316 1259 c
136 1259 316 1259 136 1259 c
closepath 136 0 m
136 1062 136 0 136 1062 c
316 1062 136 1062 316 1062 c
316 0 316 1062 316 0 c
136 0 316 0 136 0 c
closepath } bind def
/s107 {
136 0 m
136 1466 136 0 136 1466 c
316 1466 136 1466 316 1466 c
316 630 316 1466 316 630 c
742 1062 316 630 742 1062 c
975 1062 742 1062 975 1062 c
569 668 975 1062 569 668 c
1016 0 569 668 1016 0 c
794 0 1016 0 794 0 c
443 543 794 0 443 543 c
316 421 443 543 316 421 c
316 0 316 421 316 0 c
136 0 316 0 136 0 c
closepath } bind def
/s108 {
131 0 m
131 1466 131 0 131 1466 c
311 1466 131 1466 311 1466 c
311 0 311 1466 311 0 c
131 0 311 0 131 0 c
closepath } bind def
/s109 {
135 0 m
135 1062 135 0 135 1062 c
296 1062 135 1062 296 1062 c
296 913 296 1062 296 913 c
329.33 965 373.67 1006.83 429 1038.5 c
484.33 1070.17 547.33 1086 618 1086 c
696.67 1086 761.17 1069.67 811.5 1037 c
861.83 1004.33 897.33 958.67 918 900 c
1002 1024 1111.33 1086 1246 1086 c
1351.33 1086 1432.33 1056.83 1489 998.5 c
1545.67 940.17 1574 850.33 1574 729 c
1574 0 1574 729 1574 0 c
1395 0 1574 0 1395 0 c
1395 669 1395 0 1395 669 c
1395 741 1389.17 792.83 1377.5 824.5 c
1365.83 856.17 1344.67 881.67 1314 901 c
1283.33 920.33 1247.33 930 1206 930 c
1131.33 930 1069.33 905.17 1020 855.5 c
970.67 805.83 946 726.33 946 617 c
946 0 946 617 946 0 c
766 0 946 0 766 0 c
766 690 766 0 766 690 c
766 770 751.33 830 722 870 c
692.67 910 644.67 930 578 930 c
527.33 930 480.5 916.67 437.5 890 c
394.5 863.33 363.33 824.33 344 773 c
324.67 721.67 315 647.67 315 551 c
315 0 315 551 315 0 c
135 0 315 0 135 0 c
closepath } bind def
/s110 {
135 0 m
135 1062 135 0 135 1062 c
297 1062 135 1062 297 1062 c
297 911 297 1062 297 911 c
375 1027.67 487.67 1086 635 1086 c
699 1086 757.83 1074.5 811.5 1051.5 c
865.17 1028.5 905.33 998.33 932 961 c
958.67 923.67 977.33 879.33 988 828 c
994.67 794.67 998 736.33 998 653 c
998 0 998 653 998 0 c
818 0 998 0 818 0 c
818 646 818 0 818 646 c
818 719.33 811 774.17 797 810.5 c
783 846.83 758.17 875.83 722.5 897.5 c
686.83 919.17 645 930 597 930 c
520.33 930 454.17 905.67 398.5 857 c
342.83 808.33 315 716 315 580 c
315 0 315 580 315 0 c
135 0 315 0 135 0 c
closepath } bind def
/s111 {
68 531 m
68 727.67 122.67 873.33 232 968 c
323.33 1046.67 434.67 1086 566 1086 c
712 1086 831.33 1038.17 924 942.5 c
1016.67 846.83 1063 714.67 1063 546 c
1063 409.33 1042.5 301.83 1001.5 223.5 c
960.5 145.17 900.83 84.33 822.5 41 c
744.17 -2.33 658.67 -24 566 -24 c
417.33 -24 297.17 23.67 205.5 119 c
113.83 214.33 68 351.67 68 531 c
closepath 253 531 m
253 395 282.67 293.17 342 225.5 c
401.33 157.83 476 124 566 124 c
655.33 124 729.67 158 789 226 c
848.33 294 878 397.67 878 537 c
878 668.33 848.17 767.83 788.5 835.5 c
728.83 903.17 654.67 937 566 937 c
476 937 401.33 903.33 342 836 c
282.67 768.67 253 667 253 531 c
closepath } bind def
/s113 {
812 -407 m
812 113 812 -407 812 113 c
784 73.67 744.83 41 694.5 15 c
644.17 -11 590.67 -24 534 -24 c
408 -24 299.5 26.33 208.5 127 c
117.5 227.67 72 365.67 72 541 c
72 647.67 90.5 743.33 127.5 828 c
164.5 912.67 218.17 976.83 288.5 1020.5 c
358.83 1064.17 436 1086 520 1086 c
651.33 1086 754.67 1030.67 830 920 c
830 1062 830 920 830 1062 c
992 1062 830 1062 992 1062 c
992 -407 992 1062 992 -407 c
812 -407 992 -407 812 -407 c
closepath 257 534 m
257 397.33 285.67 294.83 343 226.5 c
400.33 158.17 469 124 549 124 c
625.67 124 691.67 156.5 747 221.5 c
802.33 286.5 830 385.33 830 518 c
830 659.33 800.83 765.67 742.5 837 c
684.17 908.33 615.67 944 537 944 c
459 944 392.83 910.83 338.5 844.5 c
284.17 778.17 257 674.67 257 534 c
closepath } bind def
/s114 {
133 0 m
133 1062 133 0 133 1062 c
295 1062 133 1062 295 1062 c
295 901 295 1062 295 901 c
336.33 976.33 374.5 1026 409.5 1050 c
444.5 1074 483 1086 525 1086 c
585.67 1086 647.33 1066.67 710 1028 c
648 861 710 1028 648 861 c
604 887 560 900 516 900 c
476.67 900 441.33 888.17 410 864.5 c
378.67 840.83 356.33 808 343 766 c
323 702 313 632 313 556 c
313 0 313 556 313 0 c
133 0 313 0 133 0 c
closepath } bind def
/s115 {
63 317 m
241 345 63 317 241 345 c
251 273.67 278.83 219 324.5 181 c
370.17 143 434 124 516 124 c
598.67 124 660 140.83 700 174.5 c
740 208.17 760 247.67 760 293 c
760 333.67 742.33 365.67 707 389 c
682.33 405 621 425.33 523 450 c
391 483.33 299.5 512.17 248.5 536.5 c
197.5 560.83 158.83 594.5 132.5 637.5 c
106.17 680.5 93 728 93 780 c
93 827.33 103.83 871.17 125.5 911.5 c
147.17 951.83 176.67 985.33 214 1012 c
242 1032.67 280.17 1050.17 328.5 1064.5 c
376.83 1078.83 428.67 1086 484 1086 c
567.33 1086 640.5 1074 703.5 1050 c
766.5 1026 813 993.5 843 952.5 c
873 911.5 893.67 856.67 905 788 c
729 764 905 788 729 764 c
721 818.67 697.83 861.33 659.5 892 c
621.17 922.67 567 938 497 938 c
414.33 938 355.33 924.33 320 897 c
284.67 869.67 267 837.67 267 801 c
267 777.67 274.33 756.67 289 738 c
303.67 718.67 326.67 702.67 358 690 c
376 683.33 429 668 517 644 c
644.33 610 733.17 582.17 783.5 560.5 c
833.83 538.83 873.33 507.33 902 466 c
930.67 424.67 945 373.33 945 312 c
945 252 927.5 195.5 892.5 142.5 c
857.5 89.5 807 48.5 741 19.5 c
675 -9.5 600.33 -24 517 -24 c
379 -24 273.83 4.67 201.5 62 c
129.17 119.33 83 204.33 63 317 c
closepath } bind def
/s116 {
528 161 m
554 2 528 161 554 2 c
503.33 -8.67 458 -14 418 -14 c
352.67 -14 302 -3.67 266 17 c
230 37.67 204.67 64.83 190 98.5 c
175.33 132.17 168 203 168 311 c
168 922 168 311 168 922 c
36 922 168 922 36 922 c
36 1062 36 922 36 1062 c
168 1062 36 1062 168 1062 c
168 1325 168 1062 168 1325 c
347 1433 168 1325 347 1433 c
347 1062 347 1433 347 1062 c
528 1062 347 1062 528 1062 c
528 922 528 1062 528 922 c
347 922 528 922 347 922 c
347 301 347 922 347 301 c
347 249.67 350.17 216.67 356.5 202 c
362.83 187.33 373.17 175.67 387.5 167 c
401.83 158.33 422.33 154 449 154 c
469 154 495.33 156.33 528 161 c
closepath } bind def
/s117 {
831 0 m
831 156 831 0 831 156 c
748.33 36 636 -24 494 -24 c
431.33 -24 372.83 -12 318.5 12 c
264.17 36 223.83 66.17 197.5 102.5 c
171.17 138.83 152.67 183.33 142 236 c
134.67 271.33 131 327.33 131 404 c
131 1062 131 404 131 1062 c
311 1062 131 1062 311 1062 c
311 473 311 1062 311 473 c
311 379 314.67 315.67 322 283 c
333.33 235.67 357.33 198.5 394 171.5 c
430.67 144.5 476 131 530 131 c
584 131 634.67 144.83 682 172.5 c
729.33 200.17 762.83 237.83 782.5 285.5 c
802.17 333.17 812 402.33 812 493 c
812 1062 812 493 812 1062 c
992 1062 812 1062 992 1062 c
992 0 992 1062 992 0 c
831 0 992 0 831 0 c
closepath } bind def
/s118 {
430 0 m
26 1062 430 0 26 1062 c
216 1062 26 1062 216 1062 c
444 426 216 1062 444 426 c
468.67 357.33 491.33 286 512 212 c
528 268 550.33 335.33 579 414 c
815 1062 579 414 815 1062 c
1000 1062 815 1062 1000 1062 c
598 0 1000 1062 598 0 c
430 0 598 0 430 0 c
closepath } bind def
/s119 {
331 0 m
6 1062 331 0 6 1062 c
192 1062 6 1062 192 1062 c
361 449 192 1062 361 449 c
424 221 361 449 424 221 c
426.67 232.33 445 305.33 479 440 c
648 1062 479 440 648 1062 c
833 1062 648 1062 833 1062 c
992 446 833 1062 992 446 c
1045 243 992 446 1045 243 c
1106 448 1045 243 1106 448 c
1288 1062 1106 448 1288 1062 c
1463 1062 1288 1062 1463 1062 c
1131 0 1463 1062 1131 0 c
944 0 1131 0 944 0 c
775 636 944 0 775 636 c
734 817 775 636 734 817 c
519 0 734 817 519 0 c
331 0 519 0 331 0 c
closepath } bind def
/s121 {
127 -409 m
107 -240 127 -409 107 -240 c
146.33 -250.67 180.67 -256 210 -256 c
250 -256 282 -249.33 306 -236 c
330 -222.67 349.67 -204 365 -180 c
376.33 -162 394.67 -117.33 420 -46 c
423.33 -36 428.67 -21.33 436 -2 c
33 1062 436 -2 33 1062 c
227 1062 33 1062 227 1062 c
448 447 227 1062 448 447 c
476.67 369 502.33 287 525 201 c
545.67 283.67 570.33 364.33 599 443 c
826 1062 599 443 826 1062 c
1006 1062 826 1062 1006 1062 c
602 -18 1006 1062 602 -18 c
558.67 -134.67 525 -215 501 -259 c
469 -318.33 432.33 -361.83 391 -389.5 c
349.67 -417.17 300.33 -431 243 -431 c
208.33 -431 169.67 -423.67 127 -409 c
closepath } bind def
end
/BuildGlyph {
 exch dup /Metrics get 2 index get 0 setcharwidth
/CharProcs get exch 2 copy known not{pop/.notdef}if get exec fill}bind def
/BuildChar {
1 index /Encoding get exch get
1 index /BuildGlyph get exec
} bind def
currentdict end /MC2_Arial exch definefont pop
%%EndFont
/clipproc{clippath{[{/m cvx}{/l cvx}{/c cvx}{/cp cvx}pathforall}stopped
{cleartomark[pathbbox exch 3 i sub exch 2 i sub/rectpath cvx}if]np}bd
/iclmtx mtx cmtx def/iclpath clipproc xd/clinit{pathproc initclip np iclpath cl np exec}bd
/clmove{pathproc 3 1 roll clippath pathproc 2 i neg 2 i neg tr initclip np exec cl tr np exec}bd
/clrect[gs np iclpath{pathbbox}stopped{0 0 771.85 302.88 }if gr]def
/cloper{mtx cmtx iclmtx smtx exch exec smtx}bd
/cland{{exch cvx exec}cloper}bd
/clcopy{{exch clinit cvx exec}cloper}bd
/cldiff{{exch pathbbox 4 -1 roll clrect 0 get 2 copy gt{exch}if pop 4 1 roll
 3 -1 roll clrect 1 get 2 copy gt{exch}if pop 3 1 roll
 2 -1 roll clrect 2 get 2 copy lt{exch}if pop 2 1 roll
 1 -1 roll clrect 3 get 2 copy lt{exch}if pop 1 1 roll
 exch 3 i sub exch 2 i sub rectpath cvx exec}cloper}bd
/icl{{clinit}cloper}bd
0.271841 0.272146 sc

/initmtx mtx cmtx def
initmtx smtx
[1.0000 0.0000 0.0000 1.0000 0.0000 0.0000 ] concat
 [0.882874 -0 0 -0.88189 0 1112.94] concat
gs
gs
pathproc 272 102 2938 363 np rectpath
/eocl cland
np exec
286 123 m
350 123 l
350 464 l
286 464 l
cp
gs
1 1 1 rgb
eofi
gr
6 sw
1 1 1 rgb
1 sj
1 scap
st
286 123 m
350 123 l
0 0 0 rgb
st
350 123 m
350 464 l
st
286 464 m
286 123 l
st
378 141 m
442 141 l
442 464 l
378 464 l
cp
gs
1 1 1 rgb
eofi
gr
1 1 1 rgb
st
378 141 m
442 141 l
0 0 0 rgb
st
442 141 m
442 464 l
st
378 464 m
378 141 l
st
469 160 m
534 160 l
534 464 l
469 464 l
cp
gs
1 1 1 rgb
eofi
gr
1 1 1 rgb
st
469 160 m
534 160 l
0 0 0 rgb
st
534 160 m
534 464 l
st
469 464 m
469 160 l
st
561 119 m
625 119 l
625 464 l
561 464 l
cp
gs
1 1 1 rgb
eofi
gr
1 1 1 rgb
st
561 119 m
625 119 l
0 0 0 rgb
st
625 119 m
625 464 l
st
561 464 m
561 119 l
st
653 121 m
717 121 l
717 464 l
653 464 l
cp
gs
1 1 1 rgb
eofi
gr
1 1 1 rgb
st
653 121 m
717 121 l
0 0 0 rgb
st
717 121 m
717 464 l
st
653 464 m
653 121 l
st
745 198 m
809 198 l
809 464 l
745 464 l
cp
gs
1 1 1 rgb
eofi
gr
1 1 1 rgb
st
745 198 m
809 198 l
0 0 0 rgb
st
809 198 m
809 464 l
st
745 464 m
745 198 l
st
836 121 m
901 121 l
901 464 l
836 464 l
cp
gs
1 1 1 rgb
eofi
gr
1 1 1 rgb
st
836 121 m
901 121 l
0 0 0 rgb
st
901 121 m
901 464 l
st
836 464 m
836 121 l
st
928 120 m
992 120 l
992 464 l
928 464 l
cp
gs
1 1 1 rgb
eofi
gr
1 1 1 rgb
st
928 120 m
992 120 l
0 0 0 rgb
st
992 120 m
992 464 l
st
928 464 m
928 120 l
st
1020 201 m
1084 201 l
1084 464 l
1020 464 l
cp
gs
1 1 1 rgb
eofi
gr
1 1 1 rgb
st
1020 201 m
1084 201 l
0 0 0 rgb
st
1084 201 m
1084 464 l
st
1020 464 m
1020 201 l
st
1112 303 m
1176 303 l
1176 464 l
1112 464 l
cp
gs
1 1 1 rgb
eofi
gr
1 1 1 rgb
st
1112 303 m
1176 303 l
0 0 0 rgb
st
1176 303 m
1176 464 l
st
1112 464 m
1112 303 l
st
1204 119 m
1268 119 l
1268 464 l
1204 464 l
cp
gs
1 1 1 rgb
eofi
gr
1 1 1 rgb
st
1204 119 m
1268 119 l
0 0 0 rgb
st
1268 119 m
1268 464 l
st
1204 464 m
1204 119 l
st
1295 119 m
1360 119 l
1360 464 l
1295 464 l
cp
gs
1 1 1 rgb
eofi
gr
1 1 1 rgb
st
1295 119 m
1360 119 l
0 0 0 rgb
st
1360 119 m
1360 464 l
st
1295 464 m
1295 119 l
st
1387 330 m
1451 330 l
1451 464 l
1387 464 l
cp
gs
1 1 1 rgb
eofi
gr
1 1 1 rgb
st
1387 330 m
1451 330 l
0 0 0 rgb
st
1451 330 m
1451 464 l
st
1387 464 m
1387 330 l
st
1479 119 m
1543 119 l
1543 464 l
1479 464 l
cp
gs
1 1 1 rgb
eofi
gr
1 1 1 rgb
st
1479 119 m
1543 119 l
0 0 0 rgb
st
1543 119 m
1543 464 l
st
1479 464 m
1479 119 l
st
1571 464 m
1635 464 l
st
1662 119 m
1727 119 l
1727 464 l
1662 464 l
cp
gs
1 1 1 rgb
eofi
gr
1 1 1 rgb
st
1662 119 m
1727 119 l
0 0 0 rgb
st
1727 119 m
1727 464 l
st
1662 464 m
1662 119 l
st
1754 119 m
1819 119 l
1819 464 l
1754 464 l
cp
gs
1 1 1 rgb
eofi
gr
1 1 1 rgb
st
1754 119 m
1819 119 l
0 0 0 rgb
st
1819 119 m
1819 464 l
st
1754 464 m
1754 119 l
st
1846 119 m
1910 119 l
1910 464 l
1846 464 l
cp
gs
1 1 1 rgb
eofi
gr
1 1 1 rgb
st
1846 119 m
1910 119 l
0 0 0 rgb
st
1910 119 m
1910 464 l
st
1846 464 m
1846 119 l
st
1938 119 m
2002 119 l
2002 464 l
1938 464 l
cp
gs
1 1 1 rgb
eofi
gr
1 1 1 rgb
st
1938 119 m
2002 119 l
0 0 0 rgb
st
2002 119 m
2002 464 l
st
1938 464 m
1938 119 l
st
2030 119 m
2094 119 l
2094 464 l
2030 464 l
cp
gs
1 1 1 rgb
eofi
gr
1 1 1 rgb
st
2030 119 m
2094 119 l
0 0 0 rgb
st
2094 119 m
2094 464 l
st
2030 464 m
2030 119 l
st
2121 119 m
2186 119 l
2186 464 l
2121 464 l
cp
gs
1 1 1 rgb
eofi
gr
1 1 1 rgb
st
2121 119 m
2186 119 l
0 0 0 rgb
st
2186 119 m
2186 464 l
st
2121 464 m
2121 119 l
st
2213 119 m
2277 119 l
2277 464 l
2213 464 l
cp
gs
1 1 1 rgb
eofi
gr
1 1 1 rgb
st
2213 119 m
2277 119 l
0 0 0 rgb
st
2277 119 m
2277 464 l
st
2213 464 m
2213 119 l
st
2305 120 m
2369 120 l
2369 464 l
2305 464 l
cp
gs
1 1 1 rgb
eofi
gr
1 1 1 rgb
st
2305 120 m
2369 120 l
0 0 0 rgb
st
2369 120 m
2369 464 l
st
2305 464 m
2305 120 l
st
2397 120 m
2461 120 l
2461 464 l
2397 464 l
cp
gs
1 1 1 rgb
eofi
gr
1 1 1 rgb
st
2397 120 m
2461 120 l
0 0 0 rgb
st
2461 120 m
2461 464 l
st
2397 464 m
2397 120 l
st
2489 133 m
2553 133 l
2553 464 l
2489 464 l
cp
gs
1 1 1 rgb
eofi
gr
1 1 1 rgb
st
2489 133 m
2553 133 l
0 0 0 rgb
st
2553 133 m
2553 464 l
st
2489 464 m
2489 133 l
st
2580 119 m
2645 119 l
2645 464 l
2580 464 l
cp
gs
1 1 1 rgb
eofi
gr
1 1 1 rgb
st
2580 119 m
2645 119 l
0 0 0 rgb
st
2645 119 m
2645 464 l
st
2580 464 m
2580 119 l
st
2672 121 m
2736 121 l
2736 464 l
2672 464 l
cp
gs
1 1 1 rgb
eofi
gr
1 1 1 rgb
st
2672 121 m
2736 121 l
0 0 0 rgb
st
2736 121 m
2736 464 l
st
2672 464 m
2672 121 l
st
2764 119 m
2828 119 l
2828 464 l
2764 464 l
cp
gs
1 1 1 rgb
eofi
gr
1 1 1 rgb
st
2764 119 m
2828 119 l
0 0 0 rgb
st
2828 119 m
2828 464 l
st
2764 464 m
2764 119 l
st
2856 119 m
2920 119 l
2920 464 l
2856 464 l
cp
gs
1 1 1 rgb
eofi
gr
1 1 1 rgb
st
2856 119 m
2920 119 l
0 0 0 rgb
st
2920 119 m
2920 464 l
st
2856 464 m
2856 119 l
st
2947 121 m
3012 121 l
3012 464 l
2947 464 l
cp
gs
1 1 1 rgb
eofi
gr
1 1 1 rgb
st
2947 121 m
3012 121 l
0 0 0 rgb
st
3012 121 m
3012 464 l
st
2947 464 m
2947 121 l
st
3039 119 m
3103 119 l
3103 464 l
3039 464 l
cp
gs
1 1 1 rgb
eofi
gr
1 1 1 rgb
st
3039 119 m
3103 119 l
0 0 0 rgb
st
3103 119 m
3103 464 l
st
3039 464 m
3039 119 l
st
3131 119 m
3195 119 l
3195 464 l
3131 464 l
cp
gs
1 1 1 rgb
eofi
gr
1 1 1 rgb
st
3131 119 m
3195 119 l
0 0 0 rgb
st
3195 119 m
3195 464 l
st
3131 464 m
3131 119 l
st
gr
gs
pathproc 272 102 2938 363 np rectpath
/eocl cland
np exec
286 119 m
350 119 l
350 123 l
286 123 l
cp
gs
eofi
gr
6 sw
1 sj
1 scap
st
378 119 m
442 119 l
442 141 l
378 141 l
cp
gs
eofi
gr
st
469 119 m
534 119 l
534 160 l
469 160 l
cp
gs
eofi
gr
st
561 119 m
625 119 l
st
653 119 m
717 119 l
717 121 l
653 121 l
cp
gs
eofi
gr
st
745 119 m
809 119 l
809 198 l
745 198 l
cp
gs
eofi
gr
st
836 119 m
901 119 l
901 121 l
836 121 l
cp
gs
eofi
gr
st
928 119 m
992 119 l
992 120 l
928 120 l
cp
gs
eofi
gr
st
1020 119 m
1084 119 l
1084 201 l
1020 201 l
cp
gs
eofi
gr
st
1112 119 m
1176 119 l
1176 303 l
1112 303 l
cp
gs
eofi
gr
st
1204 119 m
1268 119 l
st
1295 119 m
1360 119 l
st
1387 119 m
1451 119 l
1451 330 l
1387 330 l
cp
gs
eofi
gr
st
1479 119 m
1543 119 l
st
1571 119 m
1635 119 l
1635 464 l
1571 464 l
cp
gs
eofi
gr
st
1571 119 m
1635 119 l
st
1635 119 m
1635 464 l
st
1571 464 m
1571 119 l
st
1662 119 m
1727 119 l
st
1754 119 m
1819 119 l
st
1846 119 m
1910 119 l
st
1938 119 m
2002 119 l
st
2030 119 m
2094 119 l
st
2121 119 m
2186 119 l
st
2213 119 m
2277 119 l
st
2305 119 m
2369 119 l
2369 120 l
2305 120 l
cp
gs
eofi
gr
st
2397 119 m
2461 119 l
2461 120 l
2397 120 l
cp
gs
eofi
gr
st
2489 119 m
2553 119 l
2553 133 l
2489 133 l
cp
gs
eofi
gr
st
2580 119 m
2645 119 l
st
2672 119 m
2736 119 l
2736 121 l
2672 121 l
cp
gs
eofi
gr
st
2764 119 m
2828 119 l
st
2856 119 m
2920 119 l
st
2947 119 m
3012 119 l
3012 121 l
2947 121 l
cp
gs
eofi
gr
st
3039 119 m
3103 119 l
st
3131 119 m
3195 119 l
st
gr
gs
pathproc 270 565 2941 344 np rectpath
/eocl cland
np exec
284 883 m
348 883 l
348 908 l
284 908 l
cp
gs
1 1 1 rgb
eofi
gr
6 sw
1 1 1 rgb
1 sj
1 scap
st
284 883 m
348 883 l
0 0 0 rgb
st
348 883 m
348 908 l
st
284 908 m
284 883 l
st
376 904 m
440 904 l
440 908 l
376 908 l
cp
gs
1 1 1 rgb
eofi
gr
1 1 1 rgb
st
376 904 m
440 904 l
0 0 0 rgb
st
440 904 m
440 908 l
st
376 908 m
376 904 l
st
468 883 m
532 883 l
532 908 l
468 908 l
cp
gs
1 1 1 rgb
eofi
gr
1 1 1 rgb
st
468 883 m
532 883 l
0 0 0 rgb
st
532 883 m
532 908 l
st
468 908 m
468 883 l
st
559 901 m
624 901 l
624 908 l
559 908 l
cp
gs
1 1 1 rgb
eofi
gr
1 1 1 rgb
st
559 901 m
624 901 l
0 0 0 rgb
st
624 901 m
624 908 l
st
559 908 m
559 901 l
st
651 907 m
716 907 l
716 908 l
651 908 l
cp
gs
1 1 1 rgb
eofi
gr
1 1 1 rgb
st
651 907 m
716 907 l
0 0 0 rgb
st
716 907 m
716 908 l
st
651 908 m
651 907 l
st
743 907 m
807 907 l
807 908 l
743 908 l
cp
gs
1 1 1 rgb
eofi
gr
1 1 1 rgb
st
743 907 m
807 907 l
0 0 0 rgb
st
807 907 m
807 908 l
st
743 908 m
743 907 l
st
835 835 m
899 835 l
899 908 l
835 908 l
cp
gs
1 1 1 rgb
eofi
gr
1 1 1 rgb
st
835 835 m
899 835 l
0 0 0 rgb
st
899 835 m
899 908 l
st
835 908 m
835 835 l
st
927 873 m
991 873 l
991 908 l
927 908 l
cp
gs
1 1 1 rgb
eofi
gr
1 1 1 rgb
st
927 873 m
991 873 l
0 0 0 rgb
st
991 873 m
991 908 l
st
927 908 m
927 873 l
st
1019 900 m
1083 900 l
1083 908 l
1019 908 l
cp
gs
1 1 1 rgb
eofi
gr
1 1 1 rgb
st
1019 900 m
1083 900 l
0 0 0 rgb
st
1083 900 m
1083 908 l
st
1019 908 m
1019 900 l
st
1111 907 m
1175 907 l
1175 908 l
1111 908 l
cp
gs
1 1 1 rgb
eofi
gr
1 1 1 rgb
st
1111 907 m
1175 907 l
0 0 0 rgb
st
1175 907 m
1175 908 l
st
1111 908 m
1111 907 l
st
1203 893 m
1267 893 l
1267 908 l
1203 908 l
cp
gs
1 1 1 rgb
eofi
gr
1 1 1 rgb
st
1203 893 m
1267 893 l
0 0 0 rgb
st
1267 893 m
1267 908 l
st
1203 908 m
1203 893 l
st
1294 887 m
1359 887 l
1359 908 l
1294 908 l
cp
gs
1 1 1 rgb
eofi
gr
1 1 1 rgb
st
1294 887 m
1359 887 l
0 0 0 rgb
st
1359 887 m
1359 908 l
st
1294 908 m
1294 887 l
st
1386 907 m
1451 907 l
1451 908 l
1386 908 l
cp
gs
1 1 1 rgb
eofi
gr
1 1 1 rgb
st
1386 907 m
1451 907 l
0 0 0 rgb
st
1451 907 m
1451 908 l
st
1386 908 m
1386 907 l
st
1478 874 m
1542 874 l
1542 908 l
1478 908 l
cp
gs
1 1 1 rgb
eofi
gr
1 1 1 rgb
st
1478 874 m
1542 874 l
0 0 0 rgb
st
1542 874 m
1542 908 l
st
1478 908 m
1478 874 l
st
1570 908 m
1634 908 l
st
1662 889 m
1726 889 l
1726 908 l
1662 908 l
cp
gs
1 1 1 rgb
eofi
gr
1 1 1 rgb
st
1662 889 m
1726 889 l
0 0 0 rgb
st
1726 889 m
1726 908 l
st
1662 908 m
1662 889 l
st
1754 884 m
1818 884 l
1818 908 l
1754 908 l
cp
gs
1 1 1 rgb
eofi
gr
1 1 1 rgb
st
1754 884 m
1818 884 l
0 0 0 rgb
st
1818 884 m
1818 908 l
st
1754 908 m
1754 884 l
st
1846 893 m
1910 893 l
1910 908 l
1846 908 l
cp
gs
1 1 1 rgb
eofi
gr
1 1 1 rgb
st
1846 893 m
1910 893 l
0 0 0 rgb
st
1910 893 m
1910 908 l
st
1846 908 m
1846 893 l
st
1938 892 m
2002 892 l
2002 908 l
1938 908 l
cp
gs
1 1 1 rgb
eofi
gr
1 1 1 rgb
st
1938 892 m
2002 892 l
0 0 0 rgb
st
2002 892 m
2002 908 l
st
1938 908 m
1938 892 l
st
2029 881 m
2094 881 l
2094 908 l
2029 908 l
cp
gs
1 1 1 rgb
eofi
gr
1 1 1 rgb
st
2029 881 m
2094 881 l
0 0 0 rgb
st
2094 881 m
2094 908 l
st
2029 908 m
2029 881 l
st
2121 887 m
2186 887 l
2186 908 l
2121 908 l
cp
gs
1 1 1 rgb
eofi
gr
1 1 1 rgb
st
2121 887 m
2186 887 l
0 0 0 rgb
st
2186 887 m
2186 908 l
st
2121 908 m
2121 887 l
st
2213 878 m
2277 878 l
2277 908 l
2213 908 l
cp
gs
1 1 1 rgb
eofi
gr
1 1 1 rgb
st
2213 878 m
2277 878 l
0 0 0 rgb
st
2277 878 m
2277 908 l
st
2213 908 m
2213 878 l
st
2305 880 m
2369 880 l
2369 908 l
2305 908 l
cp
gs
1 1 1 rgb
eofi
gr
1 1 1 rgb
st
2305 880 m
2369 880 l
0 0 0 rgb
st
2369 880 m
2369 908 l
st
2305 908 m
2305 880 l
st
2397 899 m
2461 899 l
2461 908 l
2397 908 l
cp
gs
1 1 1 rgb
eofi
gr
1 1 1 rgb
st
2397 899 m
2461 899 l
0 0 0 rgb
st
2461 899 m
2461 908 l
st
2397 908 m
2397 899 l
st
2489 906 m
2553 906 l
2553 908 l
2489 908 l
cp
gs
1 1 1 rgb
eofi
gr
1 1 1 rgb
st
2489 906 m
2553 906 l
0 0 0 rgb
st
2553 906 m
2553 908 l
st
2489 908 m
2489 906 l
st
2581 848 m
2645 848 l
2645 908 l
2581 908 l
cp
gs
1 1 1 rgb
eofi
gr
1 1 1 rgb
st
2581 848 m
2645 848 l
0 0 0 rgb
st
2645 848 m
2645 908 l
st
2581 908 m
2581 848 l
st
2673 896 m
2737 896 l
2737 908 l
2673 908 l
cp
gs
1 1 1 rgb
eofi
gr
1 1 1 rgb
st
2673 896 m
2737 896 l
0 0 0 rgb
st
2737 896 m
2737 908 l
st
2673 908 m
2673 896 l
st
2764 883 m
2829 883 l
2829 908 l
2764 908 l
cp
gs
1 1 1 rgb
eofi
gr
1 1 1 rgb
st
2764 883 m
2829 883 l
0 0 0 rgb
st
2829 883 m
2829 908 l
st
2764 908 m
2764 883 l
st
2856 876 m
2921 876 l
2921 908 l
2856 908 l
cp
gs
1 1 1 rgb
eofi
gr
1 1 1 rgb
st
2856 876 m
2921 876 l
0 0 0 rgb
st
2921 876 m
2921 908 l
st
2856 908 m
2856 876 l
st
2948 889 m
3012 889 l
3012 908 l
2948 908 l
cp
gs
1 1 1 rgb
eofi
gr
1 1 1 rgb
st
2948 889 m
3012 889 l
0 0 0 rgb
st
3012 889 m
3012 908 l
st
2948 908 m
2948 889 l
st
3040 802 m
3104 802 l
3104 908 l
3040 908 l
cp
gs
1 1 1 rgb
eofi
gr
1 1 1 rgb
st
3040 802 m
3104 802 l
0 0 0 rgb
st
3104 802 m
3104 908 l
st
3040 908 m
3040 802 l
st
3132 865 m
3196 865 l
3196 908 l
3132 908 l
cp
gs
1 1 1 rgb
eofi
gr
1 1 1 rgb
st
3132 865 m
3196 865 l
0 0 0 rgb
st
3196 865 m
3196 908 l
st
3132 908 m
3132 865 l
st
gr
gs
pathproc 270 565 2941 344 np rectpath
/eocl cland
np exec
284 581 m
348 581 l
348 883 l
284 883 l
cp
gs
eofi
gr
6 sw
1 sj
1 scap
st
376 581 m
440 581 l
440 904 l
376 904 l
cp
gs
eofi
gr
st
468 581 m
532 581 l
532 883 l
468 883 l
cp
gs
eofi
gr
st
559 581 m
624 581 l
624 901 l
559 901 l
cp
gs
eofi
gr
st
651 581 m
716 581 l
716 907 l
651 907 l
cp
gs
eofi
gr
st
743 581 m
807 581 l
807 907 l
743 907 l
cp
gs
eofi
gr
st
835 581 m
899 581 l
899 835 l
835 835 l
cp
gs
eofi
gr
st
927 581 m
991 581 l
991 873 l
927 873 l
cp
gs
eofi
gr
st
1019 581 m
1083 581 l
1083 900 l
1019 900 l
cp
gs
eofi
gr
st
1111 581 m
1175 581 l
1175 907 l
1111 907 l
cp
gs
eofi
gr
st
1203 581 m
1267 581 l
1267 893 l
1203 893 l
cp
gs
eofi
gr
st
1294 581 m
1359 581 l
1359 887 l
1294 887 l
cp
gs
eofi
gr
st
1386 581 m
1451 581 l
1451 907 l
1386 907 l
cp
gs
eofi
gr
st
1478 581 m
1542 581 l
1542 874 l
1478 874 l
cp
gs
eofi
gr
st
1570 581 m
1634 581 l
1634 908 l
1570 908 l
cp
gs
eofi
gr
st
1570 581 m
1634 581 l
st
1634 581 m
1634 908 l
st
1570 908 m
1570 581 l
st
1662 581 m
1726 581 l
1726 889 l
1662 889 l
cp
gs
eofi
gr
st
1754 581 m
1818 581 l
1818 884 l
1754 884 l
cp
gs
eofi
gr
st
1846 581 m
1910 581 l
1910 893 l
1846 893 l
cp
gs
eofi
gr
st
1938 581 m
2002 581 l
2002 892 l
1938 892 l
cp
gs
eofi
gr
st
2029 581 m
2094 581 l
2094 881 l
2029 881 l
cp
gs
eofi
gr
st
2121 581 m
2186 581 l
2186 887 l
2121 887 l
cp
gs
eofi
gr
st
2213 581 m
2277 581 l
2277 878 l
2213 878 l
cp
gs
eofi
gr
st
2305 581 m
2369 581 l
2369 880 l
2305 880 l
cp
gs
eofi
gr
st
2397 581 m
2461 581 l
2461 899 l
2397 899 l
cp
gs
eofi
gr
st
2489 581 m
2553 581 l
2553 906 l
2489 906 l
cp
gs
eofi
gr
st
2581 581 m
2645 581 l
2645 848 l
2581 848 l
cp
gs
eofi
gr
st
2673 581 m
2737 581 l
2737 896 l
2673 896 l
cp
gs
eofi
gr
st
2764 581 m
2829 581 l
2829 883 l
2764 883 l
cp
gs
eofi
gr
st
2856 581 m
2921 581 l
2921 876 l
2856 876 l
cp
gs
eofi
gr
st
2948 581 m
3012 581 l
3012 889 l
2948 889 l
cp
gs
eofi
gr
st
3040 581 m
3104 581 l
3104 802 l
3040 802 l
cp
gs
eofi
gr
st
3132 581 m
3196 581 l
3196 865 l
3132 865 l
cp
gs
eofi
gr
st
gr
272 464 m
3209 464 l
5 sw
1 sj
1 scap
st
272 464 m
272 476 l
st
364 464 m
364 476 l
st
456 464 m
456 476 l
st
547 464 m
547 476 l
st
639 464 m
639 476 l
st
731 464 m
731 476 l
st
823 464 m
823 476 l
st
914 464 m
914 476 l
st
1006 464 m
1006 476 l
st
1098 464 m
1098 476 l
st
1190 464 m
1190 476 l
st
1282 464 m
1282 476 l
st
1373 464 m
1373 476 l
st
1465 464 m
1465 476 l
st
1557 464 m
1557 476 l
st
1649 464 m
1649 476 l
st
1741 464 m
1741 476 l
st
1832 464 m
1832 476 l
st
1924 464 m
1924 476 l
st
2016 464 m
2016 476 l
st
2108 464 m
2108 476 l
st
2199 464 m
2199 476 l
st
2291 464 m
2291 476 l
st
2383 464 m
2383 476 l
st
2475 464 m
2475 476 l
st
2567 464 m
2567 476 l
st
2658 464 m
2658 476 l
st
2750 464 m
2750 476 l
st
2842 464 m
2842 476 l
st
2934 464 m
2934 476 l
st
3025 464 m
3025 476 l
st
3117 464 m
3117 476 l
st
3209 464 m
3209 476 l
st
318 464 m
318 487 l
st
410 464 m
410 487 l
st
501 464 m
501 487 l
st
593 464 m
593 487 l
st
685 464 m
685 487 l
st
777 464 m
777 487 l
st
869 464 m
869 487 l
st
960 464 m
960 487 l
st
1052 464 m
1052 487 l
st
1144 464 m
1144 487 l
st
1236 464 m
1236 487 l
st
1327 464 m
1327 487 l
st
1419 464 m
1419 487 l
st
1511 464 m
1511 487 l
st
1603 464 m
1603 487 l
st
1695 464 m
1695 487 l
st
1786 464 m
1786 487 l
st
1878 464 m
1878 487 l
st
1970 464 m
1970 487 l
st
2062 464 m
2062 487 l
st
2154 464 m
2154 487 l
st
2245 464 m
2245 487 l
st
2337 464 m
2337 487 l
st
2429 464 m
2429 487 l
st
2521 464 m
2521 487 l
st
2612 464 m
2612 487 l
st
2704 464 m
2704 487 l
st
2796 464 m
2796 487 l
st
2888 464 m
2888 487 l
st
2980 464 m
2980 487 l
st
3071 464 m
3071 487 l
st
3163 464 m
3163 487 l
st
272 464 m
272 102 l
st
272 430 m
260 430 l
st
272 361 m
260 361 l
st
272 292 m
260 292 l
st
272 223 m
260 223 l
st
272 154 m
260 154 l
st
272 464 m
249 464 l
st
272 395 m
249 395 l
st
272 326 m
249 326 l
st
272 257 m
249 257 l
st
272 188 m
249 188 l
st
272 119 m
249 119 l
st
gs
gr
gs
gr
gs
gs
1 -1 sc
228 -1097 tr
45 ro
/MC1_Arial 71 self 0 0 m
(24HR)[40 40 51 51 ] xs
1 -1 sc
gr
gr
gs
gr
gs
gr
gs
gs
1 -1 sc
287 -1130 tr
45 ro
/MC1_Arial 71 self 0 0 m
(24HRS)[40 40 51 51 47 ] xs
1 -1 sc
gr
gr
gs
gr
gs
gr
gs
gs
1 -1 sc
474 -1034 tr
45 ro
/MC1_Arial 71 self 0 0 m
(BS)[47 47 ] xs
1 -1 sc
gr
gr
gs
gr
gs
gr
gs
gs
1 -1 sc
525 -1075 tr
45 ro
/MC1_Arial 71 self 0 0 m
(casa)[36 40 36 40 ] xs
1 -1 sc
gr
gr
gs
gr
gs
gr
gs
gs
1 -1 sc
543 -1149 tr
45 ro
/MC1_Arial 71 self 0 0 m
(cheetah)[36 40 40 40 20 40 40 ] xs
1 -1 sc
gr
gr
gs
gr
gs
gr
gs
gs
1 -1 sc
716 -1068 tr
45 ro
/MC1_Arial 71 self 0 0 m
(CFS)[51 43 47 ] xs
1 -1 sc
gr
gr
gs
gr
gs
gr
gs
gs
1 -1 sc
769 -1107 tr
45 ro
/MC1_Arial 71 self 0 0 m
(DADS)[51 47 51 47 ] xs
1 -1 sc
gr
gr
gs
gr
gs
gr
gs
gs
1 -1 sc
896 -1071 tr
45 ro
/MC1_Arial 71 self 0 0 m
(DAP)[51 47 47 ] xs
1 -1 sc
gr
gr
gs
gr
gs
gr
gs
gs
1 -1 sc
983 -1076 tr
45 ro
/MC1_Arial 71 self 0 0 m
(DDR)[51 51 51 ] xs
1 -1 sc
gr
gr
gs
gr
gs
gr
gs
gs
1 -1 sc
957 -1194 tr
45 ro
/MC1_Arial 71 self 0 0 m
(Exchange)[47 36 36 40 40 40 40 40 ] xs
1 -1 sc
gr
gr
gs
gr
gs
gr
gs
gs
1 -1 sc
1123 -1120 tr
45 ro
/MC1_Arial 71 self 0 0 m
(homes)[40 40 59 40 36 ] xs
1 -1 sc
gr
gr
gs
gr
gs
gr
gs
gs
1 -1 sc
1292 -1042 tr
45 ro
/MC1_Arial 71 self 0 0 m
(ikki)[16 36 36 16 ] xs
1 -1 sc
gr
gr
gs
gr
gs
gr
gs
gs
1 -1 sc
1322 -1104 tr
45 ro
/MC1_Arial 71 self 0 0 m
(LMBE)[40 59 47 47 ] xs
1 -1 sc
gr
gr
gs
gr
gs
gr
gs
gs
1 -1 sc
1356 -1162 tr
45 ro
/MC1_Arial 71 self 0 0 m
(madmax)[59 40 40 59 40 36 ] xs
1 -1 sc
gr
gr
gs
gr
gs
gr
gs
gs
1 -1 sc
1467 -1143 tr
45 ro
/MC1_Arial 71 self 0 0 m
(MSNFS)[59 47 51 43 47 ] xs
1 -1 sc
gr
gr
gs
gr
gs
gr
gs
gs
1 -1 sc
1598 -1104 tr
45 ro
/MC1_Arial 71 self 0 0 m
(online)[40 40 16 16 40 40 ] xs
1 -1 sc
gr
gr
gs
gr
gs
gr
gs
gs
1 -1 sc
1669 -1124 tr
45 ro
/MC1_Arial 71 self 0 0 m
(topgun)[20 40 40 40 40 40 ] xs
1 -1 sc
gr
gr
gs
gr
gs
gr
gs
gs
1 -1 sc
1732 -1153 tr
45 ro
/MC1_Arial 71 self 0 0 m
(webmail)[51 40 40 59 40 16 16 ] xs
1 -1 sc
gr
gr
gs
gr
gs
gr
gs
gs
1 -1 sc
1752 -1225 tr
45 ro
/MC1_Arial 71 self 0 0 m
(web+online)[51 40 40 41 40 40 16 16 40 40 ] xs
1 -1 sc
gr
gr
gs
gr
gs
gr
gs
gs
1 -1 sc
1810 -1259 tr
45 ro
/MC1_Arial 71 self 0 0 m
(webresearch)[51 40 40 24 40 36 40 40 24 36 40 ] xs
1 -1 sc
gr
gr
gs
gr
gs
gr
gs
gs
1 -1 sc
1976 -1185 tr
45 ro
/MC1_Arial 71 self 0 0 m
(webusers)[51 40 40 40 36 40 24 36 ] xs
1 -1 sc
gr
gr
gs
gr
gs
gr
gs
gs
1 -1 sc
2189 -1063 tr
45 ro
/MC1_Arial 71 self 0 0 m
(mds)[59 40 36 ] xs
1 -1 sc
gr
gr
gs
gr
gs
gr
gs
gs
1 -1 sc
2127 -1217 tr
45 ro
/MC1_Arial 71 self 0 0 m
(MSRC_prn)[59 47 51 51 40 40 24 40 ] xs
1 -1 sc
gr
gr
gs
gr
gs
gr
gs
gs
1 -1 sc
2383 -1053 tr
45 ro
/MC1_Arial 71 self 0 0 m
(proj)[40 24 40 16 ] xs
1 -1 sc
gr
gr
gs
gr
gs
gr
gs
gs
1 -1 sc
2464 -1064 tr
45 ro
/MC1_Arial 71 self 0 0 m
(prxy)[40 24 36 36 ] xs
1 -1 sc
gr
gr
gs
gr
gs
gr
gs
gs
1 -1 sc
2538 -1081 tr
45 ro
/MC1_Arial 71 self 0 0 m
(rsrch)[24 36 24 36 40 ] xs
1 -1 sc
gr
gr
gs
gr
gs
gr
gs
gs
1 -1 sc
2647 -1064 tr
45 ro
/MC1_Arial 71 self 0 0 m
(src1)[36 24 36 40 ] xs
1 -1 sc
gr
gr
gs
gr
gs
gr
gs
gs
1 -1 sc
2739 -1064 tr
45 ro
/MC1_Arial 71 self 0 0 m
(src2)[36 24 36 40 ] xs
1 -1 sc
gr
gr
gs
gr
gs
gr
gs
gs
1 -1 sc
2859 -1036 tr
45 ro
/MC1_Arial 71 self 0 0 m
(stg)[36 20 40 ] xs
1 -1 sc
gr
gr
gs
gr
gs
gr
gs
gs
1 -1 sc
2948 -1039 tr
45 ro
/MC1_Arial 71 self 0 0 m
(usr)[40 36 24 ] xs
1 -1 sc
gr
gr
gs
gr
gs
gr
gs
gs
1 -1 sc
2992 -1086 tr
45 ro
/MC1_Arial 71 self 0 0 m
(wdev)[51 40 40 36 ] xs
1 -1 sc
gr
gr
gs
gr
gs
gr
gs
gs
1 -1 sc
3109 -1061 tr
45 ro
/MC1_Arial 71 self 0 0 m
(web)[51 40 40 ] xs
1 -1 sc
gr
gr
gs
gr
gs
gr
gs
1 -1 sc
/MC2_Arial 74 self 222 -475 m
(0)[41 ] xs
1 -1 sc
gr
gs
gr
gs
gr
gs
1 -1 sc
/MC2_Arial 74 self 181 -406 m
(20)[41 41 ] xs
1 -1 sc
gr
gs
gr
gs
gr
gs
1 -1 sc
/MC2_Arial 74 self 181 -337 m
(40)[41 41 ] xs
1 -1 sc
gr
gs
gr
gs
gr
gs
1 -1 sc
/MC2_Arial 74 self 181 -268 m
(60)[41 41 ] xs
1 -1 sc
gr
gs
gr
gs
gr
gs
1 -1 sc
/MC2_Arial 74 self 181 -199 m
(80)[41 41 ] xs
1 -1 sc
gr
gs
gr
gs
gr
gs
1 -1 sc
/MC2_Arial 74 self 140 -130 m
(100)[41 41 41 ] xs
1 -1 sc
gr
927 12 m
1940 12 l
1940 97 l
927 97 l
cp
gs
1 1 1 rgb
eofi
gr
2 sw
st
gs
gs
gs
941 22 m
1073 22 l
1073 85 l
941 85 l
cp
gs
eofi
gr
6 sw
st
gr
gr
1 -1 sc
/MC2_Arial 62 self 1076 -75 m
( )[17 ] xs
1 -1 sc
1 -1 sc
1093 -75 m
(System interval)[41 29 31 17 34 52 17 14 34 17 34 21 31 34 14 ] xs
1 -1 sc
1 -1 sc
1513 -75 m
( )[17 ] xs
1 -1 sc
gs
gs
1533 22 m
1665 22 l
1665 85 l
1533 85 l
cp
gs
1 1 1 rgb
eofi
gr
6 sw
st
gr
gr
1 -1 sc
1668 -75 m
( )[17 ] xs
1 -1 sc
1 -1 sc
1685 -75 m
(User Idle)[45 31 34 21 17 17 34 14 34 ] xs
1 -1 sc
gr
272 102 m
3209 102 l
5 sw
st
566 102 m
566 114 l
st
1153 102 m
1153 114 l
st
1741 102 m
1741 114 l
st
2328 102 m
2328 114 l
st
2915 102 m
2915 114 l
st
272 102 m
272 125 l
st
859 102 m
859 125 l
st
1447 102 m
1447 125 l
st
2034 102 m
2034 125 l
st
2622 102 m
2622 125 l
st
3209 102 m
3209 125 l
st
3209 464 m
3209 102 l
st
3209 428 m
3197 428 l
st
3209 355 m
3197 355 l
st
3209 283 m
3197 283 l
st
3209 211 m
3197 211 l
st
3209 138 m
3197 138 l
st
3209 464 m
3186 464 l
st
3209 392 m
3186 392 l
st
3209 319 m
3186 319 l
st
3209 247 m
3186 247 l
st
3209 174 m
3186 174 l
st
3209 102 m
3186 102 l
st
gs
gr
gs
gr
gs
gr
gs
gr
2056 629 m
3083 629 l
3083 729 l
2056 729 l
cp
1 1 1 rgb
eofi
2056 629 m
2078 629 l
6 sw
0 0 1 rgb
st
2111 629 m
2133 629 l
st
2166 629 m
2188 629 l
st
2221 629 m
2243 629 l
st
2276 629 m
2298 629 l
st
2331 629 m
2353 629 l
st
2386 629 m
2408 629 l
st
2441 629 m
2463 629 l
st
2496 629 m
2518 629 l
st
2551 629 m
2573 629 l
st
2606 629 m
2628 629 l
st
2661 629 m
2683 629 l
st
2716 629 m
2738 629 l
st
2771 629 m
2793 629 l
st
2826 629 m
2848 629 l
st
2881 629 m
2903 629 l
st
2936 629 m
2958 629 l
st
2991 629 m
3013 629 l
st
3046 629 m
3068 629 l
st
3083 647 m
3083 669 l
st
3083 702 m
3083 724 l
st
3055 729 m
3033 729 l
st
3000 729 m
2978 729 l
st
2945 729 m
2923 729 l
st
2890 729 m
2868 729 l
st
2835 729 m
2813 729 l
st
2780 729 m
2758 729 l
st
2725 729 m
2703 729 l
st
2670 729 m
2648 729 l
st
2615 729 m
2593 729 l
st
2560 729 m
2538 729 l
st
2505 729 m
2483 729 l
st
2450 729 m
2428 729 l
st
2395 729 m
2373 729 l
st
2340 729 m
2318 729 l
st
2285 729 m
2263 729 l
st
2230 729 m
2208 729 l
st
2175 729 m
2153 729 l
st
2120 729 m
2098 729 l
st
2065 729 m
2056 716 l
st
2056 683 m
2056 661 l
st
gs
1 -1 sc
/MC2_Arial 88 self 2056 -708 m
(Busy-idle freq. breakdown)[59 49 44 43 29 20 49 20 49 24 25 29 49 49 24 24 49 29 49 49 45 49 49 63 49 ] xs
1 -1 sc
gr
2058 334 m
3085 334 l
3085 435 l
2058 435 l
cp
1 1 1 rgb
eofi
2058 334 m
2080 334 l
0 0 1 rgb
st
2113 334 m
2135 334 l
st
2168 334 m
2190 334 l
st
2223 334 m
2245 334 l
st
2278 334 m
2300 334 l
st
2333 334 m
2355 334 l
st
2388 334 m
2410 334 l
st
2443 334 m
2465 334 l
st
2498 334 m
2520 334 l
st
2553 334 m
2575 334 l
st
2608 334 m
2630 334 l
st
2663 334 m
2685 334 l
st
2718 334 m
2740 334 l
st
2773 334 m
2795 334 l
st
2828 334 m
2850 334 l
st
2883 334 m
2905 334 l
st
2938 334 m
2960 334 l
st
2993 334 m
3015 334 l
st
3048 334 m
3070 334 l
st
3085 352 m
3085 374 l
st
3085 407 m
3085 429 l
st
3058 435 m
3036 435 l
st
3003 435 m
2981 435 l
st
2948 435 m
2926 435 l
st
2893 435 m
2871 435 l
st
2838 435 m
2816 435 l
st
2783 435 m
2761 435 l
st
2728 435 m
2706 435 l
st
2673 435 m
2651 435 l
st
2618 435 m
2596 435 l
st
2563 435 m
2541 435 l
st
2508 435 m
2486 435 l
st
2453 435 m
2431 435 l
st
2398 435 m
2376 435 l
st
2343 435 m
2321 435 l
st
2288 435 m
2266 435 l
st
2233 435 m
2211 435 l
st
2178 435 m
2156 435 l
st
2123 435 m
2101 435 l
st
2068 435 m
2058 423 l
st
2058 390 m
2058 368 l
st
2058 335 m
2058 335 l
st
gs
1 -1 sc
/MC2_Arial 88 self 2065 -414 m
(Systemic idles breakdown)[59 43 44 24 49 74 20 44 24 20 49 20 49 44 24 49 29 49 49 45 49 49 63 49 ] xs
1 -1 sc
gr
270 908 m
3210 908 l
5 sw
0 0 0 rgb
st
270 908 m
270 919 l
st
362 908 m
362 919 l
st
454 908 m
454 919 l
st
546 908 m
546 919 l
st
638 908 m
638 919 l
st
729 908 m
729 919 l
st
821 908 m
821 919 l
st
913 908 m
913 919 l
st
1005 908 m
1005 919 l
st
1097 908 m
1097 919 l
st
1189 908 m
1189 919 l
st
1281 908 m
1281 919 l
st
1373 908 m
1373 919 l
st
1464 908 m
1464 919 l
st
1556 908 m
1556 919 l
st
1648 908 m
1648 919 l
st
1740 908 m
1740 919 l
st
1832 908 m
1832 919 l
st
1924 908 m
1924 919 l
st
2016 908 m
2016 919 l
st
2108 908 m
2108 919 l
st
2199 908 m
2199 919 l
st
2291 908 m
2291 919 l
st
2383 908 m
2383 919 l
st
2475 908 m
2475 919 l
st
2567 908 m
2567 919 l
st
2659 908 m
2659 919 l
st
2751 908 m
2751 919 l
st
2843 908 m
2843 919 l
st
2934 908 m
2934 919 l
st
3026 908 m
3026 919 l
st
3118 908 m
3118 919 l
st
3210 908 m
3210 919 l
st
316 908 m
316 931 l
st
408 908 m
408 931 l
st
500 908 m
500 931 l
st
592 908 m
592 931 l
st
683 908 m
683 931 l
st
775 908 m
775 931 l
st
867 908 m
867 931 l
st
959 908 m
959 931 l
st
1051 908 m
1051 931 l
st
1143 908 m
1143 931 l
st
1235 908 m
1235 931 l
st
1327 908 m
1327 931 l
st
1418 908 m
1418 931 l
st
1510 908 m
1510 931 l
st
1602 908 m
1602 931 l
st
1694 908 m
1694 931 l
st
1786 908 m
1786 931 l
st
1878 908 m
1878 931 l
st
1970 908 m
1970 931 l
st
2062 908 m
2062 931 l
st
2153 908 m
2153 931 l
st
2245 908 m
2245 931 l
st
2337 908 m
2337 931 l
st
2429 908 m
2429 931 l
st
2521 908 m
2521 931 l
st
2613 908 m
2613 931 l
st
2705 908 m
2705 931 l
st
2797 908 m
2797 931 l
st
2888 908 m
2888 931 l
st
2980 908 m
2980 931 l
st
3072 908 m
3072 931 l
st
3164 908 m
3164 931 l
st
270 908 m
270 565 l
st
270 875 m
259 875 l
st
270 810 m
259 810 l
st
270 745 m
259 745 l
st
270 679 m
259 679 l
st
270 614 m
259 614 l
st
270 908 m
247 908 l
st
270 843 m
247 843 l
st
270 777 m
247 777 l
st
270 712 m
247 712 l
st
270 647 m
247 647 l
st
270 581 m
247 581 l
st
gs
gr
gs
gr
gs
gs
1 -1 sc
230 -1465 tr
45 ro
/MC1_Arial 69 self 0 0 m
(24HR)[38 38 50 50 ] xs
1 -1 sc
gr
gr
gs
gr
gs
gr
gs
gs
1 -1 sc
289 -1498 tr
45 ro
/MC1_Arial 69 self 0 0 m
(24HRS)[38 38 50 50 46 ] xs
1 -1 sc
gr
gr
gs
gr
gs
gr
gs
gs
1 -1 sc
473 -1406 tr
45 ro
/MC1_Arial 69 self 0 0 m
(BS)[46 46 ] xs
1 -1 sc
gr
gr
gs
gr
gs
gr
gs
gs
1 -1 sc
527 -1444 tr
45 ro
/MC1_Arial 69 self 0 0 m
(casa)[35 38 35 38 ] xs
1 -1 sc
gr
gr
gs
gr
gs
gr
gs
gs
1 -1 sc
548 -1514 tr
45 ro
/MC1_Arial 69 self 0 0 m
(cheetah)[35 38 38 38 19 38 38 ] xs
1 -1 sc
gr
gr
gs
gr
gs
gr
gs
gs
1 -1 sc
715 -1439 tr
45 ro
/MC1_Arial 69 self 0 0 m
(CFS)[50 42 46 ] xs
1 -1 sc
gr
gr
gs
gr
gs
gr
gs
gs
1 -1 sc
769 -1477 tr
45 ro
/MC1_Arial 69 self 0 0 m
(DADS)[50 46 50 46 ] xs
1 -1 sc
gr
gr
gs
gr
gs
gr
gs
gs
1 -1 sc
897 -1441 tr
45 ro
/MC1_Arial 69 self 0 0 m
(DAP)[50 46 46 ] xs
1 -1 sc
gr
gr
gs
gr
gs
gr
gs
gs
1 -1 sc
983 -1447 tr
45 ro
/MC1_Arial 69 self 0 0 m
(DDR)[50 50 50 ] xs
1 -1 sc
gr
gr
gs
gr
gs
gr
gs
gs
1 -1 sc
965 -1557 tr
45 ro
/MC1_Arial 69 self 0 0 m
(Exchange)[46 35 35 38 38 38 38 38 ] xs
1 -1 sc
gr
gr
gs
gr
gs
gr
gs
gs
1 -1 sc
1127 -1487 tr
45 ro
/MC1_Arial 69 self 0 0 m
(homes)[38 38 57 38 35 ] xs
1 -1 sc
gr
gr
gs
gr
gs
gr
gs
gs
1 -1 sc
1294 -1412 tr
45 ro
/MC1_Arial 69 self 0 0 m
(ikki)[15 35 35 15 ] xs
1 -1 sc
gr
gr
gs
gr
gs
gr
gs
gs
1 -1 sc
1324 -1473 tr
45 ro
/MC1_Arial 69 self 0 0 m
(LMBE)[38 57 46 46 ] xs
1 -1 sc
gr
gr
gs
gr
gs
gr
gs
gs
1 -1 sc
1362 -1527 tr
45 ro
/MC1_Arial 69 self 0 0 m
(madmax)[57 38 38 57 38 35 ] xs
1 -1 sc
gr
gr
gs
gr
gs
gr
gs
gs
1 -1 sc
1470 -1511 tr
45 ro
/MC1_Arial 69 self 0 0 m
(MSNFS)[57 46 50 42 46 ] xs
1 -1 sc
gr
gr
gs
gr
gs
gr
gs
gs
1 -1 sc
1603 -1470 tr
45 ro
/MC1_Arial 69 self 0 0 m
(online)[38 38 15 15 38 38 ] xs
1 -1 sc
gr
gr
gs
gr
gs
gr
gs
gs
1 -1 sc
1676 -1489 tr
45 ro
/MC1_Arial 69 self 0 0 m
(topgun)[19 38 38 38 38 38 ] xs
1 -1 sc
gr
gr
gs
gr
gs
gr
gs
gs
1 -1 sc
1739 -1518 tr
45 ro
/MC1_Arial 69 self 0 0 m
(webmail)[50 38 38 57 38 15 15 ] xs
1 -1 sc
gr
gr
gs
gr
gs
gr
gs
gs
1 -1 sc
1762 -1587 tr
45 ro
/MC1_Arial 69 self 0 0 m
(web+online)[50 38 38 40 38 38 15 15 38 38 ] xs
1 -1 sc
gr
gr
gs
gr
gs
gr
gs
gs
1 -1 sc
1821 -1620 tr
45 ro
/MC1_Arial 69 self 0 0 m
(webresearch)[50 38 38 23 38 35 38 38 23 35 38 ] xs
1 -1 sc
gr
gr
gs
gr
gs
gr
gs
gs
1 -1 sc
1982 -1550 tr
45 ro
/MC1_Arial 69 self 0 0 m
(webusers)[50 38 38 38 35 38 23 35 ] xs
1 -1 sc
gr
gr
gs
gr
gs
gr
gs
gs
1 -1 sc
2191 -1433 tr
45 ro
/MC1_Arial 69 self 0 0 m
(mds)[57 38 35 ] xs
1 -1 sc
gr
gr
gs
gr
gs
gr
gs
gs
1 -1 sc
2135 -1581 tr
45 ro
/MC1_Arial 69 self 0 0 m
(MSRC_prn)[57 46 50 50 38 38 23 38 ] xs
1 -1 sc
gr
gr
gs
gr
gs
gr
gs
gs
1 -1 sc
2386 -1422 tr
45 ro
/MC1_Arial 69 self 0 0 m
(proj)[38 23 38 15 ] xs
1 -1 sc
gr
gr
gs
gr
gs
gr
gs
gs
1 -1 sc
2466 -1434 tr
45 ro
/MC1_Arial 69 self 0 0 m
(prxy)[38 23 35 35 ] xs
1 -1 sc
gr
gr
gs
gr
gs
gr
gs
gs
1 -1 sc
2542 -1450 tr
45 ro
/MC1_Arial 69 self 0 0 m
(rsrch)[23 35 23 35 38 ] xs
1 -1 sc
gr
gr
gs
gr
gs
gr
gs
gs
1 -1 sc
2650 -1434 tr
45 ro
/MC1_Arial 69 self 0 0 m
(src1)[35 23 35 38 ] xs
1 -1 sc
gr
gr
gs
gr
gs
gr
gs
gs
1 -1 sc
2742 -1434 tr
45 ro
/MC1_Arial 69 self 0 0 m
(src2)[35 23 35 38 ] xs
1 -1 sc
gr
gr
gs
gr
gs
gr
gs
gs
1 -1 sc
2861 -1406 tr
45 ro
/MC1_Arial 69 self 0 0 m
(stg)[35 19 38 ] xs
1 -1 sc
gr
gr
gs
gr
gs
gr
gs
gs
1 -1 sc
2950 -1409 tr
45 ro
/MC1_Arial 69 self 0 0 m
(usr)[38 35 23 ] xs
1 -1 sc
gr
gr
gs
gr
gs
gr
gs
gs
1 -1 sc
2996 -1455 tr
45 ro
/MC1_Arial 69 self 0 0 m
(wdev)[50 38 38 35 ] xs
1 -1 sc
gr
gr
gs
gr
gs
gr
gs
gs
1 -1 sc
3113 -1430 tr
45 ro
/MC1_Arial 69 self 0 0 m
(web)[50 38 38 ] xs
1 -1 sc
gr
gr
gs
gr
gs
gr
gs
1 -1 sc
/MC2_Arial 72 self 220 -958 m
(0)[40 ] xs
1 -1 sc
gr
gs
gr
gs
gr
gs
1 -1 sc
/MC2_Arial 72 self 180 -893 m
(20)[40 40 ] xs
1 -1 sc
gr
gs
gr
gs
gr
gs
1 -1 sc
/MC2_Arial 72 self 180 -827 m
(40)[40 40 ] xs
1 -1 sc
gr
gs
gr
gs
gr
gs
1 -1 sc
/MC2_Arial 72 self 180 -762 m
(60)[40 40 ] xs
1 -1 sc
gr
gs
gr
gs
gr
gs
1 -1 sc
/MC2_Arial 72 self 180 -697 m
(80)[40 40 ] xs
1 -1 sc
gr
gs
gr
gs
gr
gs
1 -1 sc
/MC2_Arial 72 self 140 -631 m
(100)[40 40 40 ] xs
1 -1 sc
gr
gs
gr
gs
gr
gs
gr
gs
gr
gs
gr
gs
gr
gs
gr
gs
gr
gs
gs
1 -1 sc
130 -493 tr
90 ro
/MC1_Arial 84 self 0 0 m
(Percentage)[56 47 28 42 47 47 23 47 47 47 ] xs
1 -1 sc
gr
gr
270 565 m
3210 565 l
st
564 565 m
564 576 l
st
1152 565 m
1152 576 l
st
1740 565 m
1740 576 l
st
2328 565 m
2328 576 l
st
2916 565 m
2916 576 l
st
270 565 m
270 588 l
st
858 565 m
858 588 l
st
1446 565 m
1446 588 l
st
2034 565 m
2034 588 l
st
2622 565 m
2622 588 l
st
3210 565 m
3210 588 l
st
3210 908 m
3210 565 l
st
3210 874 m
3199 874 l
st
3210 805 m
3199 805 l
st
3210 737 m
3199 737 l
st
3210 668 m
3199 668 l
st
3210 599 m
3199 599 l
st
3210 908 m
3187 908 l
st
3210 839 m
3187 839 l
st
3210 771 m
3187 771 l
st
3210 702 m
3187 702 l
st
3210 634 m
3187 634 l
st
3210 565 m
3187 565 l
st
gs
gr
gs
gr
gs
gr
gs
gr
gs
gs
1 -1 sc
130 -981 tr
90 ro
/MC1_Arial 84 self 0 0 m
(Percentage)[56 47 28 42 47 47 23 47 47 47 ] xs
1 -1 sc
gr
gr
gr
Save0 restore end
showpage
%%EOF
